proyecto/src/part_A/tba.vcd
$date
	Mon Dec  7 13:44:44 2020
$end
$version
	Icarus Verilog
$end
$timescale
	1s
$end
$scope module top $end
$var wire 4 ! Q_A [3:0] $end
$var wire 1 " load_ $end
$var wire 1 # load_A $end
$var wire 1 $ rco_ $end
$var wire 1 % rco_A $end
$var wire 1 & reset $end
$var wire 1 ' rco_x $end
$var wire 2 ( mode_ [1:0] $end
$var wire 1 ) load_x $end
$var wire 1 * enable_ $end
$var wire 1 + clock $end
$var wire 4 , Q_x [3:0] $end
$var wire 4 - D_ [3:0] $end
$scope module clock_m $end
$var reg 1 + clock $end
$upscope $end
$scope module dut $end
$var wire 1 + clk $end
$var wire 1 & reset $end
$var wire 2 . mode [1:0] $end
$var wire 1 * enable $end
$var wire 4 / D [3:0] $end
$var reg 4 0 Q [3:0] $end
$var reg 1 ) load $end
$var reg 1 ' rco $end
$upscope $end
$scope module tb $end
$var wire 4 1 Q_A [3:0] $end
$var wire 1 + clk $end
$var wire 1 " load_ $end
$var wire 1 # load_A $end
$var wire 1 $ rco_ $end
$var wire 1 % rco_A $end
$var wire 1 2 clock $end
$var reg 4 3 D_ [3:0] $end
$var reg 1 * enable_ $end
$var reg 2 4 mode_ [1:0] $end
$var reg 1 & reset $end
$var integer 32 5 log_A [31:0] $end
$scope module clock_tb $end
$var reg 1 2 clock $end
$upscope $end
$scope module sb $end
$var wire 4 6 D_sb4 [3:0] $end
$var wire 1 + clk $end
$var wire 1 * enable_ $end
$var wire 2 7 mode_sb4 [1:0] $end
$var wire 1 & reset $end
$var reg 4 8 Q_sb4 [3:0] $end
$var reg 1 9 load_sb4 $end
$var reg 1 : rco_sb4 $end
$upscope $end
$scope task checker $end
$var integer 32 ; iteration [31:0] $end
$upscope $end
$scope task drv_init $end
$upscope $end
$scope task drv_request $end
$var integer 32 < iteration [31:0] $end
$upscope $end
$upscope $end
$upscope $end
$enddefinitions $end
#0
$dumpvars
bx <
bx ;
0:
09
bx 8
bx 7
bx 6
b10 5
bx 4
bx 3
02
bz 1
bx 0
bx /
bx .
bx -
bx ,
0+
x*
x)
bx (
x'
x&
z%
z$
z#
z"
bz !
$end
#5
0'
0)
b0 ,
b0 0
12
1+
#10
b1 -
b1 /
b1 3
b1 6
b0 (
b0 .
b0 4
b0 7
0*
0&
02
0+
#15
b0 8
12
1+
#20
b11 -
b11 /
b11 3
b11 6
b1 (
b1 .
b1 4
b1 7
02
0+
#25
12
1+
#30
1&
1*
02
0+
#35
12
1+
#40
b1100100 <
b1100100 ;
0&
02
0+
#45
b1111 8
1:
b1111 ,
b1111 0
1'
12
1+
#50
0:
0'
b1101 -
b1101 /
b1101 3
b1101 6
02
0+
#55
b1110 ,
b1110 0
b1110 8
12
1+
#60
b10 -
b10 /
b10 3
b10 6
02
0+
#65
b1101 8
b1101 ,
b1101 0
12
1+
#70
b1101 -
b1101 /
b1101 3
b1101 6
02
0+
#75
b1100 ,
b1100 0
b1100 8
12
1+
#80
b10 (
b10 .
b10 4
b10 7
02
0+
#85
b1001 8
b1001 ,
b1001 0
12
1+
#90
b1100 -
b1100 /
b1100 3
b1100 6
b1 (
b1 .
b1 4
b1 7
02
0+
#95
b1000 ,
b1000 0
b1000 8
12
1+
#100
b110 -
b110 /
b110 3
b110 6
02
0+
#105
b111 8
b111 ,
b111 0
12
1+
#110
b1010 -
b1010 /
b1010 3
b1010 6
02
0+
#115
b110 ,
b110 0
b110 8
12
1+
#120
b111 -
b111 /
b111 3
b111 6
02
0+
#125
b101 8
b101 ,
b101 0
12
1+
#130
b1111 -
b1111 /
b1111 3
b1111 6
b10 (
b10 .
b10 4
b10 7
02
0+
#135
b10 ,
b10 0
b10 8
12
1+
#140
b1110 -
b1110 /
b1110 3
b1110 6
02
0+
#145
b1111 8
1:
b1111 ,
b1111 0
1'
12
1+
#150
0:
0'
b101 -
b101 /
b101 3
b101 6
b0 (
b0 .
b0 4
b0 7
02
0+
#155
b0 ,
b0 0
1'
b0 8
1:
12
1+
#160
0'
0:
b1101 -
b1101 /
b1101 3
b1101 6
02
0+
#165
b1 8
b1 ,
b1 0
12
1+
#170
b101 -
b101 /
b101 3
b101 6
b1 (
b1 .
b1 4
b1 7
02
0+
#175
b0 ,
b0 0
b0 8
12
1+
#180
b1010 -
b1010 /
b1010 3
b1010 6
b11 (
b11 .
b11 4
b11 7
02
0+
#185
b1010 8
19
b1010 ,
b1010 0
1)
12
1+
#190
b0 -
b0 /
b0 3
b0 6
b0 (
b0 .
b0 4
b0 7
02
0+
#195
b1011 ,
b1011 0
0)
b1011 8
09
12
1+
#200
b1101 -
b1101 /
b1101 3
b1101 6
b10 (
b10 .
b10 4
b10 7
02
0+
#205
b1000 8
b1000 ,
b1000 0
12
1+
#210
b11 -
b11 /
b11 3
b11 6
02
0+
#215
b101 ,
b101 0
b101 8
12
1+
#220
b1 (
b1 .
b1 4
b1 7
02
0+
#225
b100 8
b100 ,
b100 0
12
1+
#230
b101 -
b101 /
b101 3
b101 6
b11 (
b11 .
b11 4
b11 7
02
0+
#235
b101 8
19
b101 ,
b101 0
1)
12
1+
#240
b1110 -
b1110 /
b1110 3
b1110 6
b10 (
b10 .
b10 4
b10 7
02
0+
#245
b10 8
09
b10 ,
b10 0
0)
12
1+
#250
b1111 -
b1111 /
b1111 3
b1111 6
b1 (
b1 .
b1 4
b1 7
02
0+
#255
b1 ,
b1 0
b1 8
12
1+
#260
b1010 -
b1010 /
b1010 3
b1010 6
b11 (
b11 .
b11 4
b11 7
02
0+
#265
b1010 8
19
b1010 ,
b1010 0
1)
12
1+
#270
b1100 -
b1100 /
b1100 3
b1100 6
b10 (
b10 .
b10 4
b10 7
02
0+
#275
b111 ,
b111 0
b111 8
09
0)
12
1+
#280
b1010 -
b1010 /
b1010 3
b1010 6
02
0+
#285
b100 8
b100 ,
b100 0
12
1+
#290
b1000 -
b1000 /
b1000 3
b1000 6
b1 (
b1 .
b1 4
b1 7
02
0+
#295
b11 ,
b11 0
b11 8
12
1+
#300
b1001 -
b1001 /
b1001 3
b1001 6
b0 (
b0 .
b0 4
b0 7
02
0+
#305
b100 8
b100 ,
b100 0
12
1+
#310
b110 -
b110 /
b110 3
b110 6
b11 (
b11 .
b11 4
b11 7
02
0+
#315
b110 8
19
b110 ,
b110 0
1)
12
1+
#320
b1110 -
b1110 /
b1110 3
b1110 6
b10 (
b10 .
b10 4
b10 7
02
0+
#325
b11 8
09
b11 ,
b11 0
0)
12
1+
#330
b1010 -
b1010 /
b1010 3
b1010 6
b0 (
b0 .
b0 4
b0 7
02
0+
#335
b100 ,
b100 0
b100 8
12
1+
#340
b1 -
b1 /
b1 3
b1 6
b11 (
b11 .
b11 4
b11 7
02
0+
#345
b1 8
19
b1 ,
b1 0
1)
12
1+
#350
b1111 -
b1111 /
b1111 3
b1111 6
b1 (
b1 .
b1 4
b1 7
02
0+
#355
b0 ,
b0 0
b0 8
09
0)
12
1+
#360
b1010 -
b1010 /
b1010 3
b1010 6
b11 (
b11 .
b11 4
b11 7
02
0+
#365
b1010 8
19
b1010 ,
b1010 0
1)
12
1+
#370
b101 -
b101 /
b101 3
b101 6
b10 (
b10 .
b10 4
b10 7
02
0+
#375
b111 ,
b111 0
b111 8
09
0)
12
1+
#380
b1001 -
b1001 /
b1001 3
b1001 6
b1 (
b1 .
b1 4
b1 7
02
0+
#385
b110 8
b110 ,
b110 0
12
1+
#390
b1100 -
b1100 /
b1100 3
b1100 6
b10 (
b10 .
b10 4
b10 7
02
0+
#395
b11 ,
b11 0
b11 8
12
1+
#400
b1111 -
b1111 /
b1111 3
b1111 6
b11 (
b11 .
b11 4
b11 7
02
0+
#405
b1111 8
19
b1111 ,
b1111 0
1)
12
1+
#410
b111 -
b111 /
b111 3
b111 6
b0 (
b0 .
b0 4
b0 7
02
0+
#415
b0 ,
b0 0
0)
1'
b0 8
1:
09
12
1+
#420
0'
0:
b1100 -
b1100 /
b1100 3
b1100 6
b11 (
b11 .
b11 4
b11 7
02
0+
#425
b1100 8
19
b1100 ,
b1100 0
1)
12
1+
#430
b1001 -
b1001 /
b1001 3
b1001 6
02
0+
#435
b1001 8
b1001 ,
b1001 0
12
1+
#440
b0 -
b0 /
b0 3
b0 6
b1 (
b1 .
b1 4
b1 7
02
0+
#445
b1000 8
09
b1000 ,
b1000 0
0)
12
1+
#450
b1 -
b1 /
b1 3
b1 6
b11 (
b11 .
b11 4
b11 7
02
0+
#455
b1 8
19
b1 ,
b1 0
1)
12
1+
#460
b1100 -
b1100 /
b1100 3
b1100 6
b10 (
b10 .
b10 4
b10 7
02
0+
#465
b1110 8
1:
09
b1110 ,
b1110 0
0)
1'
12
1+
#470
0:
0'
b1000 -
b1000 /
b1000 3
b1000 6
02
0+
#475
b1011 ,
b1011 0
b1011 8
12
1+
#480
b1101 -
b1101 /
b1101 3
b1101 6
b11 (
b11 .
b11 4
b11 7
02
0+
#485
b1101 8
19
b1101 ,
b1101 0
1)
12
1+
#490
b1110 -
b1110 /
b1110 3
b1110 6
b10 (
b10 .
b10 4
b10 7
02
0+
#495
b1010 ,
b1010 0
b1010 8
09
0)
12
1+
#500
b1001 -
b1001 /
b1001 3
b1001 6
b1 (
b1 .
b1 4
b1 7
02
0+
#505
b1001 8
b1001 ,
b1001 0
12
1+
#510
b11 -
b11 /
b11 3
b11 6
b11 (
b11 .
b11 4
b11 7
02
0+
#515
b11 8
19
b11 ,
b11 0
1)
12
1+
#520
b1000 -
b1000 /
b1000 3
b1000 6
b1 (
b1 .
b1 4
b1 7
02
0+
#525
b10 8
09
b10 ,
b10 0
0)
12
1+
#530
b1001 -
b1001 /
b1001 3
b1001 6
b11 (
b11 .
b11 4
b11 7
02
0+
#535
b1001 8
19
b1001 ,
b1001 0
1)
12
1+
#540
b1010 -
b1010 /
b1010 3
b1010 6
02
0+
#545
b1010 8
b1010 ,
b1010 0
12
1+
#550
b110 -
b110 /
b110 3
b110 6
b0 (
b0 .
b0 4
b0 7
02
0+
#555
b1011 ,
b1011 0
0)
b1011 8
09
12
1+
#560
b1100 -
b1100 /
b1100 3
b1100 6
b10 (
b10 .
b10 4
b10 7
02
0+
#565
b1000 8
b1000 ,
b1000 0
12
1+
#570
b110 -
b110 /
b110 3
b110 6
02
0+
#575
b101 ,
b101 0
b101 8
12
1+
#580
b11 -
b11 /
b11 3
b11 6
b11 (
b11 .
b11 4
b11 7
02
0+
#585
b11 8
19
b11 ,
b11 0
1)
12
1+
#590
02
0+
#595
12
1+
#600
b100 -
b100 /
b100 3
b100 6
02
0+
#605
b100 8
b100 ,
b100 0
12
1+
#610
b1011 -
b1011 /
b1011 3
b1011 6
02
0+
#615
b1011 8
b1011 ,
b1011 0
12
1+
#620
b1010 -
b1010 /
b1010 3
b1010 6
b10 (
b10 .
b10 4
b10 7
02
0+
#625
b1000 8
09
b1000 ,
b1000 0
0)
12
1+
#630
b1101 -
b1101 /
b1101 3
b1101 6
b1 (
b1 .
b1 4
b1 7
02
0+
#635
b111 ,
b111 0
b111 8
12
1+
#640
b101 -
b101 /
b101 3
b101 6
b10 (
b10 .
b10 4
b10 7
02
0+
#645
b100 8
b100 ,
b100 0
12
1+
#650
b1111 -
b1111 /
b1111 3
b1111 6
b1 (
b1 .
b1 4
b1 7
02
0+
#655
b11 ,
b11 0
b11 8
12
1+
#660
b100 -
b100 /
b100 3
b100 6
02
0+
#665
b10 8
b10 ,
b10 0
12
1+
#670
b1010 -
b1010 /
b1010 3
b1010 6
b0 (
b0 .
b0 4
b0 7
02
0+
#675
b11 ,
b11 0
b11 8
12
1+
#680
b1110 -
b1110 /
b1110 3
b1110 6
b11 (
b11 .
b11 4
b11 7
02
0+
#685
b1110 8
19
b1110 ,
b1110 0
1)
12
1+
#690
b1010 -
b1010 /
b1010 3
b1010 6
b0 (
b0 .
b0 4
b0 7
02
0+
#695
b1111 ,
b1111 0
0)
b1111 8
09
12
1+
#700
b11 -
b11 /
b11 3
b11 6
b1 (
b1 .
b1 4
b1 7
02
0+
#705
b1110 8
b1110 ,
b1110 0
12
1+
#710
b1110 -
b1110 /
b1110 3
b1110 6
b10 (
b10 .
b10 4
b10 7
02
0+
#715
b1011 ,
b1011 0
b1011 8
12
1+
#720
b1010 -
b1010 /
b1010 3
b1010 6
b11 (
b11 .
b11 4
b11 7
02
0+
#725
b1010 8
19
b1010 ,
b1010 0
1)
12
1+
#730
b1000 -
b1000 /
b1000 3
b1000 6
b10 (
b10 .
b10 4
b10 7
02
0+
#735
b111 ,
b111 0
b111 8
09
0)
12
1+
#740
b1 (
b1 .
b1 4
b1 7
02
0+
#745
b110 8
b110 ,
b110 0
12
1+
#750
b11 -
b11 /
b11 3
b11 6
b0 (
b0 .
b0 4
b0 7
02
0+
#755
b111 ,
b111 0
b111 8
12
1+
#760
b1001 -
b1001 /
b1001 3
b1001 6
02
0+
#765
b1000 8
b1000 ,
b1000 0
12
1+
#770
b1101 -
b1101 /
b1101 3
b1101 6
b11 (
b11 .
b11 4
b11 7
02
0+
#775
b1101 8
19
b1101 ,
b1101 0
1)
12
1+
#780
b1 (
b1 .
b1 4
b1 7
02
0+
#785
b1100 8
09
b1100 ,
b1100 0
0)
12
1+
#790
b1010 -
b1010 /
b1010 3
b1010 6
b10 (
b10 .
b10 4
b10 7
02
0+
#795
b1001 ,
b1001 0
b1001 8
12
1+
#800
b101 -
b101 /
b101 3
b101 6
02
0+
#805
b110 8
b110 ,
b110 0
12
1+
#810
b100 -
b100 /
b100 3
b100 6
02
0+
#815
b11 ,
b11 0
b11 8
12
1+
#820
b1001 -
b1001 /
b1001 3
b1001 6
b11 (
b11 .
b11 4
b11 7
02
0+
#825
b1001 8
19
b1001 ,
b1001 0
1)
12
1+
#830
b1000 -
b1000 /
b1000 3
b1000 6
b0 (
b0 .
b0 4
b0 7
02
0+
#835
b1010 ,
b1010 0
0)
b1010 8
09
12
1+
#840
b1101 -
b1101 /
b1101 3
b1101 6
02
0+
#845
b1011 8
b1011 ,
b1011 0
12
1+
#850
b1110 -
b1110 /
b1110 3
b1110 6
b11 (
b11 .
b11 4
b11 7
02
0+
#855
b1110 8
19
b1110 ,
b1110 0
1)
12
1+
#860
b1100 -
b1100 /
b1100 3
b1100 6
b0 (
b0 .
b0 4
b0 7
02
0+
#865
b1111 8
09
b1111 ,
b1111 0
0)
12
1+
#870
b1001 -
b1001 /
b1001 3
b1001 6
b1 (
b1 .
b1 4
b1 7
02
0+
#875
b1110 ,
b1110 0
b1110 8
12
1+
#880
b110 -
b110 /
b110 3
b110 6
b0 (
b0 .
b0 4
b0 7
02
0+
#885
b1111 8
b1111 ,
b1111 0
12
1+
#890
b1101 -
b1101 /
b1101 3
b1101 6
b10 (
b10 .
b10 4
b10 7
02
0+
#895
b1100 ,
b1100 0
b1100 8
12
1+
#900
b0 -
b0 /
b0 3
b0 6
02
0+
#905
b1001 8
b1001 ,
b1001 0
12
1+
#910
b1010 -
b1010 /
b1010 3
b1010 6
b11 (
b11 .
b11 4
b11 7
02
0+
#915
b1010 8
19
b1010 ,
b1010 0
1)
12
1+
#920
b10 (
b10 .
b10 4
b10 7
02
0+
#925
b111 8
09
b111 ,
b111 0
0)
12
1+
#930
b1 (
b1 .
b1 4
b1 7
02
0+
#935
b110 ,
b110 0
b110 8
12
1+
#940
b111 -
b111 /
b111 3
b111 6
02
0+
#945
b101 8
b101 ,
b101 0
12
1+
#950
b0 -
b0 /
b0 3
b0 6
b10 (
b10 .
b10 4
b10 7
02
0+
#955
b10 ,
b10 0
b10 8
12
1+
#960
b110 -
b110 /
b110 3
b110 6
02
0+
#965
b1111 8
1:
b1111 ,
b1111 0
1'
12
1+
#970
0:
0'
b1100 -
b1100 /
b1100 3
b1100 6
b1 (
b1 .
b1 4
b1 7
02
0+
#975
b1110 ,
b1110 0
b1110 8
12
1+
#980
b1000 -
b1000 /
b1000 3
b1000 6
b10 (
b10 .
b10 4
b10 7
02
0+
#985
b1011 8
b1011 ,
b1011 0
12
1+
#990
b1011 -
b1011 /
b1011 3
b1011 6
02
0+
#995
b1000 ,
b1000 0
b1000 8
12
1+
#1000
b1001 -
b1001 /
b1001 3
b1001 6
b11 (
b11 .
b11 4
b11 7
02
0+
#1005
b1001 8
19
b1001 ,
b1001 0
1)
12
1+
#1010
b1 -
b1 /
b1 3
b1 6
b10 (
b10 .
b10 4
b10 7
02
0+
#1015
b110 ,
b110 0
b110 8
09
0)
12
1+
#1020
b11 (
b11 .
b11 4
b11 7
02
0+
#1025
b1 8
19
b1 ,
b1 0
1)
12
1+
#1030
b0 -
b0 /
b0 3
b0 6
b10 (
b10 .
b10 4
b10 7
02
0+
#1035
b1110 ,
b1110 0
b1110 8
1:
09
0)
1'
12
1+
#1040
0'
0:
b101 -
b101 /
b101 3
b101 6
b1 (
b1 .
b1 4
b1 7
02
0+
#1045
b1101 8
b1101 ,
b1101 0
12
1+
#1050
02
0+
#1055
b1100 ,
b1100 0
b1100 8
12
1+
#1060
02
0+
#1065
b1011 8
b1011 ,
b1011 0
12
1+
#1070
02
0+
#1075
b1010 ,
b1010 0
b1010 8
12
1+
#1080
02
0+
#1085
b1001 8
b1001 ,
b1001 0
12
1+
#1090
02
0+
#1095
b1000 ,
b1000 0
b1000 8
12
1+
#1100
02
0+
#1105
b111 8
b111 ,
b111 0
12
1+
#1110
02
0+
#1115
b110 ,
b110 0
b110 8
12
1+
#1120
02
0+
#1125
b101 8
b101 ,
b101 0
12
1+
#1130
02
0+
#1135
b100 ,
b100 0
b100 8
12
1+
#1140
02
0+
#1145
b11 8
b11 ,
b11 0
12
1+
#1150
02
0+
#1155
b10 ,
b10 0
b10 8
12
1+
#1160
02
0+
#1165
b1 8
b1 ,
b1 0
12
1+
#1170
02
0+
#1175
b0 ,
b0 0
b0 8
12
1+
#1180
02
0+
#1185
b1111 8
1:
b1111 ,
b1111 0
1'
12
1+
#1190
0:
0'
02
0+
#1195
b1110 ,
b1110 0
b1110 8
12
1+
#1200
02
0+
#1205
b1101 8
b1101 ,
b1101 0
12
1+
#1210
02
0+
#1215
b1100 ,
b1100 0
b1100 8
12
1+
#1220
02
0+
#1225
b1011 8
b1011 ,
b1011 0
12
1+
#1230
02
0+
#1235
b1010 ,
b1010 0
b1010 8
12
1+
