proyecto/src/part_C/tba.vcd
$date
	Mon Dec  7 14:29:47 2020
$end
$version
	Icarus Verilog
$end
$timescale
	1s
$end
$scope module top $end
$var wire 32 ! Q_A [31:0] $end
$var wire 1 " load_ $end
$var wire 1 # load_A $end
$var wire 1 $ rco_ $end
$var wire 1 % rco_A $end
$var wire 1 & reset $end
$var wire 1 ' rco_x $end
$var wire 2 ( mode_ [1:0] $end
$var wire 1 ) load_x $end
$var wire 1 * enable_ $end
$var wire 1 + clock $end
$var wire 32 , Q_x [31:0] $end
$var wire 32 - D_ [31:0] $end
$scope module clock_m $end
$var reg 1 + clock $end
$upscope $end
$scope module dut $end
$var wire 1 + clk $end
$var wire 1 . enable_five $end
$var wire 1 / enable_four $end
$var wire 1 0 enable_one $end
$var wire 1 1 enable_seven $end
$var wire 1 2 enable_six $end
$var wire 1 3 enable_three $end
$var wire 1 4 enable_two $end
$var wire 1 ) load_32b $end
$var wire 1 & reset $end
$var wire 1 5 rco_zero $end
$var wire 1 6 rco_two $end
$var wire 1 7 rco_three $end
$var wire 1 8 rco_six $end
$var wire 1 9 rco_one $end
$var wire 1 : rco_four $end
$var wire 1 ; rco_five $end
$var wire 1 ' rco_32b $end
$var wire 2 < mode_newer [1:0] $end
$var wire 2 = mode [1:0] $end
$var wire 1 > load_zero $end
$var wire 1 ? load_two $end
$var wire 1 @ load_three $end
$var wire 1 A load_six $end
$var wire 1 B load_seven $end
$var wire 1 C load_one $end
$var wire 1 D load_four $end
$var wire 1 E load_five $end
$var wire 1 * enable $end
$var wire 1 F clk_two $end
$var wire 1 G clk_three $end
$var wire 1 H clk_six $end
$var wire 1 I clk_seven $end
$var wire 1 J clk_one $end
$var wire 1 K clk_four $end
$var wire 1 L clk_five $end
$var wire 32 M Q_32b [31:0] $end
$var wire 32 N D_32b [31:0] $end
$scope module counter_five $end
$var wire 4 O D [3:0] $end
$var wire 1 L clk $end
$var wire 1 . enable $end
$var wire 2 P mode [1:0] $end
$var wire 1 & reset $end
$var reg 4 Q Q [3:0] $end
$var reg 1 E load $end
$var reg 1 ; rco $end
$upscope $end
$scope module counter_four $end
$var wire 4 R D [3:0] $end
$var wire 1 K clk $end
$var wire 1 / enable $end
$var wire 2 S mode [1:0] $end
$var wire 1 & reset $end
$var reg 4 T Q [3:0] $end
$var reg 1 D load $end
$var reg 1 : rco $end
$upscope $end
$scope module counter_one $end
$var wire 4 U D [3:0] $end
$var wire 1 J clk $end
$var wire 1 0 enable $end
$var wire 2 V mode [1:0] $end
$var wire 1 & reset $end
$var reg 4 W Q [3:0] $end
$var reg 1 C load $end
$var reg 1 9 rco $end
$upscope $end
$scope module counter_seven $end
$var wire 4 X D [3:0] $end
$var wire 1 I clk $end
$var wire 1 1 enable $end
$var wire 2 Y mode [1:0] $end
$var wire 1 & reset $end
$var reg 4 Z Q [3:0] $end
$var reg 1 B load $end
$var reg 1 ' rco $end
$upscope $end
$scope module counter_six $end
$var wire 4 [ D [3:0] $end
$var wire 1 H clk $end
$var wire 1 2 enable $end
$var wire 2 \ mode [1:0] $end
$var wire 1 & reset $end
$var reg 4 ] Q [3:0] $end
$var reg 1 A load $end
$var reg 1 8 rco $end
$upscope $end
$scope module counter_three $end
$var wire 4 ^ D [3:0] $end
$var wire 1 G clk $end
$var wire 1 3 enable $end
$var wire 2 _ mode [1:0] $end
$var wire 1 & reset $end
$var reg 4 ` Q [3:0] $end
$var reg 1 @ load $end
$var reg 1 7 rco $end
$upscope $end
$scope module counter_two $end
$var wire 4 a D [3:0] $end
$var wire 1 F clk $end
$var wire 1 4 enable $end
$var wire 2 b mode [1:0] $end
$var wire 1 & reset $end
$var reg 4 c Q [3:0] $end
$var reg 1 ? load $end
$var reg 1 6 rco $end
$upscope $end
$scope module counter_zero $end
$var wire 4 d D [3:0] $end
$var wire 1 + clk $end
$var wire 1 & reset $end
$var wire 2 e mode [1:0] $end
$var wire 1 * enable $end
$var reg 4 f Q [3:0] $end
$var reg 1 > load $end
$var reg 1 5 rco $end
$upscope $end
$upscope $end
$scope module tb $end
$var wire 32 g Q_A [31:0] $end
$var wire 1 + clk $end
$var wire 1 " load_ $end
$var wire 1 # load_A $end
$var wire 1 $ rco_ $end
$var wire 1 % rco_A $end
$var wire 1 h clock $end
$var reg 32 i D_ [31:0] $end
$var reg 1 * enable_ $end
$var reg 2 j mode_ [1:0] $end
$var reg 1 & reset $end
$var integer 32 k log_A [31:0] $end
$scope module clock_tb $end
$var reg 1 h clock $end
$upscope $end
$scope module sb $end
$var wire 32 l D_sb32 [31:0] $end
$var wire 1 + clk $end
$var wire 1 * enable_ $end
$var wire 2 m mode_sb32 [1:0] $end
$var wire 1 & reset $end
$var reg 32 n Q_sb32 [31:0] $end
$var reg 1 o load_sb32 $end
$var reg 1 p rco_sb32 $end
$upscope $end
$scope task checker $end
$var integer 32 q iteration [31:0] $end
$upscope $end
$scope task drv_init $end
$upscope $end
$scope task drv_request $end
$var integer 32 r iteration [31:0] $end
$upscope $end
$upscope $end
$upscope $end
$enddefinitions $end
#0
$dumpvars
bx r
bx q
0p
0o
bx n
bx m
bx l
b10 k
bx j
bx i
0h
bz g
bx f
bx e
bx d
bx c
bx b
bx a
bx `
bx _
bx ^
bx ]
bx \
bx [
bx Z
bx Y
bx X
bx W
bx V
bx U
bx T
bx S
bx R
bx Q
bx P
bx O
bx N
bx M
xL
xK
xJ
xI
xH
xG
xF
xE
xD
xC
xB
xA
x@
x?
x>
bx =
bx <
x;
x:
x9
x8
x7
x6
x5
x4
x3
x2
x1
x0
x/
x.
bx -
bx ,
0+
x*
x)
bx (
x'
x&
z%
z$
z#
z"
bz !
$end
#5
0)
05
0>
bx0000 ,
bx0000 M
b0 f
1h
1+
#10
0I
0H
0L
0K
0G
0F
b0 X
b0 [
b0 O
b0 R
b0 ^
b0 a
b0 U
b1 d
b1 <
b1 P
b1 S
b1 V
b1 Y
b1 \
b1 _
b1 b
0J
b1 -
b1 N
b1 i
b1 l
b1 (
b1 =
b1 e
b1 j
b1 m
01
02
0.
0/
03
04
00
0*
0&
0h
0+
#15
0C
b0 W
0?
b0 c
0@
b0 `
0D
b0 T
0E
b0 Q
0A
b0 ]
0B
b0 ,
b0 M
b0 Z
b0 n
1J
1F
1G
1K
1L
1H
1I
1h
1+
#20
0J
0F
0G
0K
0L
0H
0I
0h
0+
#25
1J
1F
1G
1K
1L
1H
1I
1h
1+
#30
b10 d
0J
0F
0G
0K
0L
0H
0I
b10 -
b10 N
b10 i
b10 l
0h
0+
#35
1J
1F
1G
1K
1L
1H
1I
1h
1+
#40
b1110 Z
0'
b1110 ]
08
b1110 Q
0;
b1110 T
0:
b1110 `
07
b11101110111011101110111100000000 ,
b11101110111011101110111100000000 M
b1111 c
16
b11 d
0J
xF
1G
0K
0L
0H
0I
b1100100 r
b1100100 q
b11 -
b11 N
b11 i
b11 l
11
12
1.
1/
13
14
10
1*
0h
0+
#45
0G
b1110 c
06
1F
b1111 W
19
1J
b11111111111111111111111111111111 n
1p
b11101110111011101110111011111111 ,
b11101110111011101110111011111111 M
b1111 f
15
1h
1+
#50
0p
b100 d
b100 -
b100 N
b100 i
b100 l
0h
0+
#55
0J
b11101110111011101110111011111110 ,
b11101110111011101110111011111110 M
b1110 f
05
b11111111111111111111111111111110 n
1h
1+
#60
b101 d
b101 -
b101 N
b101 i
b101 l
0h
0+
#65
b11111111111111111111111111111101 n
b11101110111011101110111011111101 ,
b11101110111011101110111011111101 M
b1101 f
1h
1+
#70
0F
b110 d
b110 -
b110 N
b110 i
b110 l
1&
0h
0+
#75
b0 W
09
b0 c
b0 `
b0 T
b0 Q
b0 ]
b0 Z
b0 ,
b0 M
b0 f
b0 n
1J
1F
1G
1K
1L
1H
1I
1h
1+
#80
b111 d
0J
0F
0G
0K
0L
0H
0I
b111 -
b111 N
b111 i
b111 l
0&
0h
0+
#85
b1111 Z
1'
1I
b1111 ]
18
1H
b1111 Q
1;
1L
b1111 T
1:
1K
b1111 `
17
1G
b1111 c
16
1F
b1111 W
19
1J
b11111111111111111111111111111111 n
1p
b11111111111111111111111111111111 ,
b11111111111111111111111111111111 M
b1111 f
15
1h
1+
#90
0p
b1000 d
b1000 -
b1000 N
b1000 i
b1000 l
0h
0+
#95
0J
b11111111111111111111111111111110 ,
b11111111111111111111111111111110 M
b1110 f
05
b11111111111111111111111111111110 n
1h
1+
#100
b1001 d
b1001 -
b1001 N
b1001 i
b1001 l
0h
0+
#105
b11111111111111111111111111111101 n
b11111111111111111111111111111101 ,
b11111111111111111111111111111101 M
b1101 f
1h
1+
#110
b1010 d
b1010 -
b1010 N
b1010 i
b1010 l
0h
0+
#115
b11111111111111111111111111111100 ,
b11111111111111111111111111111100 M
b1100 f
b11111111111111111111111111111100 n
1h
1+
#120
b1011 d
b1011 -
b1011 N
b1011 i
b1011 l
0h
0+
#125
b11111111111111111111111111111011 n
b11111111111111111111111111111011 ,
b11111111111111111111111111111011 M
b1011 f
1h
1+
#130
b1100 d
b1100 -
b1100 N
b1100 i
b1100 l
0h
0+
#135
b11111111111111111111111111111010 ,
b11111111111111111111111111111010 M
b1010 f
b11111111111111111111111111111010 n
1h
1+
#140
b1101 d
b0 <
b0 P
b0 S
b0 V
b0 Y
b0 \
b0 _
b0 b
b1101 -
b1101 N
b1101 i
b1101 l
b0 (
b0 =
b0 e
b0 j
b0 m
0h
0+
#145
b11111111111111111111111111111011 n
b11111111111111111111111111111011 ,
b11111111111111111111111111111011 M
b1011 f
1h
1+
#150
b1110 d
b1110 -
b1110 N
b1110 i
b1110 l
0h
0+
#155
b11111111111111111111111111111100 ,
b11111111111111111111111111111100 M
b1100 f
b11111111111111111111111111111100 n
1h
1+
#160
b1111 d
b1111 -
b1111 N
b1111 i
b1111 l
0h
0+
#165
b11111111111111111111111111111101 n
b11111111111111111111111111111101 ,
b11111111111111111111111111111101 M
b1101 f
1h
1+
#170
0h
0+
#175
b11111111111111111111111111111110 ,
b11111111111111111111111111111110 M
b1110 f
b11111111111111111111111111111110 n
1h
1+
#180
0h
0+
#185
b11111111111111111111111111111111 n
b11111111111111111111111111111111 ,
b11111111111111111111111111111111 M
b1111 f
1h
1+
#190
0h
0+
#195
b0 W
1J
b11111111111111111111111100000000 ,
b11111111111111111111111100000000 M
b0 f
15
b0 n
1p
1h
1+
#200
0p
0I
0H
0L
0K
0G
0F
0J
b1101 d
b11 <
b11 P
b11 S
b11 V
b11 Y
b11 \
b11 _
b11 b
b1101 -
b1101 N
b1101 i
b1101 l
b11 (
b11 =
b11 e
b11 j
b11 m
0h
0+
#205
1)
1C
09
b0 c
1?
06
b0 `
1@
07
b0 T
1D
0:
b0 Q
1E
0;
b0 ]
1A
08
b0 Z
1B
0'
b1101 n
1o
b1101 ,
b1101 M
b1101 f
1>
05
1J
1F
1G
1K
1L
1H
1I
1h
1+
#210
b0 <
b0 P
b0 S
b0 V
b0 Y
b0 \
b0 _
b0 b
0J
0F
0G
0K
0L
0H
0I
b0 (
b0 =
b0 e
b0 j
b0 m
0h
0+
#215
0)
b1110 ,
b1110 M
b1110 f
0>
b1110 n
0o
1h
1+
#220
0h
0+
#225
b1111 n
b1111 ,
b1111 M
b1111 f
1h
1+
#230
0h
0+
#235
b1 W
0C
1J
b10000 ,
b10000 M
b0 f
15
b10000 n
1h
1+
#240
b100 d
b1 <
b1 P
b1 S
b1 V
b1 Y
b1 \
b1 _
b1 b
b100 -
b100 N
b100 i
b100 l
b1 (
b1 =
b1 e
b1 j
b1 m
0h
0+
#245
b1111 n
b11111 ,
b11111 M
b1111 f
1h
1+
#250
b101 d
b101 -
b101 N
b101 i
b101 l
0h
0+
#255
0J
b11110 ,
b11110 M
b1110 f
05
b1110 n
1h
1+
#260
b110 d
b110 -
b110 N
b110 i
b110 l
1&
0h
0+
#265
b0 W
0?
0@
0D
0E
0A
0B
b0 n
b0 ,
b0 M
b0 f
1J
1F
1G
1K
1L
1H
1I
1h
1+
#270
b111 d
0J
0F
0G
0K
0L
0H
0I
b111 -
b111 N
b111 i
b111 l
0&
0h
0+
#275
b1111 Z
1'
1I
b1111 ]
18
1H
b1111 Q
1;
1L
b1111 T
1:
1K
b1111 `
17
1G
b1111 c
16
1F
b1111 W
19
1J
b11111111111111111111111111111111 ,
b11111111111111111111111111111111 M
b1111 f
15
b11111111111111111111111111111111 n
1p
1h
1+
#280
0p
b1000 d
b1000 -
b1000 N
b1000 i
b1000 l
0h
0+
#285
0J
b11111111111111111111111111111110 n
b11111111111111111111111111111110 ,
b11111111111111111111111111111110 M
b1110 f
05
1h
1+
#290
b1001 d
b1001 -
b1001 N
b1001 i
b1001 l
0h
0+
#295
b11111111111111111111111111111101 ,
b11111111111111111111111111111101 M
b1101 f
b11111111111111111111111111111101 n
1h
1+
#300
b1010 d
b1010 -
b1010 N
b1010 i
b1010 l
0h
0+
#305
b11111111111111111111111111111100 n
b11111111111111111111111111111100 ,
b11111111111111111111111111111100 M
b1100 f
1h
1+
#310
b1011 d
b1011 -
b1011 N
b1011 i
b1011 l
0h
0+
#315
b11111111111111111111111111111011 ,
b11111111111111111111111111111011 M
b1011 f
b11111111111111111111111111111011 n
1h
1+
#320
b1100 d
b1100 -
b1100 N
b1100 i
b1100 l
0h
0+
#325
b11111111111111111111111111111010 n
b11111111111111111111111111111010 ,
b11111111111111111111111111111010 M
b1010 f
1h
1+
#330
b1101 d
b0 <
b0 P
b0 S
b0 V
b0 Y
b0 \
b0 _
b0 b
b1101 -
b1101 N
b1101 i
b1101 l
b0 (
b0 =
b0 e
b0 j
b0 m
0h
0+
#335
b11111111111111111111111111111011 ,
b11111111111111111111111111111011 M
b1011 f
b11111111111111111111111111111011 n
1h
1+
#340
b1110 d
b1110 -
b1110 N
b1110 i
b1110 l
0h
0+
#345
b11111111111111111111111111111100 n
b11111111111111111111111111111100 ,
b11111111111111111111111111111100 M
b1100 f
1h
1+
#350
b1111 d
b1111 -
b1111 N
b1111 i
b1111 l
0h
0+
#355
b11111111111111111111111111111101 ,
b11111111111111111111111111111101 M
b1101 f
b11111111111111111111111111111101 n
1h
1+
#360
0h
0+
#365
b11111111111111111111111111111110 n
b11111111111111111111111111111110 ,
b11111111111111111111111111111110 M
b1110 f
1h
1+
#370
0h
0+
#375
b11111111111111111111111111111111 ,
b11111111111111111111111111111111 M
b1111 f
b11111111111111111111111111111111 n
1h
1+
#380
0h
0+
#385
b0 W
1J
b0 n
1p
b11111111111111111111111100000000 ,
b11111111111111111111111100000000 M
b0 f
15
1h
1+
#390
0p
0I
0H
0L
0K
0G
0F
0J
b1101 d
b11 <
b11 P
b11 S
b11 V
b11 Y
b11 \
b11 _
b11 b
b1101 -
b1101 N
b1101 i
b1101 l
b11 (
b11 =
b11 e
b11 j
b11 m
0h
0+
#395
1)
1C
09
b0 c
1?
06
b0 `
1@
07
b0 T
1D
0:
b0 Q
1E
0;
b0 ]
1A
08
b0 Z
1B
0'
b1101 ,
b1101 M
b1101 f
1>
05
b1101 n
1o
1J
1F
1G
1K
1L
1H
1I
1h
1+
#400
b0 <
b0 P
b0 S
b0 V
b0 Y
b0 \
b0 _
b0 b
0J
0F
0G
0K
0L
0H
0I
b0 (
b0 =
b0 e
b0 j
b0 m
0h
0+
#405
0)
b1110 n
0o
b1110 ,
b1110 M
b1110 f
0>
1h
1+
#410
0h
0+
#415
b1111 ,
b1111 M
b1111 f
b1111 n
1h
1+
#420
0h
0+
#425
b1 W
0C
1J
b10000 n
b10000 ,
b10000 M
b0 f
15
1h
1+
#430
b100 d
b1 <
b1 P
b1 S
b1 V
b1 Y
b1 \
b1 _
b1 b
b100 -
b100 N
b100 i
b100 l
b1 (
b1 =
b1 e
b1 j
b1 m
0h
0+
#435
b11111 ,
b11111 M
b1111 f
b1111 n
1h
1+
#440
b101 d
b101 -
b101 N
b101 i
b101 l
0h
0+
#445
0J
b1110 n
b11110 ,
b11110 M
b1110 f
05
1h
1+
#450
b110 d
b110 -
b110 N
b110 i
b110 l
1&
0h
0+
#455
b0 W
0?
0@
0D
0E
0A
0B
b0 ,
b0 M
b0 f
b0 n
1J
1F
1G
1K
1L
1H
1I
1h
1+
#460
b111 d
0J
0F
0G
0K
0L
0H
0I
b111 -
b111 N
b111 i
b111 l
0&
0h
0+
#465
b1111 Z
1'
1I
b1111 ]
18
1H
b1111 Q
1;
1L
b1111 T
1:
1K
b1111 `
17
1G
b1111 c
16
1F
b1111 W
19
1J
b11111111111111111111111111111111 n
1p
b11111111111111111111111111111111 ,
b11111111111111111111111111111111 M
b1111 f
15
1h
1+
#470
0p
b1000 d
b1000 -
b1000 N
b1000 i
b1000 l
0h
0+
#475
0J
b11111111111111111111111111111110 ,
b11111111111111111111111111111110 M
b1110 f
05
b11111111111111111111111111111110 n
1h
1+
#480
b1001 d
b1001 -
b1001 N
b1001 i
b1001 l
0h
0+
#485
b11111111111111111111111111111101 n
b11111111111111111111111111111101 ,
b11111111111111111111111111111101 M
b1101 f
1h
1+
#490
b1010 d
b1010 -
b1010 N
b1010 i
b1010 l
0h
0+
#495
b11111111111111111111111111111100 ,
b11111111111111111111111111111100 M
b1100 f
b11111111111111111111111111111100 n
1h
1+
#500
b1011 d
b1011 -
b1011 N
b1011 i
b1011 l
0h
0+
#505
b11111111111111111111111111111011 n
b11111111111111111111111111111011 ,
b11111111111111111111111111111011 M
b1011 f
1h
1+
#510
b1100 d
b1100 -
b1100 N
b1100 i
b1100 l
0h
0+
#515
b11111111111111111111111111111010 ,
b11111111111111111111111111111010 M
b1010 f
b11111111111111111111111111111010 n
1h
1+
#520
b1101 d
b0 <
b0 P
b0 S
b0 V
b0 Y
b0 \
b0 _
b0 b
b1101 -
b1101 N
b1101 i
b1101 l
b0 (
b0 =
b0 e
b0 j
b0 m
0h
0+
#525
b11111111111111111111111111111011 n
b11111111111111111111111111111011 ,
b11111111111111111111111111111011 M
b1011 f
1h
1+
#530
b1110 d
b1110 -
b1110 N
b1110 i
b1110 l
0h
0+
#535
b11111111111111111111111111111100 ,
b11111111111111111111111111111100 M
b1100 f
b11111111111111111111111111111100 n
1h
1+
#540
b1111 d
b1111 -
b1111 N
b1111 i
b1111 l
0h
0+
#545
b11111111111111111111111111111101 n
b11111111111111111111111111111101 ,
b11111111111111111111111111111101 M
b1101 f
1h
1+
#550
0h
0+
#555
b11111111111111111111111111111110 ,
b11111111111111111111111111111110 M
b1110 f
b11111111111111111111111111111110 n
1h
1+
#560
0h
0+
#565
b11111111111111111111111111111111 n
b11111111111111111111111111111111 ,
b11111111111111111111111111111111 M
b1111 f
1h
1+
#570
0h
0+
#575
b0 W
1J
b11111111111111111111111100000000 ,
b11111111111111111111111100000000 M
b0 f
15
b0 n
1p
1h
1+
#580
0p
0I
0H
0L
0K
0G
0F
0J
b1101 d
b11 <
b11 P
b11 S
b11 V
b11 Y
b11 \
b11 _
b11 b
b1101 -
b1101 N
b1101 i
b1101 l
b11 (
b11 =
b11 e
b11 j
b11 m
0h
0+
#585
1)
1C
09
b0 c
1?
06
b0 `
1@
07
b0 T
1D
0:
b0 Q
1E
0;
b0 ]
1A
08
b0 Z
1B
0'
b1101 n
1o
b1101 ,
b1101 M
b1101 f
1>
05
1J
1F
1G
1K
1L
1H
1I
1h
1+
#590
b0 <
b0 P
b0 S
b0 V
b0 Y
b0 \
b0 _
b0 b
0J
0F
0G
0K
0L
0H
0I
b0 (
b0 =
b0 e
b0 j
b0 m
0h
0+
#595
0)
b1110 ,
b1110 M
b1110 f
0>
b1110 n
0o
1h
1+
#600
0h
0+
#605
b1111 n
b1111 ,
b1111 M
b1111 f
1h
1+
#610
0h
0+
#615
b1 W
0C
1J
b10000 ,
b10000 M
b0 f
15
b10000 n
1h
1+
#620
b100 d
b1 <
b1 P
b1 S
b1 V
b1 Y
b1 \
b1 _
b1 b
b100 -
b100 N
b100 i
b100 l
b1 (
b1 =
b1 e
b1 j
b1 m
0h
0+
#625
b1111 n
b11111 ,
b11111 M
b1111 f
1h
1+
#630
b101 d
b101 -
b101 N
b101 i
b101 l
0h
0+
#635
0J
b11110 ,
b11110 M
b1110 f
05
b1110 n
1h
1+
#640
b110 d
b110 -
b110 N
b110 i
b110 l
1&
0h
0+
#645
b0 W
0?
0@
0D
0E
0A
0B
b0 n
b0 ,
b0 M
b0 f
1J
1F
1G
1K
1L
1H
1I
1h
1+
#650
b111 d
0J
0F
0G
0K
0L
0H
0I
b111 -
b111 N
b111 i
b111 l
0&
0h
0+
#655
b1111 Z
1'
1I
b1111 ]
18
1H
b1111 Q
1;
1L
b1111 T
1:
1K
b1111 `
17
1G
b1111 c
16
1F
b1111 W
19
1J
b11111111111111111111111111111111 ,
b11111111111111111111111111111111 M
b1111 f
15
b11111111111111111111111111111111 n
1p
1h
1+
#660
0p
b1000 d
b1000 -
b1000 N
b1000 i
b1000 l
0h
0+
#665
0J
b11111111111111111111111111111110 n
b11111111111111111111111111111110 ,
b11111111111111111111111111111110 M
b1110 f
05
1h
1+
#670
b1001 d
b1001 -
b1001 N
b1001 i
b1001 l
0h
0+
#675
b11111111111111111111111111111101 ,
b11111111111111111111111111111101 M
b1101 f
b11111111111111111111111111111101 n
1h
1+
#680
b1010 d
b1010 -
b1010 N
b1010 i
b1010 l
0h
0+
#685
b11111111111111111111111111111100 n
b11111111111111111111111111111100 ,
b11111111111111111111111111111100 M
b1100 f
1h
1+
#690
b1011 d
b1011 -
b1011 N
b1011 i
b1011 l
0h
0+
#695
b11111111111111111111111111111011 ,
b11111111111111111111111111111011 M
b1011 f
b11111111111111111111111111111011 n
1h
1+
#700
b1100 d
b1100 -
b1100 N
b1100 i
b1100 l
0h
0+
#705
b11111111111111111111111111111010 n
b11111111111111111111111111111010 ,
b11111111111111111111111111111010 M
b1010 f
1h
1+
#710
b1101 d
b0 <
b0 P
b0 S
b0 V
b0 Y
b0 \
b0 _
b0 b
b1101 -
b1101 N
b1101 i
b1101 l
b0 (
b0 =
b0 e
b0 j
b0 m
0h
0+
#715
b11111111111111111111111111111011 ,
b11111111111111111111111111111011 M
b1011 f
b11111111111111111111111111111011 n
1h
1+
#720
b1110 d
b1110 -
b1110 N
b1110 i
b1110 l
0h
0+
#725
b11111111111111111111111111111100 n
b11111111111111111111111111111100 ,
b11111111111111111111111111111100 M
b1100 f
1h
1+
#730
b1111 d
b1111 -
b1111 N
b1111 i
b1111 l
0h
0+
#735
b11111111111111111111111111111101 ,
b11111111111111111111111111111101 M
b1101 f
b11111111111111111111111111111101 n
1h
1+
#740
0h
0+
#745
b11111111111111111111111111111110 n
b11111111111111111111111111111110 ,
b11111111111111111111111111111110 M
b1110 f
1h
1+
#750
0h
0+
#755
b11111111111111111111111111111111 ,
b11111111111111111111111111111111 M
b1111 f
b11111111111111111111111111111111 n
1h
1+
#760
0h
0+
#765
b0 W
1J
b0 n
1p
b11111111111111111111111100000000 ,
b11111111111111111111111100000000 M
b0 f
15
1h
1+
#770
0p
0I
0H
0L
0K
0G
0F
0J
b1101 d
b11 <
b11 P
b11 S
b11 V
b11 Y
b11 \
b11 _
b11 b
b1101 -
b1101 N
b1101 i
b1101 l
b11 (
b11 =
b11 e
b11 j
b11 m
0h
0+
#775
1)
1C
09
b0 c
1?
06
b0 `
1@
07
b0 T
1D
0:
b0 Q
1E
0;
b0 ]
1A
08
b0 Z
1B
0'
b1101 ,
b1101 M
b1101 f
1>
05
b1101 n
1o
1J
1F
1G
1K
1L
1H
1I
1h
1+
#780
b0 <
b0 P
b0 S
b0 V
b0 Y
b0 \
b0 _
b0 b
0J
0F
0G
0K
0L
0H
0I
b0 (
b0 =
b0 e
b0 j
b0 m
0h
0+
#785
0)
b1110 n
0o
b1110 ,
b1110 M
b1110 f
0>
1h
1+
#790
0h
0+
#795
b1111 ,
b1111 M
b1111 f
b1111 n
1h
1+
#800
0h
0+
#805
b1 W
0C
1J
b10000 n
b10000 ,
b10000 M
b0 f
15
1h
1+
#810
b100 d
b1 <
b1 P
b1 S
b1 V
b1 Y
b1 \
b1 _
b1 b
b100 -
b100 N
b100 i
b100 l
b1 (
b1 =
b1 e
b1 j
b1 m
0h
0+
#815
b11111 ,
b11111 M
b1111 f
b1111 n
1h
1+
#820
b101 d
b101 -
b101 N
b101 i
b101 l
0h
0+
#825
0J
b1110 n
b11110 ,
b11110 M
b1110 f
05
1h
1+
#830
b110 d
b110 -
b110 N
b110 i
b110 l
1&
0h
0+
#835
b0 W
0?
0@
0D
0E
0A
0B
b0 ,
b0 M
b0 f
b0 n
1J
1F
1G
1K
1L
1H
1I
1h
1+
#840
b111 d
0J
0F
0G
0K
0L
0H
0I
b111 -
b111 N
b111 i
b111 l
0&
0h
0+
#845
b1111 Z
1'
1I
b1111 ]
18
1H
b1111 Q
1;
1L
b1111 T
1:
1K
b1111 `
17
1G
b1111 c
16
1F
b1111 W
19
1J
b11111111111111111111111111111111 n
1p
b11111111111111111111111111111111 ,
b11111111111111111111111111111111 M
b1111 f
15
1h
1+
#850
0p
b1000 d
b1000 -
b1000 N
b1000 i
b1000 l
0h
0+
#855
0J
b11111111111111111111111111111110 ,
b11111111111111111111111111111110 M
b1110 f
05
b11111111111111111111111111111110 n
1h
1+
#860
b1001 d
b1001 -
b1001 N
b1001 i
b1001 l
0h
0+
#865
b11111111111111111111111111111101 n
b11111111111111111111111111111101 ,
b11111111111111111111111111111101 M
b1101 f
1h
1+
#870
b1010 d
b1010 -
b1010 N
b1010 i
b1010 l
0h
0+
#875
b11111111111111111111111111111100 ,
b11111111111111111111111111111100 M
b1100 f
b11111111111111111111111111111100 n
1h
1+
#880
b1011 d
b1011 -
b1011 N
b1011 i
b1011 l
0h
0+
#885
b11111111111111111111111111111011 n
b11111111111111111111111111111011 ,
b11111111111111111111111111111011 M
b1011 f
1h
1+
#890
b1100 d
b1100 -
b1100 N
b1100 i
b1100 l
0h
0+
#895
b11111111111111111111111111111010 ,
b11111111111111111111111111111010 M
b1010 f
b11111111111111111111111111111010 n
1h
1+
#900
b1101 d
b0 <
b0 P
b0 S
b0 V
b0 Y
b0 \
b0 _
b0 b
b1101 -
b1101 N
b1101 i
b1101 l
b0 (
b0 =
b0 e
b0 j
b0 m
0h
0+
#905
b11111111111111111111111111111011 n
b11111111111111111111111111111011 ,
b11111111111111111111111111111011 M
b1011 f
1h
1+
#910
b1110 d
b1110 -
b1110 N
b1110 i
b1110 l
0h
0+
#915
b11111111111111111111111111111100 ,
b11111111111111111111111111111100 M
b1100 f
b11111111111111111111111111111100 n
1h
1+
#920
b1111 d
b1111 -
b1111 N
b1111 i
b1111 l
0h
0+
#925
b11111111111111111111111111111101 n
b11111111111111111111111111111101 ,
b11111111111111111111111111111101 M
b1101 f
1h
1+
#930
0h
0+
#935
b11111111111111111111111111111110 ,
b11111111111111111111111111111110 M
b1110 f
b11111111111111111111111111111110 n
1h
1+
#940
0h
0+
#945
b11111111111111111111111111111111 n
b11111111111111111111111111111111 ,
b11111111111111111111111111111111 M
b1111 f
1h
1+
#950
0h
0+
#955
b0 W
1J
b11111111111111111111111100000000 ,
b11111111111111111111111100000000 M
b0 f
15
b0 n
1p
1h
1+
#960
0p
0I
0H
0L
0K
0G
0F
0J
b1101 d
b11 <
b11 P
b11 S
b11 V
b11 Y
b11 \
b11 _
b11 b
b1101 -
b1101 N
b1101 i
b1101 l
b11 (
b11 =
b11 e
b11 j
b11 m
0h
0+
#965
1)
1C
09
b0 c
1?
06
b0 `
1@
07
b0 T
1D
0:
b0 Q
1E
0;
b0 ]
1A
08
b0 Z
1B
0'
b1101 n
1o
b1101 ,
b1101 M
b1101 f
1>
05
1J
1F
1G
1K
1L
1H
1I
1h
1+
#970
b0 <
b0 P
b0 S
b0 V
b0 Y
b0 \
b0 _
b0 b
0J
0F
0G
0K
0L
0H
0I
b0 (
b0 =
b0 e
b0 j
b0 m
0h
0+
#975
0)
b1110 ,
b1110 M
b1110 f
0>
b1110 n
0o
1h
1+
#980
0h
0+
#985
b1111 n
b1111 ,
b1111 M
b1111 f
1h
1+
#990
0h
0+
#995
b1 W
0C
1J
b10000 ,
b10000 M
b0 f
15
b10000 n
1h
1+
#1000
b100 d
b1 <
b1 P
b1 S
b1 V
b1 Y
b1 \
b1 _
b1 b
b100 -
b100 N
b100 i
b100 l
b1 (
b1 =
b1 e
b1 j
b1 m
0h
0+
#1005
b1111 n
b11111 ,
b11111 M
b1111 f
1h
1+
#1010
b101 d
b101 -
b101 N
b101 i
b101 l
0h
0+
#1015
0J
b11110 ,
b11110 M
b1110 f
05
b1110 n
1h
1+
#1020
b110 d
b110 -
b110 N
b110 i
b110 l
1&
0h
0+
#1025
b0 W
0?
0@
0D
0E
0A
0B
b0 n
b0 ,
b0 M
b0 f
1J
1F
1G
1K
1L
1H
1I
1h
1+
#1030
b111 d
0J
0F
0G
0K
0L
0H
0I
b111 -
b111 N
b111 i
b111 l
0&
0h
0+
#1035
b1111 Z
1'
1I
b1111 ]
18
1H
b1111 Q
1;
1L
b1111 T
1:
1K
b1111 `
17
1G
b1111 c
16
1F
b1111 W
19
1J
b11111111111111111111111111111111 ,
b11111111111111111111111111111111 M
b1111 f
15
b11111111111111111111111111111111 n
1p
1h
1+
#1040
0p
b1000 d
b1000 -
b1000 N
b1000 i
b1000 l
0h
0+
#1045
0J
b11111111111111111111111111111110 n
b11111111111111111111111111111110 ,
b11111111111111111111111111111110 M
b1110 f
05
1h
1+
#1050
b1001 d
b1001 -
b1001 N
b1001 i
b1001 l
0h
0+
#1055
b11111111111111111111111111111101 ,
b11111111111111111111111111111101 M
b1101 f
b11111111111111111111111111111101 n
1h
1+
#1060
b1010 d
b1010 -
b1010 N
b1010 i
b1010 l
0h
0+
