tarea1/src/tb.vcd
$date
	Thu Sep 17 20:23:25 2020
$end
$version
	Icarus Verilog
$end
$timescale
	1s
$end
$scope module tb_top $end
$var wire 1 ! load_ $end
$var wire 1 " rco_ $end
$var wire 1 # reset $end
$var wire 1 $ rco_C $end
$var wire 1 % rco_B $end
$var wire 1 & rco_A $end
$var wire 2 ' mode_ [1:0] $end
$var wire 1 ( load_C $end
$var wire 1 ) load_B $end
$var wire 1 * load_A $end
$var wire 1 + enable_ $end
$var wire 1 , clock $end
$var wire 4 - Q_C [3:0] $end
$var wire 4 . Q_B [3:0] $end
$var wire 4 / Q_A [3:0] $end
$var wire 4 0 D_ [3:0] $end
$scope module clock_m $end
$var reg 1 , clock $end
$upscope $end
$scope module dut_A $end
$var wire 1 1 _004_ $end
$var wire 1 2 _005_ $end
$var wire 1 3 _020_ $end
$var wire 1 4 _021_ $end
$var wire 1 5 _024_ $end
$var wire 1 6 _025_ $end
$var wire 1 7 _026_ $end
$var wire 1 8 _027_ $end
$var wire 1 9 _028_ $end
$var wire 1 : _029_ $end
$var wire 1 ; _030_ $end
$var wire 1 < _031_ $end
$var wire 1 = _032_ $end
$var wire 1 > _033_ $end
$var wire 1 ? _034_ $end
$var wire 1 @ _035_ $end
$var wire 1 A _036_ $end
$var wire 1 B _037_ $end
$var wire 1 C _038_ $end
$var wire 1 D _039_ $end
$var wire 1 E _040_ $end
$var wire 1 F _041_ $end
$var wire 1 G _043_ $end
$var wire 1 H _045_ $end
$var wire 1 I _053_ $end
$var wire 1 J _055_ $end
$var wire 1 K _056_ $end
$var wire 1 , clk $end
$var wire 1 # reset $end
$var wire 2 L mode [1:0] $end
$var wire 1 + enable $end
$var wire 32 M _054_ [31:0] $end
$var wire 32 N _052_ [31:0] $end
$var wire 32 O _051_ [31:0] $end
$var wire 32 P _050_ [31:0] $end
$var wire 4 Q _049_ [3:0] $end
$var wire 4 R _048_ [3:0] $end
$var wire 16 S _047_ [15:0] $end
$var wire 1 T _046_ $end
$var wire 4 U _044_ [3:0] $end
$var wire 4 V _042_ [3:0] $end
$var wire 2 W _023_ [1:0] $end
$var wire 4 X _022_ [3:0] $end
$var wire 2 Y _019_ [1:0] $end
$var wire 2 Z _018_ [1:0] $end
$var wire 2 [ _017_ [1:0] $end
$var wire 2 \ _016_ [1:0] $end
$var wire 2 ] _015_ [1:0] $end
$var wire 2 ^ _014_ [1:0] $end
$var wire 2 _ _013_ [1:0] $end
$var wire 2 ` _012_ [1:0] $end
$var wire 2 a _011_ [1:0] $end
$var wire 2 b _010_ [1:0] $end
$var wire 2 c _009_ [1:0] $end
$var wire 2 d _008_ [1:0] $end
$var wire 32 e _007_ [31:0] $end
$var wire 32 f _006_ [31:0] $end
$var wire 1 g _003_ $end
$var wire 1 h _002_ $end
$var wire 1 i _001_ $end
$var wire 4 j _000_ [3:0] $end
$var wire 4 k D [3:0] $end
$var reg 4 l Q_A [3:0] $end
$var reg 1 * load_A $end
$var reg 1 & rco_A $end
$upscope $end
$scope module dut_B $end
$var wire 1 m _005_ $end
$var wire 1 n _012_ $end
$var wire 1 o _013_ $end
$var wire 1 p _019_ $end
$var wire 1 q _020_ $end
$var wire 1 r _023_ $end
$var wire 1 s _024_ $end
$var wire 1 t _025_ $end
$var wire 1 u _026_ $end
$var wire 1 v _027_ $end
$var wire 1 w _028_ $end
$var wire 1 x _029_ $end
$var wire 1 y _030_ $end
$var wire 1 z _031_ $end
$var wire 1 { _032_ $end
$var wire 1 | _033_ $end
$var wire 1 } _034_ $end
$var wire 1 ~ _035_ $end
$var wire 1 !" _036_ $end
$var wire 1 "" _037_ $end
$var wire 1 #" _038_ $end
$var wire 1 $" _039_ $end
$var wire 1 %" _040_ $end
$var wire 1 &" _042_ $end
$var wire 1 '" _044_ $end
$var wire 1 (" _045_ $end
$var wire 1 )" _048_ $end
$var wire 1 *" _051_ $end
$var wire 1 +" _062_ $end
$var wire 1 ," _063_ $end
$var wire 1 -" _065_ $end
$var wire 1 ." _066_ $end
$var wire 1 , clk $end
$var wire 1 # reset $end
$var wire 2 /" mode [1:0] $end
$var wire 1 + enable $end
$var wire 32 0" _064_ [31:0] $end
$var wire 32 1" _061_ [31:0] $end
$var wire 32 2" _060_ [31:0] $end
$var wire 32 3" _059_ [31:0] $end
$var wire 4 4" _058_ [3:0] $end
$var wire 4 5" _057_ [3:0] $end
$var wire 4 6" _056_ [3:0] $end
$var wire 16 7" _055_ [15:0] $end
$var wire 1 8" _054_ $end
$var wire 1 9" _053_ $end
$var wire 1 :" _052_ $end
$var wire 3 ;" _050_ [2:0] $end
$var wire 1 <" _049_ $end
$var wire 1 =" _047_ $end
$var wire 1 >" _046_ $end
$var wire 1 ?" _043_ $end
$var wire 4 @" _041_ [3:0] $end
$var wire 2 A" _022_ [1:0] $end
$var wire 4 B" _021_ [3:0] $end
$var wire 2 C" _018_ [1:0] $end
$var wire 2 D" _017_ [1:0] $end
$var wire 2 E" _016_ [1:0] $end
$var wire 2 F" _015_ [1:0] $end
$var wire 2 G" _014_ [1:0] $end
$var wire 2 H" _011_ [1:0] $end
$var wire 2 I" _010_ [1:0] $end
$var wire 2 J" _009_ [1:0] $end
$var wire 2 K" _008_ [1:0] $end
$var wire 2 L" _007_ [1:0] $end
$var wire 2 M" _006_ [1:0] $end
$var wire 32 N" _004_ [31:0] $end
$var wire 32 O" _003_ [31:0] $end
$var wire 1 P" _002_ $end
$var wire 1 Q" _001_ $end
$var wire 4 R" _000_ [3:0] $end
$var wire 4 S" D [3:0] $end
$var reg 4 T" Q_B [3:0] $end
$var reg 1 ) load_B $end
$var reg 1 % rco_B $end
$upscope $end
$scope module dut_C $end
$var wire 1 U" _005_ $end
$var wire 1 V" _006_ $end
$var wire 1 W" _017_ $end
$var wire 1 X" _018_ $end
$var wire 1 Y" _021_ $end
$var wire 1 Z" _022_ $end
$var wire 1 [" _023_ $end
$var wire 1 \" _024_ $end
$var wire 1 ]" _025_ $end
$var wire 1 ^" _026_ $end
$var wire 1 _" _027_ $end
$var wire 1 `" _028_ $end
$var wire 1 a" _029_ $end
$var wire 1 b" _030_ $end
$var wire 1 c" _031_ $end
$var wire 1 d" _032_ $end
$var wire 1 e" _033_ $end
$var wire 1 f" _034_ $end
$var wire 1 g" _036_ $end
$var wire 1 h" _038_ $end
$var wire 1 i" _039_ $end
$var wire 1 j" _040_ $end
$var wire 1 k" _041_ $end
$var wire 1 l" _052_ $end
$var wire 1 m" _053_ $end
$var wire 1 n" _055_ $end
$var wire 1 o" _056_ $end
$var wire 1 , clk $end
$var wire 1 # reset $end
$var wire 2 p" mode [1:0] $end
$var wire 1 + enable $end
$var wire 32 q" _054_ [31:0] $end
$var wire 32 r" _051_ [31:0] $end
$var wire 32 s" _050_ [31:0] $end
$var wire 32 t" _049_ [31:0] $end
$var wire 4 u" _048_ [3:0] $end
$var wire 4 v" _047_ [3:0] $end
$var wire 4 w" _046_ [3:0] $end
$var wire 16 x" _045_ [15:0] $end
$var wire 1 y" _044_ $end
$var wire 1 z" _043_ $end
$var wire 1 {" _042_ $end
$var wire 1 |" _037_ $end
$var wire 4 }" _035_ [3:0] $end
$var wire 2 ~" _020_ [1:0] $end
$var wire 4 !# _019_ [3:0] $end
$var wire 2 "# _016_ [1:0] $end
$var wire 2 ## _015_ [1:0] $end
$var wire 2 $# _014_ [1:0] $end
$var wire 2 %# _013_ [1:0] $end
$var wire 2 &# _012_ [1:0] $end
$var wire 2 '# _011_ [1:0] $end
$var wire 2 (# _010_ [1:0] $end
$var wire 2 )# _009_ [1:0] $end
$var wire 2 *# _008_ [1:0] $end
$var wire 2 +# _007_ [1:0] $end
$var wire 32 ,# _004_ [31:0] $end
$var wire 32 -# _003_ [31:0] $end
$var wire 1 .# _002_ $end
$var wire 1 /# _001_ $end
$var wire 4 0# _000_ [3:0] $end
$var wire 4 1# D [3:0] $end
$var reg 4 2# Q_C [3:0] $end
$var reg 1 ( load_C $end
$var reg 1 $ rco_C $end
$upscope $end
$scope module tb $end
$var wire 4 3# Q_A [3:0] $end
$var wire 4 4# Q_B [3:0] $end
$var wire 4 5# Q_C [3:0] $end
$var wire 1 , clk $end
$var wire 1 ! load_ $end
$var wire 1 * load_A $end
$var wire 1 ) load_B $end
$var wire 1 ( load_C $end
$var wire 1 " rco_ $end
$var wire 1 & rco_A $end
$var wire 1 % rco_B $end
$var wire 1 $ rco_C $end
$var wire 1 6# clock $end
$var reg 4 7# D_ [3:0] $end
$var reg 1 + enable_ $end
$var reg 2 8# mode_ [1:0] $end
$var reg 1 # reset $end
$var integer 32 9# log_A [31:0] $end
$var integer 32 :# log_B [31:0] $end
$var integer 32 ;# log_C [31:0] $end
$scope module clock_tb $end
$var reg 1 6# clock $end
$upscope $end
$scope module sb $end
$var wire 4 <# D_ [3:0] $end
$var wire 1 , clk $end
$var wire 1 + enable_ $end
$var wire 2 =# mode_ [1:0] $end
$var wire 1 # reset $end
$var reg 4 ># Q_sb [3:0] $end
$var reg 1 ?# load_sb $end
$var reg 1 @# rco_sb $end
$upscope $end
$scope task checker $end
$var integer 32 A# iteration [31:0] $end
$upscope $end
$scope task drv_init $end
$upscope $end
$scope task drv_request $end
$var integer 32 B# iteration [31:0] $end
$upscope $end
$upscope $end
$upscope $end
$enddefinitions $end
#0
$dumpvars
bx B#
bx A#
0@#
0?#
bx >#
bx =#
bx <#
b1000 ;#
b100 :#
b10 9#
bx 8#
bx 7#
06#
bx 5#
bx 4#
bx 3#
bx 2#
bx 1#
bx 0#
x/#
x.#
bzxxxx -#
bzxxxz ,#
bx +#
bzx *#
bzx )#
bx (#
bzx '#
bx &#
bx %#
bx $#
bx ##
bx "#
bxz !#
bx ~"
bxzz }"
x|"
x{"
xz"
xy"
bx x"
bx w"
bx v"
bx u"
bzxxzz t"
bzxxz s"
bzxxz r"
bzxzz q"
bx p"
xo"
xn"
xm"
xl"
xk"
xj"
xi"
xh"
xg"
xf"
xe"
xd"
xc"
xb"
xa"
x`"
x_"
x^"
x]"
x\"
x["
xZ"
xY"
xX"
xW"
xV"
xU"
bx T"
bx S"
bx R"
xQ"
xP"
bzxxxx O"
bzxxxz N"
bx M"
bzx L"
bxz K"
bzx J"
bx I"
bx H"
bx G"
bx F"
bx E"
bx D"
bx C"
bxz B"
bx A"
bxzz @"
x?"
x>"
x="
x<"
bxzz ;"
x:"
x9"
x8"
bx 7"
bx 6"
bx 5"
bx 4"
bzxxxx 3"
bzxxz 2"
bzxxz 1"
bzxxx 0"
bx /"
x."
x-"
x,"
x+"
x*"
x)"
x("
x'"
x&"
x%"
x$"
x#"
x""
x!"
x~
x}
x|
x{
xz
xy
xx
xw
xv
xu
xt
xs
xr
xq
xp
xo
xn
xm
bx l
bx k
bx j
xi
xh
xg
bzxxxx f
bzxxxz e
bx d
bzx c
bxz b
bzx a
bx `
bx _
bx ^
bx ]
bx \
bx [
bx Z
bxz Y
bxz X
bx W
bzxx V
bxzxz U
xT
bx S
bx R
bx Q
bzxxzz P
bzxxz O
bzxxz N
bzxzz M
bx L
xK
xJ
xI
xH
xG
xF
xE
xD
xC
xB
xA
x@
x?
x>
x=
x<
x;
x:
x9
x8
x7
x6
x5
x4
x3
x2
x1
bx 0
bx /
bx .
bx -
0,
x+
x*
x)
x(
bx '
x&
x%
x$
x#
z"
z!
$end
#5
16#
1,
#10
0g
0G
bx0 $#
bx0 &#
bx0 %#
bx0 ##
bx0 E"
bx0 G"
bx0 F"
bx0 D"
bx0 ^
bx0 Z
bx0 [
bx0 ]
bx0 \
0o
bx0zz }"
bx0 (#
0z"
bz0 '#
1m"
bx0zz @"
bx0 I"
0m
1+"
b0 `
bxz0z U
1I
0j"
0i"
0h"
1l"
1U"
0("
0'"
0n
0E
0D
bz00 V
1^"
1]"
1\"
1V"
1y
1x
1w
b10 H"
1,"
1:
19
18
b10 _
b1111 0#
bz R"
1k"
1)"
1F
1.#
0/#
zP"
zQ"
bx000000000000 x"
bx000000000000 7"
bx000000000000 S
b11 ~"
0X"
b11 A"
0q
b11 W
04
1{"
0y"
b1111 u"
z<"
z8"
bz 4"
0i
0h
b0 j
0d"
0#"
0@
1_"
1{
1;
b1 0
b1 k
b1 S"
b1 1#
b1 7#
b1 <#
b0 '
b0 L
b0 /"
b0 p"
b0 8#
b0 =#
0+
0#
06#
0,
#15
1|"
0T
1g"
0H
b10 (#
b0 ^
b11 Q
b0 %#
b10 v"
b10zz }"
b0z0z U
1e"
0B
b0 \
0A
b0 ]
b10 [
b11 R
0C
b0 &#
b10 $#
b10 w"
1f"
0<
0?
0>
0=
1`"
17
16
15
b10 Z
12
b0 ##
0["
bz0zz M
11
0b"
0a"
0c"
b1z b
bz11zz P
0K
b11 d
03
b11000000000000 S
bz1 a
1Z"
bz11zz t"
0o"
0n"
1Y"
1W"
b10000000000000 x"
bz0 )#
b0z Y
bz00z O
b111z X
bz0 c
0J
bz00z N
bz0011 f
bz000z e
bz1zz q"
bz1 *#
bz11z s"
b0z !#
b1 +#
b11 "#
bz11z r"
bz0010 -#
bz000z ,#
0&
0*
b0 /
b0 l
b0 3#
1$
0(
b1111 -
b1111 2#
b1111 5#
z%
z)
bz .
bz T"
bz 4#
b0z >#
16#
1,
#20
1T
1H
b10 &#
b10 %#
0|"
0g"
b1110 w"
x&"
bx 6"
b10 ^
1G
b10 ]
b10 \
b1111 R
1o
x?"
bx 5"
1g
b1111 Q
b0 (#
b10 $#
b1110 v"
1m"
1m
bx0 I"
0*"
bx0 D"
bx0 E"
bx0 G"
bx0 F"
1+"
b10 `
b10 Z
b10 [
1I
1j"
1l"
1U"
1("
0:"
1E
0^"
b0zz }"
b111000000000 x"
1V"
0y
b0xzz @"
b0zz ;"
b0xxxx00000000 7"
b10 H"
1,"
0:
b111100000000 S
b10 _
0k"
0)"
0F
b10 ~"
1X"
b10 A"
1q
b10 W
14
b11 0
b11 k
b11 S"
b11 1#
b11 7#
b11 <#
b1 '
b1 L
b1 /"
b1 p"
b1 8#
b1 =#
06#
0,
#25
16#
1,
#30
1{"
b1111 u"
z<"
z8"
bz 4"
0i
0h
b0 j
b0 0#
0_"
b0 R"
0Q"
0P"
0{
0;
0d"
0#"
0@
1#
1+
06#
0,
#35
b1110 5"
1|"
b10 F"
1?"
1g"
b1111 v"
1&"
b1110 6"
b10 E"
0="
0e"
0$"
b10 (#
0f"
b1111 w"
b10 G"
b10 I"
b0 D"
0%"
0>"
09"
0`"
0|
0z
0!"
0~
0}
b1zz }"
b10 ##
1["
b10 $#
1r
b1zz @"
b111000000000 7"
1v
1u
1t
1s
0b"
0a"
1c"
1""
1Z"
1Y"
0W"
bz1 )#
b111100000000 x"
b1z K"
0."
bz001z N"
b11 M"
0p
bz1110 3"
bz1 J"
bz1 L"
bz0zz q"
bz000z ,#
bz1 *#
bz00z s"
b111z !#
b11 +#
b0 "#
bz00z r"
bz0011 -#
bz00z 1"
bz001 0"
b111z B"
b0 C"
0-"
bz00z 2"
bz0001 O"
b0 -
b0 2#
b0 5#
0%
0)
b0 .
b0 T"
b0 4#
b0 >#
16#
1,
#40
1<"
08"
b1110 4"
1i
1h
b1111 j
1d"
1#"
1@
b1111 0#
1_"
b1110 R"
0Q"
1P"
1{
1;
b1100100 B#
b1100100 A#
0#
06#
0,
#45
b1100 R"
b1110 0#
0P"
0.#
0h
b1110 j
b1100 4"
0<"
b1110 u"
0{"
0T
0?"
0|"
0H
0i
1B
b1110 Q
b1100 5"
0&"
1="
b1110 v"
0g"
0g
1A
1$"
1e"
b0 ^
0G
1C
b1110 R
b1100 6"
b0 I"
1%"
b1110 w"
b0 (#
1f"
1=
1|
1`"
b0 `
b0 Z
02
b10 [
b0 E"
b0zz @"
0r
b0 ##
b10 $#
b0zz }"
0["
01
0""
0c"
b1 d
13
bz0 a
b111000000000 S
b110000000000 7"
1p
b0 M"
b111000000000 x"
bz0 )#
1W"
b1 +#
b1z Y
bz1zz M
bz000z e
bz11z O
b0z X
bz1 c
0J
bz11z N
bz0010 f
bz11z 1"
bz1100 3"
bz111 0"
b11 C"
b0z B"
bz000z N"
bz1111 O"
0n"
bz11z s"
bz11z r"
bz1zz q"
b11 "#
bz0010 -#
b0z !#
bz000z ,#
1&
1*
b1111 /
b1111 l
b1111 3#
b1111 >#
1@#
b1110 .
b1110 T"
b1110 4#
1%
b1111 -
b1111 2#
b1111 5#
16#
1,
#50
b1101 0
b1101 k
b1101 S"
b1101 1#
b1101 7#
b1101 <#
06#
0,
#55
b1101 0#
b1010 R"
b1101 j
b1101 u"
b1010 4"
b1101 Q
b1101 v"
0="
b1010 5"
0$"
b1101 R
b1101 w"
b0 G"
0%"
b1010 6"
0=
0`"
0|
b10 Z
12
b0 [
b10 ##
1["
b0 $#
1r
b10 E"
1>
1a"
05
bz1 a
b110100000000 S
0Y"
bz1 )#
b110100000000 x"
bz111z N"
b1 M"
b101000000000 7"
b0 d
bz00z N
bz0001 f
bz111z e
b0 +#
bz00z r"
bz0001 -#
bz111z ,#
b10 C"
bz00z 1"
bz101 0"
b1z B"
bz1010 3"
bz1101 O"
b1110 /
b1110 l
b1110 3#
0*
0&
0$
b1110 -
b1110 2#
b1110 5#
0%
b1100 .
b1100 T"
b1100 4#
b1110 >#
0@#
16#
1,
#60
b10 0
b10 k
b10 S"
b10 1#
b10 7#
b10 <#
06#
0,
#65
b1000 R"
b1100 0#
b1100 j
b1000 4"
b1100 u"
b1100 Q
b1000 5"
b1100 v"
b10 ]
0B
b1100 R
b1000 6"
b10 F"
b1100 w"
b10 &#
0A
1b"
0C
b0 Z
b0 [
b0 E"
0f"
b0 ##
0Z"
b0 $#
0>
0a"
bz11zz P
1J
15
b110000000000 S
b100000000000 7"
1."
b10 M"
1Y"
bz0 *#
b110000000000 x"
bz11zz t"
1n"
bz11z O
b1z X
b1 d
bz0000 f
b11 C"
bz01z 1"
bz1000 3"
bz111 0"
bz110z N"
b10z B"
bz1011 O"
b1 +#
bz0000 -#
bz11z s"
b1z !#
b1101 /
b1101 l
b1101 3#
b1101 >#
b1010 .
b1010 T"
b1010 4#
b1101 -
b1101 2#
b1101 5#
16#
1,
#70
b1101 0
b1101 k
b1101 S"
b1101 1#
b1101 7#
b1101 <#
06#
0,
#75
b1011 0#
b110 R"
b1011 j
b1011 u"
b110 4"
b0 F"
b1011 Q
b1011 v"
b110 5"
b0 ]
b0 &#
b1011 R
0e"
b1011 w"
b10 G"
b110 6"
1B
0b"
1A
b10 Z
b10 [
b10 ##
1Z"
b10 $#
b10 E"
1?
bz10zz P
bz10zz t"
06
b101100000000 S
bz1 *#
b101100000000 x"
0."
bz101z N"
b11 M"
b11000000000 7"
bz00z O
bz00z s"
bz0 c
0J
bz1111 f
bz110z e
b10 "#
0n"
bz1111 -#
bz110z ,#
b10 C"
bz00z 1"
bz001 0"
b11z B"
bz0110 3"
bz1001 O"
b1100 /
b1100 l
b1100 3#
b1100 -
b1100 2#
b1100 5#
b1000 .
b1000 T"
b1000 4#
b1100 >#
16#
1,
#80
b1001 R"
b1101 0#
1G
b1001 4"
b1101 j
b1 &#
b1101 w"
b1101 u"
b1 D"
b1 F"
b1001 6"
b1 `
b1 ]
b1101 R
1i
b1001 5"
1g
b1101 Q
bz1 '#
b1 ##
b0 $#
b1 %#
b1101 v"
1m"
b0 E"
b0 G"
1+"
1,"
bz10 V
b1 Z
b0 [
b1 \
1I
1i"
1l"
1U"
1'"
1o
1D
0]"
b11010000 x"
0V"
0x
b10010000 7"
b1 H"
1m
09
b11010000 S
b1 _
0j"
0("
0E
b1 ~"
1^"
b1 A"
1y
b1 W
1:
b10 '
b10 L
b10 /"
b10 p"
b10 8#
b10 =#
06#
0,
#85
b1010 R"
b1110 0#
b1110 j
b1010 4"
b1110 u"
b1110 Q
b1010 5"
b1110 v"
b1110 R
b1010 6"
1e"
b1110 w"
0B
1b"
0A
b0 Z
b1 [
b0 D"
b1 E"
b0 ##
0Z"
b1 $#
0?
bz11zz P
bz11zz t"
16
b11100000 S
bz0111 3"
bz0 L"
b10100000 7"
bz0 *#
b11100000 x"
bz11z O
bz01z 1"
bz11z s"
bz1 c
1J
bz0000 f
bz111z e
b11 C"
1-"
bz110z N"
bz1010 O"
b11 "#
1n"
bz0000 -#
bz111z ,#
1*
b1101 /
b1101 l
b1101 3#
b1101 >#
b1001 .
b1001 T"
b1001 4#
b1101 -
b1101 2#
b1101 5#
16#
1,
#90
b1100 0#
b111 R"
b1100 u"
b111 4"
b1100 j
b1100 w"
b10 D"
b10 G"
b111 6"
0G
b1100 R
0i
b1100 v"
b111 5"
0g
b1100 Q
1V"
b0 $#
b10 &#
b10 %#
1l"
b10 E"
b0 F"
1+"
1,"
b0 `
b0 [
b10 ]
b10 \
1I
1j"
1m"
1("
1o
1E
0^"
b110000000000 x"
bz0 '#
1U"
0y
b11100000000 7"
b10 H"
1m
0:
bz00 V
b110000000000 S
b10 _
0i"
0'"
0D
b10 ~"
1]"
b10 A"
1x
b10 W
19
b1100 0
b1100 k
b1100 S"
b1100 1#
b1100 7#
b1100 <#
b1 '
b1 L
b1 /"
b1 p"
b1 8#
b1 =#
06#
0,
#95
b1011 0#
b101 R"
b1011 j
b1011 u"
b101 4"
b1011 Q
b1011 v"
b101 5"
b0 ]
b0 &#
1="
b1011 R
0e"
b1011 w"
1>"
b101 6"
1B
0b"
1!"
1A
b10 Z
b10 [
b10 ##
1Z"
b10 $#
0u
b0 E"
1?
bz10zz P
bz10zz t"
06
b101100000000 S
bz1 *#
b101100000000 x"
b0z K"
0-"
bz0 J"
b10100000000 7"
bz00z O
bz00z s"
bz0 c
0J
bz1111 f
bz110z e
b10 "#
0n"
bz1111 -#
bz110z ,#
bz11z 1"
bz101z N"
bz1 L"
bz111 0"
bz11z 2"
b100z B"
bz0101 3"
bz1000 O"
b1100 /
b1100 l
b1100 3#
0*
b1100 -
b1100 2#
b1100 5#
b111 .
b111 T"
b111 4#
b1100 >#
16#
1,
#100
b110 0
b110 k
b110 S"
b110 1#
b110 7#
b110 <#
06#
0,
#105
b11 R"
b1010 0#
b1010 j
b11 4"
b1010 u"
b1010 Q
b11 5"
b1010 v"
b10 \
b1010 R
b0 G"
b11 6"
b1010 w"
b10 %#
0B
0!"
0A
b0 Z
b10 [
19"
0="
1u
b10 E"
b0 ##
b10 $#
0?
1~
0>"
bz10zz P
b11 d
1K
16
bz0 a
b101000000000 S
0t
bz100z N"
1-"
bz1 J"
b1100000000 7"
b101000000000 x"
bz0 )#
bz10zz t"
1o"
b11 +#
b0z b
bz1zz M
bz110z e
bz01z O
b10z X
bz1 c
0J
bz01z N
bz1110 f
bz0 L"
bz11z 1"
bz101 0"
bz00z 2"
b101z B"
bz0011 3"
bz0110 O"
0n"
b11 "#
bz01z s"
bz01z r"
bz1zz q"
bz1110 -#
b10z !#
bz110z ,#
b1011 /
b1011 l
b1011 3#
b1011 >#
b101 .
b101 T"
b101 4#
b1011 -
b1011 2#
b1011 5#
16#
1,
#110
b1010 0
b1010 k
b1010 S"
b1010 1#
b1010 7#
b1010 <#
06#
0,
#115
b1001 0#
b1 R"
b1001 j
b1001 u"
b1 4"
b1001 Q
b1001 v"
b1 5"
b1001 R
b1001 w"
b0 F"
b1 6"
b10 Z
b0 [
b10 ##
b0 $#
09"
b0 E"
0~
bz1 a
b100100000000 S
bz1 )#
b100100000000 x"
b1z K"
1t
1."
0-"
bz0 J"
b100000000 7"
b10 d
bz00z N
bz1101 f
bz101z e
b10 +#
bz00z r"
bz1101 -#
bz101z ,#
b1 C"
bz01z 1"
bz011z N"
bz1 L"
bz111 0"
bz01z 2"
b110z B"
bz0001 3"
bz0100 O"
b1010 /
b1010 l
b1010 3#
b1010 -
b1010 2#
b1010 5#
b11 .
b11 T"
b11 4#
b1010 >#
16#
1,
#120
b111 0
b111 k
b111 S"
b111 1#
b111 7#
b111 <#
06#
0,
#125
b1111 R"
b1000 0#
b1000 j
b1111 4"
b1000 u"
b10 \
b10 F"
b10 %#
b1000 Q
b1111 5"
b1000 v"
b0 ]
b1000 R
b10 G"
b1111 6"
b1000 w"
b0 &#
b0 Z
b0 [
b10 E"
b0 ##
b0 $#
bz1zz M
bz1zz q"
bz10zz P
1K
1J
b100000000000 S
0."
bz010z N"
1-"
bz1 J"
b111100000000 7"
bz0 *#
b100000000000 x"
bz10zz t"
1o"
1n"
bz01z O
b11z X
b11 d
bz1100 f
bz0 L"
bz01z 1"
bz001 0"
bz00z 2"
b111z B"
bz1111 3"
bz0010 O"
b11 +#
bz1100 -#
bz01z s"
b11z !#
b1001 /
b1001 l
b1001 3#
b1001 >#
b1 .
b1 T"
b1 4#
b1001 -
b1001 2#
b1001 5#
16#
1,
#130
b10 R"
b1010 0#
1G
b10 4"
b1010 j
b1 $#
b1010 w"
b1010 u"
b10 6"
b1 `
b1 [
b1010 R
1i
b10 5"
1g
b1010 Q
bz1 '#
b1 %#
b1010 v"
1m"
b0 D"
b1 E"
b0 G"
b0 F"
1+"
1,"
bz10 V
b1 \
1I
1i"
1l"
1U"
1'"
1o
1D
0]"
b10100000 x"
0V"
0x
b100000 7"
b1 H"
1m
09
b10100000 S
b1 _
0j"
0("
0E
b1 ~"
1^"
b1 A"
1y
b1 W
1:
b1111 0
b1111 k
b1111 S"
b1111 1#
b1111 7#
b1111 <#
b10 '
b10 L
b10 /"
b10 p"
b10 8#
b10 =#
06#
0,
#135
b1011 0#
b11 R"
b1011 j
b1011 u"
b11 4"
b1011 Q
b1011 v"
b11 5"
b1011 R
b1011 w"
b11 6"
b1 Z
b1 ##
b1 D"
b10110000 S
b10 d
b10 +#
b10110000 x"
1."
b10 M"
b110000 7"
0J
bz1101 f
b10z X
bz1 *#
b10z !#
0n"
bz1101 -#
bz1 L"
b110z B"
bz0000 3"
0-"
bz111 0"
bz010z N"
bz0011 O"
b1010 /
b1010 l
b1010 3#
1*
b1010 -
b1010 2#
b1010 5#
b10 .
b10 T"
b10 4#
b1010 >#
16#
1,
#140
b1110 0
b1110 k
b1110 S"
b1110 1#
b1110 7#
b1110 <#
06#
0,
#145
b100 R"
b1100 0#
b1100 j
b100 4"
b1100 u"
b1100 Q
b100 5"
b1100 v"
b1 ]
b1100 R
b1 G"
b100 6"
b1 &#
b1100 w"
b0 Z
b0 [
b0 D"
b0 E"
b0 ##
b0 $#
bz0 a
b11000000 S
bz0001 3"
bz0 J"
b1000000 7"
bz0 )#
b11000000 x"
b11 d
bz01z N
bz1110 f
bz110z e
b11 M"
bz01z 2"
bz011z N"
bz0100 O"
b11 +#
bz01z r"
bz1110 -#
bz110z ,#
b1011 /
b1011 l
b1011 3#
b1011 >#
b11 .
b11 T"
b11 4#
b1011 -
b1011 2#
b1011 5#
16#
1,
#150
b1110 0#
b110 R"
b1110 u"
b110 4"
0i
b1110 j
0g
b1110 v"
b110 5"
0G
b1110 Q
b1110 w"
b110 6"
b0 `
b1110 R
0o
bz0 '#
b10 $#
b10 &#
b10 %#
0m
b10 E"
b10 G"
bz00 V
b10 [
b10 ]
b10 \
0i"
0'"
0D
1]"
b1110000000000000 x"
1V"
1x
b110000000000000 7"
b10 H"
19
b1110000000000000 S
b10 _
1k"
1)"
1F
b11 ~"
0X"
b11 A"
0q
b11 W
04
b101 0
b101 k
b101 S"
b101 1#
b101 7#
b101 <#
b0 '
b0 L
b0 /"
b0 p"
b0 8#
b0 =#
06#
0,
#155
1h
1.#
1T
1{"
1H
1|"
1g"
b1 0#
b1001 R"
b10 ^
b1 j
b10 (#
b1 u"
b1001 4"
b1z0z U
1B
b1 Q
b10zz }"
b1 v"
b1001 5"
1A
1e"
b0 \
1C
b1 R
b0 %#
1f"
b1 w"
b10 F"
b1001 6"
1>
1a"
b10 Z
b0 [
05
b0 ]
b0 &#
0Y"
b10 ##
b0 $#
b0 G"
b0 E"
b10 D"
bz1 a
bz11zz P
0K
b1000000000000 S
bz11zz t"
0o"
bz1 )#
b1000000000000 x"
0."
b0z K"
bz0100 3"
b1001000000000000 7"
bz1 J"
b0 d
b1z b
bz11z O
bz00z N
b0z X
bz0001 f
bz111z e
bz11z s"
b0z !#
b0 +#
bz00z r"
bz0001 -#
bz111z ,#
b11 C"
bz11z 1"
b100z B"
b10 M"
bz111 0"
bz00z 2"
bz100z N"
bz0111 O"
b1110 /
b1110 l
b1110 3#
0*
b1110 -
b1110 2#
b1110 5#
b110 .
b110 T"
b110 4#
b1110 >#
16#
1,
#160
b1101 0
b1101 k
b1101 S"
b1101 1#
b1101 7#
b1101 <#
06#
0,
#165
0h
0.#
0T
b1100 R"
0{"
b100 0#
0H
0|"
b100 j
b1100 4"
0g"
b100 u"
b0 ^
b100 Q
b1100 5"
b0 (#
b100 v"
b0z0z U
0B
b100 R
b1100 6"
b0zz }"
b100 w"
bz00zz P
1K
0A
0e"
bz00zz t"
1o"
b0 \
b10 ]
0C
b0 Z
b0 [
b0 E"
b0 D"
b10 G"
b10 F"
0f"
b0 ##
b0 $#
b10 &#
b0 %#
0>
0a"
1J
15
b100000000000000 S
bz0 L"
1-"
b1100000000000000 7"
1Y"
bz0 *#
1n"
b100000000000000 x"
b1z b
b0z Y
bz1zz M
bz001z e
bz01z O
b111z X
b11 d
bz0100 f
b11 M"
bz0111 3"
bz01z 1"
bz001 0"
b1z K"
b11z B"
bz110z N"
bz1010 O"
b11 +#
bz01z s"
bz1zz q"
b1 "#
bz0100 -#
b111z !#
bz001z ,#
1&
b1 /
b1 l
b1 3#
1@#
b1 >#
b1001 .
b1001 T"
b1001 4#
b1 -
b1 2#
b1 5#
1$
16#
1,
