tarea1/src/tb.vcd
$date
	Mon Sep 14 21:23:10 2020
$end
$version
	Icarus Verilog
$end
$timescale
	1s
$end
$scope module tb_top $end
$var wire 1 ! load_ $end
$var wire 1 " rco_ $end
$var wire 1 # reset $end
$var wire 1 $ rco_C $end
$var wire 1 % rco_B $end
$var wire 1 & rco_A $end
$var wire 2 ' mode_ [1:0] $end
$var wire 1 ( load_C $end
$var wire 1 ) load_B $end
$var wire 1 * load_A $end
$var wire 1 + enable_ $end
$var wire 1 , clock $end
$var wire 4 - Q_C [3:0] $end
$var wire 4 . Q_B [3:0] $end
$var wire 4 / Q_A [3:0] $end
$var wire 4 0 D_ [3:0] $end
$scope module clock_m $end
$var reg 1 , clock $end
$upscope $end
$scope module dut_A $end
$var wire 1 1 _004_ $end
$var wire 1 2 _005_ $end
$var wire 1 3 _020_ $end
$var wire 1 4 _021_ $end
$var wire 1 5 _024_ $end
$var wire 1 6 _025_ $end
$var wire 1 7 _026_ $end
$var wire 1 8 _027_ $end
$var wire 1 9 _028_ $end
$var wire 1 : _029_ $end
$var wire 1 ; _030_ $end
$var wire 1 < _031_ $end
$var wire 1 = _032_ $end
$var wire 1 > _033_ $end
$var wire 1 ? _034_ $end
$var wire 1 @ _035_ $end
$var wire 1 A _036_ $end
$var wire 1 B _037_ $end
$var wire 1 C _038_ $end
$var wire 1 D _039_ $end
$var wire 1 E _040_ $end
$var wire 1 F _041_ $end
$var wire 1 G _043_ $end
$var wire 1 H _045_ $end
$var wire 1 I _053_ $end
$var wire 1 J _055_ $end
$var wire 1 K _056_ $end
$var wire 1 , clk $end
$var wire 1 # reset $end
$var wire 2 L mode [1:0] $end
$var wire 1 + enable $end
$var wire 32 M _054_ [31:0] $end
$var wire 32 N _052_ [31:0] $end
$var wire 32 O _051_ [31:0] $end
$var wire 32 P _050_ [31:0] $end
$var wire 4 Q _049_ [3:0] $end
$var wire 4 R _048_ [3:0] $end
$var wire 16 S _047_ [15:0] $end
$var wire 1 T _046_ $end
$var wire 4 U _044_ [3:0] $end
$var wire 4 V _042_ [3:0] $end
$var wire 2 W _023_ [1:0] $end
$var wire 4 X _022_ [3:0] $end
$var wire 2 Y _019_ [1:0] $end
$var wire 2 Z _018_ [1:0] $end
$var wire 2 [ _017_ [1:0] $end
$var wire 2 \ _016_ [1:0] $end
$var wire 2 ] _015_ [1:0] $end
$var wire 2 ^ _014_ [1:0] $end
$var wire 2 _ _013_ [1:0] $end
$var wire 2 ` _012_ [1:0] $end
$var wire 2 a _011_ [1:0] $end
$var wire 2 b _010_ [1:0] $end
$var wire 2 c _009_ [1:0] $end
$var wire 2 d _008_ [1:0] $end
$var wire 32 e _007_ [31:0] $end
$var wire 32 f _006_ [31:0] $end
$var wire 1 g _003_ $end
$var wire 1 h _002_ $end
$var wire 1 i _001_ $end
$var wire 4 j _000_ [3:0] $end
$var wire 4 k D [3:0] $end
$var reg 4 l Q_A [3:0] $end
$var reg 1 * load_A $end
$var reg 1 & rco_A $end
$upscope $end
$scope module dut_B $end
$var wire 1 m _005_ $end
$var wire 1 n _012_ $end
$var wire 1 o _013_ $end
$var wire 1 p _019_ $end
$var wire 1 q _020_ $end
$var wire 1 r _023_ $end
$var wire 1 s _024_ $end
$var wire 1 t _025_ $end
$var wire 1 u _026_ $end
$var wire 1 v _027_ $end
$var wire 1 w _028_ $end
$var wire 1 x _029_ $end
$var wire 1 y _030_ $end
$var wire 1 z _031_ $end
$var wire 1 { _032_ $end
$var wire 1 | _033_ $end
$var wire 1 } _034_ $end
$var wire 1 ~ _035_ $end
$var wire 1 !" _036_ $end
$var wire 1 "" _037_ $end
$var wire 1 #" _038_ $end
$var wire 1 $" _039_ $end
$var wire 1 %" _040_ $end
$var wire 1 &" _042_ $end
$var wire 1 '" _044_ $end
$var wire 1 (" _045_ $end
$var wire 1 )" _048_ $end
$var wire 1 *" _051_ $end
$var wire 1 +" _062_ $end
$var wire 1 ," _063_ $end
$var wire 1 -" _065_ $end
$var wire 1 ." _066_ $end
$var wire 1 , clk $end
$var wire 1 # reset $end
$var wire 2 /" mode [1:0] $end
$var wire 1 + enable $end
$var wire 32 0" _064_ [31:0] $end
$var wire 32 1" _061_ [31:0] $end
$var wire 32 2" _060_ [31:0] $end
$var wire 32 3" _059_ [31:0] $end
$var wire 4 4" _058_ [3:0] $end
$var wire 4 5" _057_ [3:0] $end
$var wire 4 6" _056_ [3:0] $end
$var wire 16 7" _055_ [15:0] $end
$var wire 1 8" _054_ $end
$var wire 1 9" _053_ $end
$var wire 1 :" _052_ $end
$var wire 3 ;" _050_ [2:0] $end
$var wire 1 <" _049_ $end
$var wire 1 =" _047_ $end
$var wire 1 >" _046_ $end
$var wire 1 ?" _043_ $end
$var wire 4 @" _041_ [3:0] $end
$var wire 2 A" _022_ [1:0] $end
$var wire 4 B" _021_ [3:0] $end
$var wire 2 C" _018_ [1:0] $end
$var wire 2 D" _017_ [1:0] $end
$var wire 2 E" _016_ [1:0] $end
$var wire 2 F" _015_ [1:0] $end
$var wire 2 G" _014_ [1:0] $end
$var wire 2 H" _011_ [1:0] $end
$var wire 2 I" _010_ [1:0] $end
$var wire 2 J" _009_ [1:0] $end
$var wire 2 K" _008_ [1:0] $end
$var wire 2 L" _007_ [1:0] $end
$var wire 2 M" _006_ [1:0] $end
$var wire 32 N" _004_ [31:0] $end
$var wire 32 O" _003_ [31:0] $end
$var wire 1 P" _002_ $end
$var wire 1 Q" _001_ $end
$var wire 4 R" _000_ [3:0] $end
$var wire 4 S" D [3:0] $end
$var reg 4 T" Q_B [3:0] $end
$var reg 1 ) load_B $end
$var reg 1 % rco_B $end
$upscope $end
$scope module dut_C $end
$var wire 1 U" _005_ $end
$var wire 1 V" _006_ $end
$var wire 1 W" _017_ $end
$var wire 1 X" _018_ $end
$var wire 1 Y" _021_ $end
$var wire 1 Z" _022_ $end
$var wire 1 [" _023_ $end
$var wire 1 \" _024_ $end
$var wire 1 ]" _025_ $end
$var wire 1 ^" _026_ $end
$var wire 1 _" _027_ $end
$var wire 1 `" _028_ $end
$var wire 1 a" _029_ $end
$var wire 1 b" _030_ $end
$var wire 1 c" _031_ $end
$var wire 1 d" _032_ $end
$var wire 1 e" _033_ $end
$var wire 1 f" _034_ $end
$var wire 1 g" _036_ $end
$var wire 1 h" _038_ $end
$var wire 1 i" _039_ $end
$var wire 1 j" _040_ $end
$var wire 1 k" _041_ $end
$var wire 1 l" _052_ $end
$var wire 1 m" _053_ $end
$var wire 1 n" _055_ $end
$var wire 1 o" _056_ $end
$var wire 1 , clk $end
$var wire 1 # reset $end
$var wire 2 p" mode [1:0] $end
$var wire 1 + enable $end
$var wire 32 q" _054_ [31:0] $end
$var wire 32 r" _051_ [31:0] $end
$var wire 32 s" _050_ [31:0] $end
$var wire 32 t" _049_ [31:0] $end
$var wire 4 u" _048_ [3:0] $end
$var wire 4 v" _047_ [3:0] $end
$var wire 4 w" _046_ [3:0] $end
$var wire 16 x" _045_ [15:0] $end
$var wire 1 y" _044_ $end
$var wire 1 z" _043_ $end
$var wire 1 {" _042_ $end
$var wire 1 |" _037_ $end
$var wire 4 }" _035_ [3:0] $end
$var wire 2 ~" _020_ [1:0] $end
$var wire 4 !# _019_ [3:0] $end
$var wire 2 "# _016_ [1:0] $end
$var wire 2 ## _015_ [1:0] $end
$var wire 2 $# _014_ [1:0] $end
$var wire 2 %# _013_ [1:0] $end
$var wire 2 &# _012_ [1:0] $end
$var wire 2 '# _011_ [1:0] $end
$var wire 2 (# _010_ [1:0] $end
$var wire 2 )# _009_ [1:0] $end
$var wire 2 *# _008_ [1:0] $end
$var wire 2 +# _007_ [1:0] $end
$var wire 32 ,# _004_ [31:0] $end
$var wire 32 -# _003_ [31:0] $end
$var wire 1 .# _002_ $end
$var wire 1 /# _001_ $end
$var wire 4 0# _000_ [3:0] $end
$var wire 4 1# D [3:0] $end
$var reg 4 2# Q_C [3:0] $end
$var reg 1 ( load_C $end
$var reg 1 $ rco_C $end
$upscope $end
$scope module tb $end
$var wire 4 3# Q_A [3:0] $end
$var wire 4 4# Q_B [3:0] $end
$var wire 4 5# Q_C [3:0] $end
$var wire 1 , clk $end
$var wire 1 ! load_ $end
$var wire 1 * load_A $end
$var wire 1 ) load_B $end
$var wire 1 ( load_C $end
$var wire 1 " rco_ $end
$var wire 1 & rco_A $end
$var wire 1 % rco_B $end
$var wire 1 $ rco_C $end
$var wire 1 6# clock $end
$var reg 4 7# D_ [3:0] $end
$var reg 1 + enable_ $end
$var reg 2 8# mode_ [1:0] $end
$var reg 1 # reset $end
$var integer 32 9# log [31:0] $end
$scope module clock_tb $end
$var reg 1 6# clock $end
$upscope $end
$scope module sb $end
$var wire 4 :# D_ [3:0] $end
$var wire 1 , clk $end
$var wire 1 + enable_ $end
$var wire 2 ;# mode_ [1:0] $end
$var wire 1 # reset $end
$var reg 4 <# Q_sb [3:0] $end
$var reg 1 =# load_sb $end
$var reg 1 ># rco_sb $end
$upscope $end
$scope task checker $end
$var integer 32 ?# iteration [31:0] $end
$upscope $end
$scope task drv_init $end
$upscope $end
$scope task drv_request $end
$var integer 32 @# iteration [31:0] $end
$upscope $end
$upscope $end
$upscope $end
$enddefinitions $end
#0
$dumpvars
bx @#
bx ?#
0>#
0=#
bx <#
bx ;#
bx :#
b10 9#
bx 8#
bx 7#
06#
bx 5#
bx 4#
bx 3#
bx 2#
bx 1#
bx 0#
x/#
x.#
bzxxxx -#
bzxxxz ,#
bx +#
bzx *#
bzx )#
bx (#
bzx '#
bx &#
bx %#
bx $#
bx ##
bx "#
bxz !#
bx ~"
bxzz }"
x|"
x{"
xz"
xy"
bx x"
bx w"
bx v"
bx u"
bzxxzz t"
bzxxz s"
bzxxz r"
bzxzz q"
bx p"
xo"
xn"
xm"
xl"
xk"
xj"
xi"
xh"
xg"
xf"
xe"
xd"
xc"
xb"
xa"
x`"
x_"
x^"
x]"
x\"
x["
xZ"
xY"
xX"
xW"
xV"
xU"
bx T"
bx S"
bx R"
xQ"
xP"
bzxxxx O"
bzxxxz N"
bx M"
bzx L"
bxz K"
bzx J"
bx I"
bx H"
bx G"
bx F"
bx E"
bx D"
bx C"
bxz B"
bx A"
bxzz @"
x?"
x>"
x="
x<"
bxzz ;"
x:"
x9"
x8"
bx 7"
bx 6"
bx 5"
bx 4"
bzxxxx 3"
bzxxz 2"
bzxxz 1"
bzxxx 0"
bx /"
x."
x-"
x,"
x+"
x*"
x)"
x("
x'"
x&"
x%"
x$"
x#"
x""
x!"
x~
x}
x|
x{
xz
xy
xx
xw
xv
xu
xt
xs
xr
xq
xp
xo
xn
xm
bx l
bx k
bx j
xi
xh
xg
bzxxxx f
bzxxxz e
bx d
bzx c
bxz b
bzx a
bx `
bx _
bx ^
bx ]
bx \
bx [
bx Z
bxz Y
bxz X
bx W
bzxx V
bxzxz U
xT
bx S
bx R
bx Q
bzxxzz P
bzxxz O
bzxxz N
bzxzz M
bx L
xK
xJ
xI
xH
xG
xF
xE
xD
xC
xB
xA
x@
x?
x>
x=
x<
x;
x:
x9
x8
x7
x6
x5
x4
x3
x2
x1
bx 0
bx /
bx .
bx -
0,
x+
x*
x)
x(
bx '
x&
x%
x$
x#
z"
z!
$end
#5
16#
1,
#10
0g
0G
bx0 ##
bx0 $#
bx0 &#
bx0 %#
bx0 D"
bx0 E"
bx0 G"
bx0 F"
bx0 ^
bx0 Z
bx0 [
bx0 ]
bx0 \
0o
bx0zz }"
bx0 (#
bx000000000000 x"
0z"
bz0 '#
1m"
bx0zz @"
bx0 I"
0m
bx000000000000 7"
1+"
b0 `
bxz0z U
bx000000000000 S
1I
0j"
0i"
0h"
1l"
1U"
0("
0'"
0n
0E
0D
bz00 V
1^"
1]"
1\"
1V"
1y
1x
1w
b10 H"
1,"
1:
19
18
b10 _
b1111 0#
bz R"
1k"
1)"
1F
1.#
0/#
zP"
zQ"
b11 ~"
0X"
b11 A"
0q
b11 W
04
1{"
0y"
b1111 u"
z<"
z8"
bz 4"
0i
0h
b0 j
0d"
0#"
0@
1_"
1{
1;
b0 '
b0 L
b0 /"
b0 p"
b0 8#
b0 ;#
0+
0#
06#
0,
#15
1|"
0T
1g"
0H
b10 (#
b0 ^
b11 Q
b0 %#
b10 v"
b10zz }"
b0z0z U
1e"
0B
b0 \
0A
b0 ]
b10 [
b11 R
0C
b0 &#
b10 $#
b10 w"
1f"
0<
0?
0>
0=
1`"
17
16
15
b10 Z
12
b0 ##
0["
bz0zz M
11
0b"
0a"
0c"
b1z b
bz11zz P
0K
b11 d
03
b11000000000000 S
bz1 a
1Z"
bz11zz t"
0o"
0n"
1Y"
1W"
b10000000000000 x"
bz0 )#
b0z Y
bz00z O
b111z X
bz0 c
0J
bz00z N
bz0011 f
bz000z e
bz1zz q"
bz1 *#
bz11z s"
b0z !#
b1 +#
b11 "#
bz11z r"
bz0010 -#
bz000z ,#
0&
0*
b0 /
b0 l
b0 3#
1$
0(
b1111 -
b1111 2#
b1111 5#
z%
z)
bz .
bz T"
bz 4#
b0z <#
16#
1,
#20
06#
0,
#25
16#
1,
#30
06#
0,
#35
16#
1,
#40
b10 0#
bx R"
xP"
xQ"
b10 u"
x<"
x8"
bx 4"
b11 j
1d"
1#"
1@
b1100100 @#
b1100100 ?#
1+
06#
0,
#45
0.#
0{"
0|"
b101 0#
0g"
b110 j
b101 u"
b0 (#
b110 Q
b101 v"
b0zz }"
0e"
b110 R
b10 ]
b101 w"
0f"
0`"
b0 Z
b10 [
b10 ##
b0 $#
b10 &#
b0 %#
1["
01
bz1zz M
0a"
b110000000000000 S
13
bz00zz P
1K
bz010z e
bz0 a
1Y"
bz1 )#
bz00zz t"
1o"
b101000000000000 x"
0J
bz0110 f
bz1 c
bz01z O
bz01z N
b110z X
b10 +#
bz01z s"
bz1zz q"
bz00z r"
b1 "#
bz0101 -#
b110z !#
bz001z ,#
b11 /
b11 l
b11 3#
bx <#
bx .
bx T"
bx 4#
x)
x%
b10 -
b10 2#
b10 5#
16#
1,
#50
06#
0,
#55
b1000 0#
b1001 j
b1000 u"
b1001 Q
b1000 v"
b10 \
b1001 R
b10 %#
b1000 w"
bz01zz t"
b0 ]
b10 Z
b0 [
b0 &#
b0 ##
b0 $#
bz01zz P
0K
bz1 a
b1001000000000000 S
0o"
1n"
bz0 *#
b1000000000000000 x"
b1z Y
bz11z O
b100z X
b10 d
bz00z N
bz1001 f
bz011z e
b11 "#
bz011z ,#
bz11z s"
b101z !#
b11 +#
bz1000 -#
b110 /
b110 l
b110 3#
0$
b101 -
b101 2#
b101 5#
16#
1,
#60
06#
0,
#65
b1011 0#
b1100 j
b1011 u"
b1100 Q
b1011 v"
b1100 R
b1011 w"
bz10zz P
1K
b0 Z
b0 [
b10 ]
b10 \
b10 ##
b10 $#
b0 &#
b10 %#
1J
b1100000000000000 S
b0z b
bz1 *#
bz01zz t"
0o"
b1011000000000000 x"
b11 d
bz01z O
bz1zz M
bz1100 f
b11z X
bz101z e
b10 "#
0n"
bz00z s"
bz0zz q"
bz1011 -#
b11z !#
bz100z ,#
b1001 /
b1001 l
b1001 3#
b1000 -
b1000 2#
b1000 5#
16#
1,
#70
0T
0H
b11 Q
b0 ^
b0 ]
b11 R
b0z0z U
b0 \
0B
bz0zz M
b10 Z
b10 [
11
0<
0K
bz11zz P
b1z b
03
17
b11000000000000 S
bz00z O
b0z Y
b111z X
bz0 c
0J
bz0011 f
bz000z e
b0 /
b0 l
b0 3#
1{"
b1111 u"
z<"
z8"
bz 4"
b0 j
0d"
0#"
0@
b0 0#
1.#
0_"
b0 R"
0Q"
0P"
0{
0;
1#
06#
0,
#75
0?"
0&"
b0 I"
0:"
b0zz @"
0*"
b11 v"
b11 5"
0="
0$"
b0zz ;"
b11 w"
b0 F"
b0 G"
b10 E"
b11 6"
0%"
0>"
09"
0|
0z
0!"
0~
0}
b0 %#
1r
b10 D"
1v
1u
1t
1s
1c"
1""
0W"
b11000000000000 x"
bz11zz t"
b1z K"
0."
bz001z N"
b11 M"
0p
bz1110 3"
b11000000000000 7"
bz1 J"
bz1 L"
b0 "#
bz0011 -#
b111z !#
bz000z ,#
bz00z 1"
bz001 0"
b111z B"
b0 C"
0-"
bz00z 2"
bz0001 O"
1$
b0 -
b0 2#
b0 5#
0%
0)
b0 .
b0 T"
b0 4#
b0 <#
16#
1,
#80
0.#
0{"
b11 u"
0<"
08"
b11 4"
b11 j
1d"
1#"
1@
b11 0#
1_"
b11 R"
0Q"
0P"
1{
1;
0#
06#
0,
#85
b110 R"
b110 0#
b110 j
b110 4"
b110 u"
b110 Q
b110 5"
b110 v"
b10 ]
b110 R
b110 6"
b10 G"
b110 w"
b10 &#
b0 Z
b10 [
b10 E"
b0 D"
b0 ##
b10 $#
bz1zz M
01
0""
0c"
bz1zz q"
bz00zz P
1K
13
bz010z e
bz0 a
b110000000000000 S
b110000000000000 7"
1p
1."
bz0 J"
b110000000000000 x"
1W"
bz00zz t"
1o"
bz010z ,#
bz0 )#
bz01z O
b110z X
bz1 c
0J
bz01z N
bz0110 f
0-"
bz011z N"
bz0100 O"
b1 C"
bz01z 1"
bz111 0"
bz01z 2"
b110z B"
bz0001 3"
0n"
bz0110 -#
b1 "#
bz01z s"
bz01z r"
b110z !#
b11 /
b11 l
b11 3#
b11 <#
b11 .
b11 T"
b11 4#
b11 -
b11 2#
b11 5#
0$
16#
1,
#90
06#
0,
#95
b1001 0#
b1001 R"
b1001 j
b1001 u"
b1001 4"
b1001 Q
b1001 v"
b1001 5"
b10 \
b1001 R
b10 %#
b1001 w"
b10 F"
b1001 6"
b10 Z
b0 [
b0 ]
b0 &#
b10 ##
b0 $#
b0 G"
b0 E"
b10 D"
bz1 a
bz01zz P
0K
b1001000000000000 S
bz01zz t"
0o"
bz1 )#
b1001000000000000 x"
0."
b0z K"
bz0100 3"
b1001000000000000 7"
bz1 J"
b10 d
b1z Y
bz11z O
bz00z N
b100z X
bz1001 f
bz011z e
b11 "#
bz11z s"
b100z !#
b10 +#
bz00z r"
bz1001 -#
bz011z ,#
b11 C"
bz11z 1"
b100z B"
b10 M"
bz111 0"
bz00z 2"
bz100z N"
bz0111 O"
b110 /
b110 l
b110 3#
b110 -
b110 2#
b110 5#
b110 .
b110 T"
b110 4#
b110 <#
16#
1,
#100
06#
0,
#105
b1100 R"
b1100 0#
b1100 j
b1100 4"
b1100 u"
b1100 Q
b1100 5"
b1100 v"
b1100 R
b1100 6"
b1100 w"
bz10zz P
1K
bz10zz t"
1o"
b10 \
b10 ]
b0 Z
b0 [
b0 E"
b0 D"
b10 G"
b10 F"
b0 ##
b0 $#
b10 &#
b10 %#
b0z b
1J
b1100000000000000 S
bz0 L"
1-"
b1100000000000000 7"
bz0 *#
1n"
b1100000000000000 x"
bz1zz M
bz101z e
bz01z O
b11z X
b11 d
bz1100 f
b11 M"
bz0111 3"
bz01z 1"
bz001 0"
b1z K"
b11z B"
bz110z N"
bz1010 O"
b11 +#
bz01z s"
bz1zz q"
bz1100 -#
b11z !#
bz101z ,#
b1001 /
b1001 l
b1001 3#
b1001 <#
b1001 .
b1001 T"
b1001 4#
b1001 -
b1001 2#
b1001 5#
16#
1,
#110
06#
0,
#115
1h
1T
1H
b1111 0#
b1111 R"
b10 ^
b1111 j
b1111 u"
b1111 4"
b1z0z U
b1111 Q
b1111 v"
b1111 5"
1B
b10 \
1A
b1111 R
b10 %#
b1111 w"
b10 F"
b1111 6"
1?
b10 Z
b10 [
06
b10 ]
b10 &#
b10 ##
b10 $#
b10 G"
b10 E"
b10 D"
bz10zz P
0K
b1 d
b1111000000000000 S
0o"
b1 +#
bz1 *#
b1111000000000000 x"
b1 M"
bz1010 3"
b1111000000000000 7"
bz1 L"
bz0 c
0J
b1z b
bz00z O
b1z X
bz1111 f
bz110z e
bz00z s"
b1z !#
b10 "#
0n"
bz1111 -#
bz110z ,#
bz00z 1"
b1z B"
b10 C"
0-"
bz101 0"
bz111z N"
bz1101 O"
b1100 /
b1100 l
b1100 3#
b1100 -
b1100 2#
b1100 5#
b1100 .
b1100 T"
b1100 4#
b1100 <#
16#
1,
#120
bz R"
1.#
zP"
zQ"
1{"
z<"
z8"
bz 4"
0h
b0 j
0d"
0#"
0@
0+
06#
0,
#125
1|"
0T
x?"
1g"
0H
x&"
x:"
b10 (#
b0 ^
x*"
bx0 I"
b11 Q
bx 5"
b10 v"
b0 %#
b10zz }"
b0z0z U
bxzz ;"
bx0zz @"
1e"
0B
0A
b11 R
x9"
x="
x$"
x%"
bx 6"
b10 w"
b0 &#
1f"
0?
x~
x>"
x!"
xz
x}
x|
1`"
b0 \
16
b0 ]
bx0 E"
bx0 D"
xt
xu
bx0 G"
xv
xs
xr
bx0 F"
b0 ##
b10 $#
0["
0<
11
x""
17
03
bz11zz P
b11 d
b11000000000000 S
bzx L"
bzx J"
x."
xp
bx M"
bx000000000000 7"
b10000000000000 x"
bz11zz t"
bz000z ,#
bz0 )#
b1z b
b0z Y
bz0zz M
b111z X
bz0011 f
bz000z e
x-"
bzxxz 1"
bzxxz 2"
bzxxxx 3"
bzxxx 0"
bxz K"
bx C"
bxz B"
bzxxxz N"
bzxxxx O"
0n"
bz0010 -#
b11 "#
bz11z s"
bz11z r"
b0z !#
b0 /
b0 l
b0 3#
b0z <#
bz .
bz T"
bz 4#
z)
z%
b1111 -
b1111 2#
b1111 5#
1$
16#
1,
#130
06#
0,
#135
16#
1,
#140
0.#
1h
0{"
1T
0|"
1H
1G
b1 ##
1/#
0g"
b1 w"
0&"
b1 6"
b1 R
1i
1y"
0?"
b1 5"
b1 ^
b1 `
1g
b1 Q
1z"
bz1 '#
b0 (#
b0 $#
b1 v"
1o
b0 I"
1*"
b1 D"
b0 E"
b0 G"
b0 F"
1+"
b1 Z
b0 [
1I
1h"
1l"
0U"
1n
1:"
bz01 V
0\"
b0zz }"
b1 x"
0V"
0w
b0zz @"
b0zz ;"
b1 7"
b1 H"
1,"
08
b1 S
b1 _
b1 0#
b1 R"
0k"
0)"
0F
0P"
1Q"
b0 ~"
1X"
b0 A"
1q
b0 W
14
b1 u"
0<"
18"
b1 4"
b1 j
1d"
1#"
1@
b1 0
b1 k
b1 S"
b1 1#
b1 7#
b1 :#
b11 '
b11 L
b11 /"
b11 p"
b11 8#
b11 ;#
1+
06#
0,
#145
0="
0$"
0e"
0>"
09"
0%"
0f"
0!"
0~
0z
0}
bz00zz t"
1o"
0`"
bz1zz M
1u
1t
1v
1s
1["
01
bz00zz P
1K
0|
0""
0b"
13
1r
bz0 L"
1-"
bz1 J"
bz010z N"
bz1111 3"
0."
b1z K"
1p
1Z"
1n"
bz1 )#
b11 +#
bz01z O
bz1 c
1J
bz0100 f
bz001z e
b11 M"
bz001 0"
bz0010 O"
bz01z 1"
bz00z 2"
b1 C"
b111z B"
bz0 *#
bz01z s"
bz1zz q"
bz00z r"
b1 "#
bz0100 -#
b111z !#
bz001z ,#
1&
1*
b1 /
b1 l
b1 3#
b1 <#
1=#
b1 .
b1 T"
b1 4#
1)
0%
b1 -
b1 2#
b1 5#
1(
0$
16#
1,
#150
b100 0#
b100 R"
b100 u"
b100 4"
0i
b100 j
0g
0h
b100 v"
b100 5"
0G
0T
b100 Q
0Q"
b0 Z
0H
b0 ##
0/#
b100 w"
08"
b100 6"
b0 `
b100 R
0y"
0o
0:"
b0 ^
0z"
bz0 '#
b10 &#
b0 $#
0*"
b0 D"
b10 G"
b0 F"
b0 E"
b10 ]
b0 [
0h"
0n
1\"
1V"
b100000000000000 x"
1U"
1w
b10 H"
b100000000000000 7"
0m
18
b10 _
bz00 V
b100000000000000 S
1k"
0j"
0i"
1)"
0("
0'"
1F
0E
0D
b11 ~"
0X"
1^"
1]"
b11 A"
0q
1y
1x
b11 W
04
1:
19
b0 '
b0 L
b0 /"
b0 p"
b0 8#
b0 ;#
06#
0,
#155
b111 0#
b111 R"
b111 j
b111 u"
b111 4"
b111 Q
b111 v"
b111 5"
b0 \
b111 R
b0 %#
b111 w"
b0 F"
b111 6"
b10 Z
b10 [
b10 ]
b10 &#
b10 ##
b10 $#
b10 G"
b10 E"
b10 D"
bz00zz P
0K
b111000000000000 S
0o"
bz1 *#
b111000000000000 x"
b0z K"
bz0010 3"
b111000000000000 7"
bz1 L"
bz0 c
0J
b1z Y
bz00z O
b101z X
bz0111 f
bz010z e
bz00z s"
b101z !#
b10 "#
0n"
bz0111 -#
bz010z ,#
bz00z 1"
b101z B"
b10 C"
0-"
bz101 0"
bz011z N"
bz0101 O"
b100 /
b100 l
b100 3#
0*
0&
0(
b100 -
b100 2#
b100 5#
0)
b100 .
b100 T"
b100 4#
b100 <#
0=#
16#
1,
#160
06#
0,
#165
1P"
1<"
1?"
b1010 R"
1&"
b1010 0#
b1010 j
b1010 4"
b10 I"
b1010 u"
b10 \
b1010 Q
b1010 5"
b10 F"
b10zz @"
b1010 v"
b10 %#
1="
b0 ]
b1010 R
b1010 6"
b0 G"
1>"
b1010 w"
b0 &#
1!"
b0 Z
b10 [
b10 E"
b0 D"
0u
b0 ##
b10 $#
bz01zz P
bz100z e
bz0 a
b1010000000000000 S
b1010000000000000 7"
bz0 J"
b1010000000000000 x"
bz01zz t"
bz100z ,#
bz0 )#
bz11z O
b100z X
bz1 c
0J
bz11z N
bz1010 f
0-"
bz101z N"
bz1000 O"
b11 C"
bz11z 1"
bz111 0"
bz11z 2"
b100z B"
bz0101 3"
0n"
bz1010 -#
b11 "#
bz11z s"
bz11z r"
b100z !#
b111 /
b111 l
b111 3#
b111 <#
b111 .
b111 T"
b111 4#
b111 -
b111 2#
b111 5#
16#
1,
#170
06#
0,
#175
0P"
b1101 0#
0<"
b1101 R"
0?"
b1101 j
b1101 u"
0&"
b1101 4"
b1101 Q
b1101 v"
b0 I"
b1101 5"
b1101 R
b1101 w"
b0zz @"
b1101 6"
0="
b10 Z
b0 [
b10 ]
b10 \
b10 %#
b10 &#
b10 ##
b0 $#
0>"
b10 F"
b10 G"
b0 E"
b10 D"
0!"
bz1 a
bz10zz P
1K
b1101000000000000 S
b0z b
bz10zz t"
1o"
bz1 )#
b1101000000000000 x"
1u
1."
bz1000 3"
b1101000000000000 7"
bz1 J"
b10 d
bz01z O
bz1zz M
bz00z N
bz1101 f
b10z X
bz101z e
bz01z s"
bz1zz q"
b10z !#
b10 +#
bz00z r"
bz1101 -#
bz101z ,#
b1z K"
bz01z 1"
b10z B"
b10 M"
bz111 0"
bz00z 2"
bz110z N"
bz1011 O"
b1010 /
b1010 l
b1010 3#
b1010 -
b1010 2#
b1010 5#
1%
b1010 .
b1010 T"
b1010 4#
b1010 <#
16#
1,
#180
06#
0,
#185
1P"
1<"
1.#
1?"
1{"
b0 R"
1&"
b0 0#
1|"
1g"
b0 j
b0 4"
b10 I"
b0 u"
b10 (#
b0 Q
b0 5"
b10zz @"
b0 v"
1="
b10zz }"
b0 \
b0 R
b0 F"
b0 6"
1$"
b0 %#
b0 w"
1e"
bz11zz P
1}
bz11zz t"
1b"
b0 ]
b0 Z
b0 [
b0 E"
b0 D"
b0 G"
0s
b0 ##
b0 $#
b0 &#
0Z"
0K
1J
b0 S
bz0 L"
1-"
b0 7"
0."
bz0 *#
1n"
b0 x"
0o"
b1z b
bz111z e
bz11z O
b1z X
b1 d
bz0000 f
b1 M"
bz101 0"
bz1011 3"
bz11z 1"
bz000z N"
b1z B"
bz1110 O"
b1 +#
bz11z s"
bz0000 -#
b1z !#
bz111z ,#
b1101 /
b1101 l
b1101 3#
b1101 <#
b1101 .
b1101 T"
b1101 4#
0%
b1101 -
b1101 2#
b1101 5#
16#
1,
#190
06#
0,
#195
0P"
0.#
0<"
0{"
0?"
0|"
b11 0#
b11 R"
0&"
0h
0g"
0T
b11 j
b11 u"
b11 4"
b0 I"
0H
b0 (#
b11 Q
b11 v"
b11 5"
b0zz @"
b0 ^
b0zz }"
0="
b11 R
0e"
b11 w"
b11 6"
0$"
b0z0z U
0b"
0}
0A
b10 Z
b10 [
0B
b0 ]
b0 \
b0 %#
b0 &#
b10 ##
1Z"
b10 $#
b0 F"
b0 G"
b10 E"
b10 D"
1s
0?
0<
11
1c"
0~
1""
16
17
bz11zz P
0K
03
b11000000000000 S
b11 d
b11 +#
0W"
bz1 *#
b11000000000000 x"
1t
b11 M"
0p
bz1110 3"
b11000000000000 7"
bz1 L"
bz0 c
0J
b1z b
bz00z O
bz0zz M
b0z Y
bz0011 f
b111z X
bz000z e
bz00z s"
bz0zz q"
b111z !#
b0 "#
0n"
bz0011 -#
bz000z ,#
b1z K"
bz00z 1"
b111z B"
b0 C"
0-"
bz001 0"
bz001z N"
bz0001 O"
b0 /
b0 l
b0 3#
1$
b0 -
b0 2#
b0 5#
1%
b0 .
b0 T"
b0 4#
1>#
b0 <#
16#
1,
#200
06#
0,
#205
b110 R"
b110 0#
b110 j
b110 4"
b110 u"
b110 Q
b110 5"
b110 v"
b10 ]
b110 R
b110 6"
b10 G"
b110 w"
b10 &#
b0 Z
b10 [
b10 E"
b0 D"
b0 ##
b10 $#
bz1zz M
01
0""
0c"
bz1zz q"
bz00zz P
1K
13
bz010z e
bz0 a
b110000000000000 S
b110000000000000 7"
1p
1."
bz0 J"
b110000000000000 x"
1W"
bz00zz t"
1o"
bz010z ,#
bz0 )#
bz01z O
b110z X
bz1 c
0J
bz01z N
bz0110 f
0-"
bz011z N"
bz0100 O"
b1 C"
bz01z 1"
bz111 0"
bz01z 2"
b110z B"
bz0001 3"
0n"
bz0110 -#
b1 "#
bz01z s"
bz01z r"
b110z !#
b11 /
b11 l
b11 3#
b11 <#
0>#
b11 .
b11 T"
b11 4#
0%
b11 -
b11 2#
b11 5#
0$
16#
1,
