tarea1/src/tb.vcd
$date
	Wed Sep 16 16:57:45 2020
$end
$version
	Icarus Verilog
$end
$timescale
	1s
$end
$scope module tb_top $end
$var wire 1 ! load_ $end
$var wire 1 " rco_ $end
$var wire 1 # reset $end
$var wire 1 $ rco_C $end
$var wire 1 % rco_B $end
$var wire 1 & rco_A $end
$var wire 2 ' mode_ [1:0] $end
$var wire 1 ( load_C $end
$var wire 1 ) load_B $end
$var wire 1 * load_A $end
$var wire 1 + enable_ $end
$var wire 1 , clock $end
$var wire 4 - Q_C [3:0] $end
$var wire 4 . Q_B [3:0] $end
$var wire 4 / Q_A [3:0] $end
$var wire 4 0 D_ [3:0] $end
$scope module clock_m $end
$var reg 1 , clock $end
$upscope $end
$scope module dut_A $end
$var wire 1 1 _004_ $end
$var wire 1 2 _005_ $end
$var wire 1 3 _020_ $end
$var wire 1 4 _021_ $end
$var wire 1 5 _024_ $end
$var wire 1 6 _025_ $end
$var wire 1 7 _026_ $end
$var wire 1 8 _027_ $end
$var wire 1 9 _028_ $end
$var wire 1 : _029_ $end
$var wire 1 ; _030_ $end
$var wire 1 < _031_ $end
$var wire 1 = _032_ $end
$var wire 1 > _033_ $end
$var wire 1 ? _034_ $end
$var wire 1 @ _035_ $end
$var wire 1 A _036_ $end
$var wire 1 B _037_ $end
$var wire 1 C _038_ $end
$var wire 1 D _039_ $end
$var wire 1 E _040_ $end
$var wire 1 F _041_ $end
$var wire 1 G _043_ $end
$var wire 1 H _045_ $end
$var wire 1 I _053_ $end
$var wire 1 J _055_ $end
$var wire 1 K _056_ $end
$var wire 1 , clk $end
$var wire 1 # reset $end
$var wire 2 L mode [1:0] $end
$var wire 1 + enable $end
$var wire 32 M _054_ [31:0] $end
$var wire 32 N _052_ [31:0] $end
$var wire 32 O _051_ [31:0] $end
$var wire 32 P _050_ [31:0] $end
$var wire 4 Q _049_ [3:0] $end
$var wire 4 R _048_ [3:0] $end
$var wire 16 S _047_ [15:0] $end
$var wire 1 T _046_ $end
$var wire 4 U _044_ [3:0] $end
$var wire 4 V _042_ [3:0] $end
$var wire 2 W _023_ [1:0] $end
$var wire 4 X _022_ [3:0] $end
$var wire 2 Y _019_ [1:0] $end
$var wire 2 Z _018_ [1:0] $end
$var wire 2 [ _017_ [1:0] $end
$var wire 2 \ _016_ [1:0] $end
$var wire 2 ] _015_ [1:0] $end
$var wire 2 ^ _014_ [1:0] $end
$var wire 2 _ _013_ [1:0] $end
$var wire 2 ` _012_ [1:0] $end
$var wire 2 a _011_ [1:0] $end
$var wire 2 b _010_ [1:0] $end
$var wire 2 c _009_ [1:0] $end
$var wire 2 d _008_ [1:0] $end
$var wire 32 e _007_ [31:0] $end
$var wire 32 f _006_ [31:0] $end
$var wire 1 g _003_ $end
$var wire 1 h _002_ $end
$var wire 1 i _001_ $end
$var wire 4 j _000_ [3:0] $end
$var wire 4 k D [3:0] $end
$var reg 4 l Q_A [3:0] $end
$var reg 1 * load_A $end
$var reg 1 & rco_A $end
$upscope $end
$scope module dut_B $end
$var wire 1 m _005_ $end
$var wire 1 n _012_ $end
$var wire 1 o _013_ $end
$var wire 1 p _019_ $end
$var wire 1 q _020_ $end
$var wire 1 r _023_ $end
$var wire 1 s _024_ $end
$var wire 1 t _025_ $end
$var wire 1 u _026_ $end
$var wire 1 v _027_ $end
$var wire 1 w _028_ $end
$var wire 1 x _029_ $end
$var wire 1 y _030_ $end
$var wire 1 z _031_ $end
$var wire 1 { _032_ $end
$var wire 1 | _033_ $end
$var wire 1 } _034_ $end
$var wire 1 ~ _035_ $end
$var wire 1 !" _036_ $end
$var wire 1 "" _037_ $end
$var wire 1 #" _038_ $end
$var wire 1 $" _039_ $end
$var wire 1 %" _040_ $end
$var wire 1 &" _042_ $end
$var wire 1 '" _044_ $end
$var wire 1 (" _045_ $end
$var wire 1 )" _048_ $end
$var wire 1 *" _051_ $end
$var wire 1 +" _062_ $end
$var wire 1 ," _063_ $end
$var wire 1 -" _065_ $end
$var wire 1 ." _066_ $end
$var wire 1 , clk $end
$var wire 1 # reset $end
$var wire 2 /" mode [1:0] $end
$var wire 1 + enable $end
$var wire 32 0" _064_ [31:0] $end
$var wire 32 1" _061_ [31:0] $end
$var wire 32 2" _060_ [31:0] $end
$var wire 32 3" _059_ [31:0] $end
$var wire 4 4" _058_ [3:0] $end
$var wire 4 5" _057_ [3:0] $end
$var wire 4 6" _056_ [3:0] $end
$var wire 16 7" _055_ [15:0] $end
$var wire 1 8" _054_ $end
$var wire 1 9" _053_ $end
$var wire 1 :" _052_ $end
$var wire 3 ;" _050_ [2:0] $end
$var wire 1 <" _049_ $end
$var wire 1 =" _047_ $end
$var wire 1 >" _046_ $end
$var wire 1 ?" _043_ $end
$var wire 4 @" _041_ [3:0] $end
$var wire 2 A" _022_ [1:0] $end
$var wire 4 B" _021_ [3:0] $end
$var wire 2 C" _018_ [1:0] $end
$var wire 2 D" _017_ [1:0] $end
$var wire 2 E" _016_ [1:0] $end
$var wire 2 F" _015_ [1:0] $end
$var wire 2 G" _014_ [1:0] $end
$var wire 2 H" _011_ [1:0] $end
$var wire 2 I" _010_ [1:0] $end
$var wire 2 J" _009_ [1:0] $end
$var wire 2 K" _008_ [1:0] $end
$var wire 2 L" _007_ [1:0] $end
$var wire 2 M" _006_ [1:0] $end
$var wire 32 N" _004_ [31:0] $end
$var wire 32 O" _003_ [31:0] $end
$var wire 1 P" _002_ $end
$var wire 1 Q" _001_ $end
$var wire 4 R" _000_ [3:0] $end
$var wire 4 S" D [3:0] $end
$var reg 4 T" Q_B [3:0] $end
$var reg 1 ) load_B $end
$var reg 1 % rco_B $end
$upscope $end
$scope module dut_C $end
$var wire 1 U" _005_ $end
$var wire 1 V" _006_ $end
$var wire 1 W" _017_ $end
$var wire 1 X" _018_ $end
$var wire 1 Y" _021_ $end
$var wire 1 Z" _022_ $end
$var wire 1 [" _023_ $end
$var wire 1 \" _024_ $end
$var wire 1 ]" _025_ $end
$var wire 1 ^" _026_ $end
$var wire 1 _" _027_ $end
$var wire 1 `" _028_ $end
$var wire 1 a" _029_ $end
$var wire 1 b" _030_ $end
$var wire 1 c" _031_ $end
$var wire 1 d" _032_ $end
$var wire 1 e" _033_ $end
$var wire 1 f" _034_ $end
$var wire 1 g" _036_ $end
$var wire 1 h" _038_ $end
$var wire 1 i" _039_ $end
$var wire 1 j" _040_ $end
$var wire 1 k" _041_ $end
$var wire 1 l" _052_ $end
$var wire 1 m" _053_ $end
$var wire 1 n" _055_ $end
$var wire 1 o" _056_ $end
$var wire 1 , clk $end
$var wire 1 # reset $end
$var wire 2 p" mode [1:0] $end
$var wire 1 + enable $end
$var wire 32 q" _054_ [31:0] $end
$var wire 32 r" _051_ [31:0] $end
$var wire 32 s" _050_ [31:0] $end
$var wire 32 t" _049_ [31:0] $end
$var wire 4 u" _048_ [3:0] $end
$var wire 4 v" _047_ [3:0] $end
$var wire 4 w" _046_ [3:0] $end
$var wire 16 x" _045_ [15:0] $end
$var wire 1 y" _044_ $end
$var wire 1 z" _043_ $end
$var wire 1 {" _042_ $end
$var wire 1 |" _037_ $end
$var wire 4 }" _035_ [3:0] $end
$var wire 2 ~" _020_ [1:0] $end
$var wire 4 !# _019_ [3:0] $end
$var wire 2 "# _016_ [1:0] $end
$var wire 2 ## _015_ [1:0] $end
$var wire 2 $# _014_ [1:0] $end
$var wire 2 %# _013_ [1:0] $end
$var wire 2 &# _012_ [1:0] $end
$var wire 2 '# _011_ [1:0] $end
$var wire 2 (# _010_ [1:0] $end
$var wire 2 )# _009_ [1:0] $end
$var wire 2 *# _008_ [1:0] $end
$var wire 2 +# _007_ [1:0] $end
$var wire 32 ,# _004_ [31:0] $end
$var wire 32 -# _003_ [31:0] $end
$var wire 1 .# _002_ $end
$var wire 1 /# _001_ $end
$var wire 4 0# _000_ [3:0] $end
$var wire 4 1# D [3:0] $end
$var reg 4 2# Q_C [3:0] $end
$var reg 1 ( load_C $end
$var reg 1 $ rco_C $end
$upscope $end
$scope module tb $end
$var wire 4 3# Q_A [3:0] $end
$var wire 4 4# Q_B [3:0] $end
$var wire 4 5# Q_C [3:0] $end
$var wire 1 , clk $end
$var wire 1 ! load_ $end
$var wire 1 * load_A $end
$var wire 1 ) load_B $end
$var wire 1 ( load_C $end
$var wire 1 " rco_ $end
$var wire 1 & rco_A $end
$var wire 1 % rco_B $end
$var wire 1 $ rco_C $end
$var wire 1 6# clock $end
$var reg 4 7# D_ [3:0] $end
$var reg 1 + enable_ $end
$var reg 2 8# mode_ [1:0] $end
$var reg 1 # reset $end
$var integer 32 9# log_A [31:0] $end
$var integer 32 :# log_B [31:0] $end
$var integer 32 ;# log_C [31:0] $end
$scope module clock_tb $end
$var reg 1 6# clock $end
$upscope $end
$scope module sb $end
$var wire 4 <# D_ [3:0] $end
$var wire 1 , clk $end
$var wire 1 + enable_ $end
$var wire 2 =# mode_ [1:0] $end
$var wire 1 # reset $end
$var reg 4 ># Q_sb [3:0] $end
$var reg 1 ?# load_sb $end
$var reg 1 @# rco_sb $end
$upscope $end
$scope task checker $end
$var integer 32 A# iteration [31:0] $end
$upscope $end
$scope task drv_init $end
$upscope $end
$scope task drv_request $end
$var integer 32 B# iteration [31:0] $end
$upscope $end
$upscope $end
$upscope $end
$enddefinitions $end
#0
$dumpvars
bx B#
bx A#
0@#
0?#
bx >#
bx =#
bx <#
b1000 ;#
b100 :#
b10 9#
bx 8#
bx 7#
06#
bx 5#
bx 4#
bx 3#
bx 2#
bx 1#
bx 0#
x/#
x.#
bzxxxx -#
bzxxxz ,#
bx +#
bzx *#
bzx )#
bx (#
bzx '#
bx &#
bx %#
bx $#
bx ##
bx "#
bxz !#
bx ~"
bxzz }"
x|"
x{"
xz"
xy"
bx x"
bx w"
bx v"
bx u"
bzxxzz t"
bzxxz s"
bzxxz r"
bzxzz q"
bx p"
xo"
xn"
xm"
xl"
xk"
xj"
xi"
xh"
xg"
xf"
xe"
xd"
xc"
xb"
xa"
x`"
x_"
x^"
x]"
x\"
x["
xZ"
xY"
xX"
xW"
xV"
xU"
bx T"
bx S"
bx R"
xQ"
xP"
bzxxxx O"
bzxxxz N"
bx M"
bzx L"
bxz K"
bzx J"
bx I"
bx H"
bx G"
bx F"
bx E"
bx D"
bx C"
bxz B"
bx A"
bxzz @"
x?"
x>"
x="
x<"
bxzz ;"
x:"
x9"
x8"
bx 7"
bx 6"
bx 5"
bx 4"
bzxxxx 3"
bzxxz 2"
bzxxz 1"
bzxxx 0"
bx /"
x."
x-"
x,"
x+"
x*"
x)"
x("
x'"
x&"
x%"
x$"
x#"
x""
x!"
x~
x}
x|
x{
xz
xy
xx
xw
xv
xu
xt
xs
xr
xq
xp
xo
xn
xm
bx l
bx k
bx j
xi
xh
xg
bzxxxx f
bzxxxz e
bx d
bzx c
bxz b
bzx a
bx `
bx _
bx ^
bx ]
bx \
bx [
bx Z
bxz Y
bxz X
bx W
bzxx V
bxzxz U
xT
bx S
bx R
bx Q
bzxxzz P
bzxxz O
bzxxz N
bzxzz M
bx L
xK
xJ
xI
xH
xG
xF
xE
xD
xC
xB
xA
x@
x?
x>
x=
x<
x;
x:
x9
x8
x7
x6
x5
x4
x3
x2
x1
bx 0
bx /
bx .
bx -
0,
x+
x*
x)
x(
bx '
x&
x%
x$
x#
z"
z!
$end
#5
16#
1,
#10
1T
1g
b1 Q
b1 v"
0|"
b1 5"
0?"
1I
1H
1G
1l"
0g"
b1 w"
1+"
1:"
0&"
b1 6"
b1 R
1,"
1z"
bz1 '#
b1 ##
1m"
b0 $#
b0 &#
b0 %#
1o
1*"
b1 D"
b0 E"
b0 G"
b0 F"
b1 ^
b1 Z
b0 [
b0 ]
b0 \
1h"
0U"
1n
0\"
b0zz }"
0V"
b0 (#
0w
b0zz ;"
b0zz @"
b1 H"
b0 I"
0m
08
b1 `
b1 _
bz01 V
b0z0z U
b1111 0#
bz R"
0k"
0j"
0i"
0)"
0("
0'"
0F
0E
0D
1.#
0/#
zP"
zQ"
b1 x"
b1 7"
b1 S
b0 ~"
1X"
1^"
1]"
b0 A"
1q
1y
1x
b0 W
14
1:
19
1{"
0y"
b1111 u"
z<"
z8"
bz 4"
0i
0h
b0 j
0d"
0#"
0@
1_"
1{
1;
b1 0
b1 k
b1 S"
b1 1#
b1 7#
b1 <#
b11 '
b11 L
b11 /"
b11 p"
b11 8#
b11 =#
0+
0#
06#
0,
#15
1e"
0B
0A
0C
1f"
0<
0?
0>
0=
1`"
17
16
15
12
0["
bz0zz M
11
0b"
0a"
0c"
b1z b
bz11zz P
0K
b11 d
03
bz1 a
1Z"
bz11zz t"
0o"
0n"
1Y"
1W"
bz0 )#
b0z Y
bz00z O
b111z X
bz0 c
0J
bz00z N
bz0011 f
bz000z e
bz1zz q"
bz1 *#
bz11z s"
b0z !#
b1 +#
b11 "#
bz11z r"
bz0010 -#
bz000z ,#
0&
0*
b0 /
b0 l
b0 3#
1$
0(
b1111 -
b1111 2#
b1111 5#
z%
z)
bz .
bz T"
bz 4#
b0z >#
16#
1,
#20
06#
0,
#25
16#
1,
#30
b100 v"
b100 5"
b100 Q
b100 w"
b100 6"
b100 R
b1 &#
b0 ##
b1 G"
b0 D"
b1 ]
b0 Z
b100 x"
b100 7"
b100 S
b100 0
b100 k
b100 S"
b100 1#
b100 7#
b100 <#
06#
0,
#35
16#
1,
#40
b1110 v"
b1110 5"
b1110 Q
b1110 w"
b1110 6"
b1110 R
b1 %#
b1 $#
b1 F"
b1 E"
b1 \
b1 [
b1110 0#
b1110 R"
0.#
1/#
0P"
1Q"
b1110 x"
b1110 7"
b1110 S
0{"
1y"
b1110 u"
0<"
18"
b1110 4"
1i
1h
b1110 j
1d"
1#"
1@
b1100100 B#
b1100100 A#
b1110 0
b1110 k
b1110 S"
b1110 1#
b1110 7#
b1110 <#
1+
06#
0,
#45
1B
1="
1A
1$"
1C
1%"
1>
0z
1|
0`"
05
0>"
09"
1v
0r
1["
01
0}
0!"
0~
0""
1a"
13
b0 d
1s
bz000z N"
bz1 J"
0."
1u
1t
1p
bz1100 3"
b0 M"
0Y"
bz1 )#
bz1 c
bz11z O
bz1zz M
b1z Y
bz0001 f
b0z X
bz111z e
0-"
bz1 L"
bz11z 1"
bz00z 2"
bz1111 O"
bz111 0"
b1z K"
b11 C"
b0z B"
b0 +#
bz00z r"
bz0001 -#
bz111z ,#
b1110 /
b1110 l
b1110 3#
1*
1&
b1110 >#
1?#
b1110 .
b1110 T"
b1110 4#
1)
0%
b1110 -
b1110 2#
b1110 5#
1(
0$
16#
1,
#50
b1101 0#
b1100 R"
0h
0i
b1101 u"
b1100 4"
b1101 j
0T
0g
0Q"
0H
0G
b1101 v"
b1100 5"
b1101 Q
0/#
08"
0y"
0:"
b0 ^
b0 `
b1101 w"
b1100 6"
b1101 R
0z"
bz0 '#
0*"
0h"
1U"
0n
bz00 V
b10 %#
b10 &#
b0 $#
b10 ##
b10 F"
b10 G"
b0 E"
b0 D"
b10 \
b10 ]
b0 [
b10 Z
1\"
1V"
1w
b10 H"
1m
18
b10 _
1j"
1("
1E
b110100000000 x"
b110000000000 7"
b110100000000 S
b10 ~"
0^"
b10 A"
0y
b10 W
0:
b1 0
b1 k
b1 S"
b1 1#
b1 7#
b1 <#
b1 '
b1 L
b1 /"
b1 p"
b1 8#
b1 =#
06#
0,
#55
b1100 0#
b1010 R"
b1100 j
b1100 u"
b1010 4"
b1100 Q
b1100 v"
0="
b1010 5"
0$"
b10 ]
0B
b1100 R
b10 &#
b1100 w"
b0 G"
0%"
b1010 6"
0A
1b"
0|
0C
b0 Z
b0 [
0f"
b0 ##
0Z"
b0 $#
1r
b10 E"
0>
0a"
bz11zz P
1J
15
b110000000000 S
bz11zz t"
1n"
1Y"
bz0 *#
b110000000000 x"
bz111z N"
b1 M"
b101000000000 7"
bz11z O
b1z X
b1 d
bz0000 f
bz11z s"
b1z !#
b1 +#
bz0000 -#
b10 C"
bz00z 1"
bz101 0"
b1z B"
bz1010 3"
bz1101 O"
0&
0*
b1101 /
b1101 l
b1101 3#
0(
b1101 -
b1101 2#
b1101 5#
0)
b1100 .
b1100 T"
b1100 4#
b1101 >#
0?#
16#
1,
#60
b10 0
b10 k
b10 S"
b10 1#
b10 7#
b10 <#
06#
0,
#65
b1000 R"
b1011 0#
b1011 j
b1000 4"
b1011 u"
b1011 Q
b1000 5"
b1011 v"
b0 ]
b0 &#
b1011 R
b1000 6"
b10 F"
0e"
b1011 w"
1B
0b"
1A
b10 Z
b10 [
b0 E"
b10 ##
1Z"
b10 $#
1?
bz10zz P
bz10zz t"
06
b101100000000 S
b100000000000 7"
1."
b10 M"
bz1 *#
b101100000000 x"
bz00z O
bz00z s"
bz0 c
0J
bz1111 f
bz110z e
b11 C"
bz01z 1"
bz1000 3"
bz111 0"
bz110z N"
b10z B"
bz1011 O"
b10 "#
0n"
bz1111 -#
bz110z ,#
b1100 /
b1100 l
b1100 3#
b1100 >#
b1010 .
b1010 T"
b1010 4#
b1100 -
b1100 2#
b1100 5#
16#
1,
#70
b11 0
b11 k
b11 S"
b11 1#
b11 7#
b11 <#
06#
0,
#75
b1010 0#
b110 R"
b1010 j
b1010 u"
b110 4"
b0 F"
b1010 Q
b1010 v"
b110 5"
b10 \
b1010 R
b10 %#
b1010 w"
b10 G"
b110 6"
0B
0A
b0 Z
b10 [
b0 ##
b10 $#
b10 E"
0?
bz10zz P
b11 d
1K
16
bz0 a
b101000000000 S
bz10zz t"
b11 +#
1o"
bz0 )#
b101000000000 x"
0."
bz101z N"
b11 M"
b11000000000 7"
b0z b
bz1zz M
bz110z e
bz01z O
b10z X
bz1 c
0J
bz01z N
bz1110 f
bz1zz q"
bz110z ,#
bz01z s"
b10z !#
b11 "#
0n"
bz01z r"
bz1110 -#
b10 C"
bz00z 1"
bz001 0"
b11z B"
bz0110 3"
bz1001 O"
b1011 /
b1011 l
b1011 3#
b1011 -
b1011 2#
b1011 5#
b1000 .
b1000 T"
b1000 4#
b1011 >#
16#
1,
#80
b100 0
b100 k
b100 S"
b100 1#
b100 7#
b100 <#
06#
0,
#85
b100 R"
b1001 0#
b1001 j
b100 4"
b1001 u"
b1001 Q
b100 5"
b1001 v"
b1001 R
b100 6"
b1001 w"
b10 Z
b0 [
b0 E"
b10 ##
b0 $#
bz1 a
b100100000000 S
b10 M"
b10000000000 7"
b0z K"
bz1 )#
b100100000000 x"
b10 d
bz00z N
bz1101 f
bz101z e
b11 C"
bz11z 1"
bz0100 3"
bz111 0"
b100z B"
bz100z N"
bz0111 O"
b10 +#
bz00z r"
bz1101 -#
bz101z ,#
b1010 /
b1010 l
b1010 3#
b1010 >#
b110 .
b110 T"
b110 4#
b1010 -
b1010 2#
b1010 5#
16#
1,
#90
b1111 0#
bz R"
1.#
zP"
zQ"
1{"
b1111 u"
z<"
z8"
bz 4"
b0 j
0d"
0#"
0@
b101 0
b101 k
b101 S"
b101 1#
b101 7#
b101 <#
0+
06#
0,
#95
b1111 Q
1T
x?"
1H
b1111 R
b1110 v"
bx 5"
x&"
1g
1e"
x="
b10 \
b10 ^
1G
b10 ]
b10 [
b10 &#
1f"
b1110 w"
bx0 F"
bx0 G"
bx 6"
bx0 I"
bx0 D"
x%"
x>"
x9"
x$"
1`"
x|
xz
x!"
x~
x}
b10 `
0B
b111100000000 S
b0 ##
0["
b10 $#
xr
bx0 E"
b0xzz @"
xv
xu
xt
xs
11
0<
bz0zz M
x""
b1z b
03
17
bz11zz P
0K
b11 d
bz11zz t"
0o"
bz0 )#
b111000000000 x"
x."
x-"
b0xxxx00000000 7"
xp
bzx J"
bzx L"
b0z Y
bz0011 f
bz0 c
bz00z O
b111z X
bz000z e
bz11z s"
b0z !#
b1 +#
bz11z r"
bz0010 -#
bz000z ,#
bxz K"
bzxxz 1"
bzxxx 0"
bxz B"
bzxxxx 3"
bx M"
bx C"
bzxxz 2"
bzxxxz N"
bzxxxx O"
b0 /
b0 l
b0 3#
1$
b1111 -
b1111 2#
b1111 5#
z%
z)
bz .
bz T"
bz 4#
b0z >#
16#
1,
#100
b1110 0#
bx R"
0.#
xP"
0Q"
0{"
b1110 u"
x<"
08"
bx 4"
1i
1h
b1111 j
1d"
1#"
1@
b110 0
b110 k
b110 S"
b110 1#
b110 7#
b110 <#
1+
06#
0,
#105
b1101 0#
b1110 j
0h
b1101 u"
0T
b1110 Q
0H
0i
1B
b1101 v"
0g
1A
b1110 R
b0 ^
0G
1C
b1101 w"
1=
0`"
b0 Z
b10 [
b0 `
02
b10 ##
1["
b0 $#
01
1a"
b111000000000 S
bz0 a
13
b1 d
0Y"
bz1 )#
b110100000000 x"
0J
bz1 c
bz11z O
bz11z N
bz1zz M
b1z Y
bz0010 f
b0z X
bz000z e
b0 +#
bz00z r"
bz0001 -#
bz111z ,#
b1111 /
b1111 l
b1111 3#
1*
1&
bx >#
bx .
bx T"
bx 4#
0)
x%
b1110 -
b1110 2#
b1110 5#
0$
16#
1,
#110
1T
1H
b1111 Q
1g
0B
0A
b10 ^
1G
0C
b1111 R
0=
b10 `
b10 Z
12
b10 [
0>
11
0<
0?
15
03
17
16
bz1 a
b111100000000 S
b1z b
b0z Y
bz0zz M
bz000z e
bz00z O
b111z X
b11 d
bz0 c
bz00z N
bz0011 f
0&
0*
b0 /
b0 l
b0 3#
1{"
b1111 u"
z<"
z8"
bz 4"
b0 j
0d"
0#"
0@
b0 0#
1.#
0_"
b0 R"
0P"
0{
0;
b111 0
b111 k
b111 S"
b111 1#
b111 7#
b111 <#
1#
06#
0,
#115
b1111 v"
b1110 5"
1|"
b10 F"
1?"
1g"
b1111 w"
1&"
b1110 6"
b10 E"
0="
0e"
0$"
b10 (#
b10 $#
0f"
b10 G"
b10 I"
b0 D"
0%"
0>"
09"
0a"
0|
0z
0!"
0~
0}
b1zz }"
b111100000000 x"
1Y"
1r
b1zz @"
b111000000000 7"
1v
1u
1t
1s
1c"
1""
0W"
b11 +#
b1z K"
0."
bz001z N"
b11 M"
0p
bz1110 3"
bz1 J"
bz1 L"
bz0zz q"
bz0011 -#
b0 "#
bz00z s"
b111z !#
bz000z ,#
bz00z 1"
bz001 0"
b111z B"
b0 C"
0-"
bz00z 2"
bz0001 O"
1$
b0 -
b0 2#
b0 5#
0%
b0 .
b0 T"
b0 4#
b0 >#
16#
1,
#120
1<"
08"
b1110 4"
1i
1h
b1111 j
1d"
1#"
1@
b1111 0#
1_"
b1110 R"
0Q"
1P"
1{
1;
b1000 0
b1000 k
b1000 S"
b1000 1#
b1000 7#
b1000 <#
0#
06#
0,
#125
b1100 R"
b1110 0#
0P"
0.#
0h
b1110 j
b1100 4"
0<"
b1110 u"
0{"
0T
0?"
0|"
0H
0i
1B
b1110 Q
b1100 5"
0&"
1="
b1110 v"
0g"
0g
1A
1$"
1e"
b0 ^
0G
1C
b1110 R
b1100 6"
b0 I"
1%"
b1110 w"
b0 (#
1f"
1=
1|
1`"
b0 `
b0 Z
02
b10 [
b0 E"
b0zz @"
0r
b0 ##
b10 $#
b0zz }"
0["
01
0""
0c"
b1 d
13
bz0 a
b111000000000 S
b110000000000 7"
1p
b0 M"
b111000000000 x"
bz0 )#
1W"
b1 +#
b1z Y
bz1zz M
bz000z e
bz11z O
b0z X
bz1 c
0J
bz11z N
bz0010 f
bz11z 1"
bz1100 3"
bz111 0"
b11 C"
b0z B"
bz000z N"
bz1111 O"
0n"
bz11z s"
bz11z r"
bz1zz q"
b11 "#
bz0010 -#
b0z !#
bz000z ,#
1&
1*
b1111 /
b1111 l
b1111 3#
b1111 >#
1@#
b1110 .
b1110 T"
b1110 4#
1%
b1111 -
b1111 2#
b1111 5#
16#
1,
#130
b1001 0
b1001 k
b1001 S"
b1001 1#
b1001 7#
b1001 <#
06#
0,
#135
b1101 0#
b1010 R"
b1101 j
b1101 u"
b1010 4"
b1101 Q
b1101 v"
0="
b1010 5"
0$"
b1101 R
b1101 w"
b0 G"
0%"
b1010 6"
0=
0`"
0|
b10 Z
12
b0 [
b10 ##
1["
b0 $#
1r
b10 E"
1>
1a"
05
bz1 a
b110100000000 S
0Y"
bz1 )#
b110100000000 x"
bz111z N"
b1 M"
b101000000000 7"
b0 d
bz00z N
bz0001 f
bz111z e
b0 +#
bz00z r"
bz0001 -#
bz111z ,#
b10 C"
bz00z 1"
bz101 0"
b1z B"
bz1010 3"
bz1101 O"
b1110 /
b1110 l
b1110 3#
0*
0&
0$
b1110 -
b1110 2#
b1110 5#
0%
b1100 .
b1100 T"
b1100 4#
b1110 >#
0@#
16#
1,
#140
b1 0
b1 k
b1 S"
b1 1#
b1 7#
b1 <#
06#
0,
#145
b1000 R"
b1100 0#
b1100 j
b1000 4"
b1100 u"
b1100 Q
b1000 5"
b1100 v"
b10 ]
0B
b1100 R
b1000 6"
b10 F"
b1100 w"
b10 &#
0A
1b"
0C
b0 Z
b0 [
b0 E"
0f"
b0 ##
0Z"
b0 $#
0>
0a"
bz11zz P
1J
15
b110000000000 S
b100000000000 7"
1."
b10 M"
1Y"
bz0 *#
b110000000000 x"
bz11zz t"
1n"
bz11z O
b1z X
b1 d
bz0000 f
b11 C"
bz01z 1"
bz1000 3"
bz111 0"
bz110z N"
b10z B"
bz1011 O"
b1 +#
bz0000 -#
bz11z s"
b1z !#
b1101 /
b1101 l
b1101 3#
b1101 >#
b1010 .
b1010 T"
b1010 4#
b1101 -
b1101 2#
b1101 5#
16#
1,
#150
b0 0#
b0 u"
b1101 R"
b0 j
b0 v"
b1101 4"
b0 Q
1.#
b0 w"
1{"
b1101 5"
b0 R
1|"
b0 &#
b0 %#
1g"
b1101 6"
b0 ]
b0 \
0o
b0 x"
b10 (#
0m
b10 D"
b10 G"
b0 S
0j"
0("
0E
1^"
b10zz }"
1y
b1101000000000000 7"
1:
1k"
1)"
1F
b11 ~"
0X"
b11 A"
0q
b11 W
04
b100 0
b100 k
b100 S"
b100 1#
b100 7#
b100 <#
b0 '
b0 L
b0 /"
b0 p"
b0 8#
b0 =#
06#
0,
#155
1P"
0.#
1<"
0{"
1?"
0|"
b11 0#
b0 R"
1&"
0h
0g"
0T
b11 j
b11 u"
b0 4"
b10 I"
0H
b0 (#
b11 Q
b11 v"
b0 5"
b10zz @"
b0 ^
b0zz }"
1="
b11 R
0e"
b11 w"
b0 F"
b0 6"
1$"
b0z0z U
0b"
1}
0A
b10 Z
b10 [
0B
b0 ]
b0 \
b0 %#
b0 &#
b10 ##
1Z"
b10 $#
b0 G"
b0 E"
b0 D"
0s
0?
0<
11
1c"
16
17
bz11zz P
0K
03
b11000000000000 S
b11 d
b11 +#
0W"
bz1 *#
b11000000000000 x"
0."
1-"
b0 7"
bz0 L"
bz0 c
0J
b1z b
bz00z O
bz0zz M
b0z Y
bz0011 f
b111z X
bz000z e
bz00z s"
bz0zz q"
b111z !#
b0 "#
0n"
bz0011 -#
bz000z ,#
bz11z 1"
bz101 0"
b1z B"
bz1011 3"
b1 M"
bz000z N"
bz1110 O"
b0 /
b0 l
b0 3#
1$
b0 -
b0 2#
b0 5#
b1101 .
b1101 T"
b1101 4#
1@#
b0 >#
16#
1,
#160
b1000 0
b1000 k
b1000 S"
b1000 1#
b1000 7#
b1000 <#
06#
0,
#165
0P"
0<"
0?"
0&"
b11 R"
b110 0#
b110 j
b0 I"
b11 4"
b110 u"
b110 Q
b0zz @"
b11 5"
b110 v"
0="
b10 ]
b110 R
0$"
b11 6"
b110 w"
b10 &#
0}
b0 Z
b10 [
b10 E"
b10 D"
b0 G"
1s
b0 F"
b0 ##
b10 $#
bz1zz M
01
0~
1""
0c"
bz1zz q"
bz00zz P
1K
13
bz010z e
bz0 a
b110000000000000 S
bz1 L"
bz1110 3"
1t
0p
b11 M"
b11000000000000 7"
b110000000000000 x"
1W"
bz00zz t"
1o"
bz010z ,#
bz0 )#
bz01z O
b110z X
bz1 c
0J
bz01z N
bz0110 f
0-"
bz00z 1"
bz001 0"
b1z K"
b0 C"
b111z B"
bz001z N"
bz0001 O"
0n"
bz0110 -#
b1 "#
bz01z s"
bz01z r"
b110z !#
b11 /
b11 l
b11 3#
b11 >#
0@#
b0 .
b0 T"
b0 4#
1%
b11 -
b11 2#
b11 5#
0$
16#
1,
#170
b1100 0
b1100 k
b1100 S"
b1100 1#
b1100 7#
b1100 <#
06#
0,
#175
b1001 0#
b110 R"
b1001 j
b1001 u"
b110 4"
b1001 Q
b1001 v"
b110 5"
b10 \
b1001 R
b10 %#
b1001 w"
b10 G"
b110 6"
b10 Z
b0 [
b0 ]
b0 &#
b10 ##
b0 $#
b10 E"
b0 D"
0""
bz1 a
bz01zz P
0K
b1001000000000000 S
bz01zz t"
0o"
bz1 )#
b1001000000000000 x"
1."
1p
b110000000000000 7"
bz0 J"
b10 d
b1z Y
bz11z O
bz00z N
b100z X
bz1001 f
bz011z e
b11 "#
bz11z s"
b100z !#
b10 +#
bz00z r"
bz1001 -#
bz011z ,#
bz01z 1"
bz111 0"
b110z B"
bz0001 3"
b1 C"
0-"
bz01z 2"
bz011z N"
bz0100 O"
b110 /
b110 l
b110 3#
b110 -
b110 2#
b110 5#
0%
b11 .
b11 T"
b11 4#
b110 >#
16#
1,
#180
b1110 0
b1110 k
b1110 S"
b1110 1#
b1110 7#
b1110 <#
06#
0,
