tarea1/src/tb.vcd
$date
	Sun Oct  4 00:25:35 2020
$end
$version
	Icarus Verilog
$end
$timescale
	1s
$end
$scope module tb_top $end
$var wire 1 ! load_ $end
$var wire 1 " rco_ $end
$var wire 1 # reset $end
$var wire 1 $ rco_x $end
$var wire 1 % rco_R $end
$var wire 1 & rco_C $end
$var wire 1 ' rco_B $end
$var wire 1 ( rco_A $end
$var wire 2 ) mode_ [1:0] $end
$var wire 1 * load_x $end
$var wire 1 + load_R $end
$var wire 1 , load_C $end
$var wire 1 - load_B $end
$var wire 1 . load_A $end
$var wire 1 / enable_ $end
$var wire 1 0 clock $end
$var wire 4 1 Q_x [3:0] $end
$var wire 4 2 Q_R [3:0] $end
$var wire 4 3 Q_C [3:0] $end
$var wire 4 4 Q_B [3:0] $end
$var wire 4 5 Q_A [3:0] $end
$var wire 4 6 D_ [3:0] $end
$scope module clock_m $end
$var reg 1 0 clock $end
$upscope $end
$scope module dut_ $end
$var wire 4 7 Q [3:0] $end
$var wire 1 0 clk $end
$var wire 1 * load $end
$var wire 1 $ rco $end
$var wire 1 # reset $end
$var wire 2 8 mode [1:0] $end
$var wire 1 / enable $end
$var wire 4 9 D [3:0] $end
$var reg 4 : count_next_reg [3:0] $end
$var reg 4 ; count_reg [3:0] $end
$var reg 6 < next_state_reg [5:0] $end
$var reg 1 = state_load $end
$var reg 1 > state_load_next $end
$var reg 1 ? state_rco $end
$var reg 1 @ state_rco_next $end
$var reg 6 A state_reg [5:0] $end
$upscope $end
$scope module dut_A $end
$var wire 1 B _004_ $end
$var wire 1 C _005_ $end
$var wire 1 D _020_ $end
$var wire 1 E _021_ $end
$var wire 1 F _024_ $end
$var wire 1 G _025_ $end
$var wire 1 H _026_ $end
$var wire 1 I _027_ $end
$var wire 1 J _028_ $end
$var wire 1 K _029_ $end
$var wire 1 L _030_ $end
$var wire 1 M _031_ $end
$var wire 1 N _032_ $end
$var wire 1 O _033_ $end
$var wire 1 P _034_ $end
$var wire 1 Q _035_ $end
$var wire 1 R _036_ $end
$var wire 1 S _037_ $end
$var wire 1 T _038_ $end
$var wire 1 U _039_ $end
$var wire 1 V _040_ $end
$var wire 1 W _041_ $end
$var wire 1 X _043_ $end
$var wire 1 Y _045_ $end
$var wire 1 Z _053_ $end
$var wire 1 [ _055_ $end
$var wire 1 \ _056_ $end
$var wire 1 0 clk $end
$var wire 1 # reset $end
$var wire 2 ] mode [1:0] $end
$var wire 1 / enable $end
$var wire 32 ^ _054_ [31:0] $end
$var wire 32 _ _052_ [31:0] $end
$var wire 32 ` _051_ [31:0] $end
$var wire 32 a _050_ [31:0] $end
$var wire 4 b _049_ [3:0] $end
$var wire 4 c _048_ [3:0] $end
$var wire 16 d _047_ [15:0] $end
$var wire 1 e _046_ $end
$var wire 4 f _044_ [3:0] $end
$var wire 4 g _042_ [3:0] $end
$var wire 2 h _023_ [1:0] $end
$var wire 4 i _022_ [3:0] $end
$var wire 2 j _019_ [1:0] $end
$var wire 2 k _018_ [1:0] $end
$var wire 2 l _017_ [1:0] $end
$var wire 2 m _016_ [1:0] $end
$var wire 2 n _015_ [1:0] $end
$var wire 2 o _014_ [1:0] $end
$var wire 2 p _013_ [1:0] $end
$var wire 2 q _012_ [1:0] $end
$var wire 2 r _011_ [1:0] $end
$var wire 2 s _010_ [1:0] $end
$var wire 2 t _009_ [1:0] $end
$var wire 2 u _008_ [1:0] $end
$var wire 32 v _007_ [31:0] $end
$var wire 32 w _006_ [31:0] $end
$var wire 1 x _003_ $end
$var wire 1 y _002_ $end
$var wire 1 z _001_ $end
$var wire 4 { _000_ [3:0] $end
$var wire 4 | D [3:0] $end
$var reg 4 } Q_A [3:0] $end
$var reg 1 . load_A $end
$var reg 1 ( rco_A $end
$upscope $end
$scope module dut_B $end
$var wire 1 ~ _005_ $end
$var wire 1 !" _012_ $end
$var wire 1 "" _013_ $end
$var wire 1 #" _019_ $end
$var wire 1 $" _020_ $end
$var wire 1 %" _023_ $end
$var wire 1 &" _024_ $end
$var wire 1 '" _025_ $end
$var wire 1 (" _026_ $end
$var wire 1 )" _027_ $end
$var wire 1 *" _028_ $end
$var wire 1 +" _029_ $end
$var wire 1 ," _030_ $end
$var wire 1 -" _031_ $end
$var wire 1 ." _032_ $end
$var wire 1 /" _033_ $end
$var wire 1 0" _034_ $end
$var wire 1 1" _035_ $end
$var wire 1 2" _036_ $end
$var wire 1 3" _037_ $end
$var wire 1 4" _038_ $end
$var wire 1 5" _039_ $end
$var wire 1 6" _040_ $end
$var wire 1 7" _042_ $end
$var wire 1 8" _044_ $end
$var wire 1 9" _045_ $end
$var wire 1 :" _048_ $end
$var wire 1 ;" _051_ $end
$var wire 1 <" _062_ $end
$var wire 1 =" _063_ $end
$var wire 1 >" _065_ $end
$var wire 1 ?" _066_ $end
$var wire 1 0 clk $end
$var wire 1 # reset $end
$var wire 2 @" mode [1:0] $end
$var wire 1 / enable $end
$var wire 32 A" _064_ [31:0] $end
$var wire 32 B" _061_ [31:0] $end
$var wire 32 C" _060_ [31:0] $end
$var wire 32 D" _059_ [31:0] $end
$var wire 4 E" _058_ [3:0] $end
$var wire 4 F" _057_ [3:0] $end
$var wire 4 G" _056_ [3:0] $end
$var wire 16 H" _055_ [15:0] $end
$var wire 1 I" _054_ $end
$var wire 1 J" _053_ $end
$var wire 1 K" _052_ $end
$var wire 3 L" _050_ [2:0] $end
$var wire 1 M" _049_ $end
$var wire 1 N" _047_ $end
$var wire 1 O" _046_ $end
$var wire 1 P" _043_ $end
$var wire 4 Q" _041_ [3:0] $end
$var wire 2 R" _022_ [1:0] $end
$var wire 4 S" _021_ [3:0] $end
$var wire 2 T" _018_ [1:0] $end
$var wire 2 U" _017_ [1:0] $end
$var wire 2 V" _016_ [1:0] $end
$var wire 2 W" _015_ [1:0] $end
$var wire 2 X" _014_ [1:0] $end
$var wire 2 Y" _011_ [1:0] $end
$var wire 2 Z" _010_ [1:0] $end
$var wire 2 [" _009_ [1:0] $end
$var wire 2 \" _008_ [1:0] $end
$var wire 2 ]" _007_ [1:0] $end
$var wire 2 ^" _006_ [1:0] $end
$var wire 32 _" _004_ [31:0] $end
$var wire 32 `" _003_ [31:0] $end
$var wire 1 a" _002_ $end
$var wire 1 b" _001_ $end
$var wire 4 c" _000_ [3:0] $end
$var wire 4 d" D [3:0] $end
$var reg 4 e" Q_B [3:0] $end
$var reg 1 - load_B $end
$var reg 1 ' rco_B $end
$upscope $end
$scope module dut_C $end
$var wire 1 f" _005_ $end
$var wire 1 g" _006_ $end
$var wire 1 h" _017_ $end
$var wire 1 i" _018_ $end
$var wire 1 j" _021_ $end
$var wire 1 k" _022_ $end
$var wire 1 l" _023_ $end
$var wire 1 m" _024_ $end
$var wire 1 n" _025_ $end
$var wire 1 o" _026_ $end
$var wire 1 p" _027_ $end
$var wire 1 q" _028_ $end
$var wire 1 r" _029_ $end
$var wire 1 s" _030_ $end
$var wire 1 t" _031_ $end
$var wire 1 u" _032_ $end
$var wire 1 v" _033_ $end
$var wire 1 w" _034_ $end
$var wire 1 x" _036_ $end
$var wire 1 y" _038_ $end
$var wire 1 z" _039_ $end
$var wire 1 {" _040_ $end
$var wire 1 |" _041_ $end
$var wire 1 }" _052_ $end
$var wire 1 ~" _053_ $end
$var wire 1 !# _055_ $end
$var wire 1 "# _056_ $end
$var wire 1 0 clk $end
$var wire 1 # reset $end
$var wire 2 ## mode [1:0] $end
$var wire 1 / enable $end
$var wire 32 $# _054_ [31:0] $end
$var wire 32 %# _051_ [31:0] $end
$var wire 32 &# _050_ [31:0] $end
$var wire 32 '# _049_ [31:0] $end
$var wire 4 (# _048_ [3:0] $end
$var wire 4 )# _047_ [3:0] $end
$var wire 4 *# _046_ [3:0] $end
$var wire 16 +# _045_ [15:0] $end
$var wire 1 ,# _044_ $end
$var wire 1 -# _043_ $end
$var wire 1 .# _042_ $end
$var wire 1 /# _037_ $end
$var wire 4 0# _035_ [3:0] $end
$var wire 2 1# _020_ [1:0] $end
$var wire 4 2# _019_ [3:0] $end
$var wire 2 3# _016_ [1:0] $end
$var wire 2 4# _015_ [1:0] $end
$var wire 2 5# _014_ [1:0] $end
$var wire 2 6# _013_ [1:0] $end
$var wire 2 7# _012_ [1:0] $end
$var wire 2 8# _011_ [1:0] $end
$var wire 2 9# _010_ [1:0] $end
$var wire 2 :# _009_ [1:0] $end
$var wire 2 ;# _008_ [1:0] $end
$var wire 2 <# _007_ [1:0] $end
$var wire 32 =# _004_ [31:0] $end
$var wire 32 ># _003_ [31:0] $end
$var wire 1 ?# _002_ $end
$var wire 1 @# _001_ $end
$var wire 4 A# _000_ [3:0] $end
$var wire 4 B# D [3:0] $end
$var reg 4 C# Q_C [3:0] $end
$var reg 1 , load_C $end
$var reg 1 & rco_C $end
$upscope $end
$scope module dut_r $end
$var wire 4 D# Q [3:0] $end
$var wire 1 0 clk $end
$var wire 1 + load $end
$var wire 1 % rco $end
$var wire 1 # reset $end
$var wire 2 E# mode [1:0] $end
$var wire 1 / enable $end
$var wire 4 F# D [3:0] $end
$var reg 4 G# Q_atm [3:0] $end
$var reg 4 H# Q_next [3:0] $end
$var reg 1 I# aver $end
$var reg 1 J# load_atm $end
$var reg 1 K# load_next $end
$var reg 1 L# rco_atm $end
$var reg 1 M# rco_next $end
$var reg 6 N# state_atm [5:0] $end
$var reg 6 O# state_next [5:0] $end
$upscope $end
$scope module tb $end
$var wire 4 P# Q_A [3:0] $end
$var wire 4 Q# Q_B [3:0] $end
$var wire 4 R# Q_C [3:0] $end
$var wire 1 0 clk $end
$var wire 1 ! load_ $end
$var wire 1 . load_A $end
$var wire 1 - load_B $end
$var wire 1 , load_C $end
$var wire 1 " rco_ $end
$var wire 1 ( rco_A $end
$var wire 1 ' rco_B $end
$var wire 1 & rco_C $end
$var wire 1 S# clock $end
$var reg 4 T# D_ [3:0] $end
$var reg 1 / enable_ $end
$var reg 2 U# mode_ [1:0] $end
$var reg 1 # reset $end
$var integer 32 V# log_A [31:0] $end
$var integer 32 W# log_B [31:0] $end
$var integer 32 X# log_C [31:0] $end
$scope module clock_tb $end
$var reg 1 S# clock $end
$upscope $end
$scope module sb $end
$var wire 4 Y# D_ [3:0] $end
$var wire 1 0 clk $end
$var wire 1 / enable_ $end
$var wire 2 Z# mode_ [1:0] $end
$var wire 1 # reset $end
$var reg 4 [# Q_sb [3:0] $end
$var reg 1 \# load_sb $end
$var reg 1 ]# rco_sb $end
$upscope $end
$scope task checker $end
$var integer 32 ^# iteration [31:0] $end
$upscope $end
$scope task drv_init $end
$upscope $end
$scope task drv_request $end
$var integer 32 _# iteration [31:0] $end
$upscope $end
$upscope $end
$upscope $end
$enddefinitions $end
#0
$dumpvars
bx _#
bx ^#
0]#
0\#
bx [#
bx Z#
bx Y#
b1000 X#
b100 W#
b10 V#
bx U#
bx T#
0S#
bx R#
bx Q#
bx P#
bx O#
bx N#
xM#
xL#
xK#
xJ#
xI#
bx H#
bx G#
bx F#
bx E#
bx D#
bx C#
bx B#
bx A#
x@#
x?#
bzxxxx >#
bzxxxz =#
bx <#
bzx ;#
bzx :#
bx 9#
bzx 8#
bx 7#
bx 6#
bx 5#
bx 4#
bx 3#
bxz 2#
bx 1#
bxzz 0#
x/#
x.#
x-#
x,#
bx +#
bx *#
bx )#
bx (#
bzxxzz '#
bzxxz &#
bzxxz %#
bzxzz $#
bx ##
x"#
x!#
x~"
x}"
x|"
x{"
xz"
xy"
xx"
xw"
xv"
xu"
xt"
xs"
xr"
xq"
xp"
xo"
xn"
xm"
xl"
xk"
xj"
xi"
xh"
xg"
xf"
bx e"
bx d"
bx c"
xb"
xa"
bzxxxx `"
bzxxxz _"
bx ^"
bzx ]"
bxz \"
bzx ["
bx Z"
bx Y"
bx X"
bx W"
bx V"
bx U"
bx T"
bxz S"
bx R"
bxzz Q"
xP"
xO"
xN"
xM"
bxzz L"
xK"
xJ"
xI"
bx H"
bx G"
bx F"
bx E"
bzxxxx D"
bzxxz C"
bzxxz B"
bzxxx A"
bx @"
x?"
x>"
x="
x<"
x;"
x:"
x9"
x8"
x7"
x6"
x5"
x4"
x3"
x2"
x1"
x0"
x/"
x."
x-"
x,"
x+"
x*"
x)"
x("
x'"
x&"
x%"
x$"
x#"
x""
x!"
x~
bx }
bx |
bx {
xz
xy
xx
bzxxxx w
bzxxxz v
bx u
bzx t
bxz s
bzx r
bx q
bx p
bx o
bx n
bx m
bx l
bx k
bxz j
bxz i
bx h
bzxx g
bxzxz f
xe
bx d
bx c
bx b
bzxxzz a
bzxxz `
bzxxz _
bzxzz ^
bx ]
x\
x[
xZ
xY
xX
xW
xV
xU
xT
xS
xR
xQ
xP
xO
xN
xM
xL
xK
xJ
xI
xH
xG
xF
xE
xD
xC
xB
bx A
x@
x?
x>
x=
bx <
bx ;
bx :
bx 9
bx 8
bx 7
bx 6
bx 5
bx 4
bx 3
bx 2
bx 1
00
x/
x.
x-
x,
x+
x*
bx )
x(
x'
x&
x%
x$
x#
z"
z!
$end
#5
1S#
10
#10
0x
0X
bx0 5#
bx0 7#
bx0 6#
bx0 4#
bx0 V"
bx0 X"
bx0 W"
bx0 U"
bx0 o
bx0 k
bx0 l
bx0 n
bx0 m
0""
bx0zz 0#
bx0 9#
0-#
bz0 8#
1~"
bx0zz Q"
bx0 Z"
0~
1<"
b0 q
bxz0z f
1Z
0{"
0z"
0y"
1}"
1f"
09"
08"
0!"
0V
0U
bz00 g
1o"
1n"
1m"
1g"
1,"
1+"
1*"
b10 Y"
1="
1K
1J
1I
b10 p
b1111 A#
bz c"
1|"
1:"
1W
1?#
0@#
za"
zb"
bx000000000000 +#
bx000000000000 H"
bx000000000000 d
b11 1#
0i"
b11 R"
0$"
b11 h
0E
1.#
0,#
b1111 (#
zM"
zI"
bz E"
0z
0y
b0 {
b0 <
b0 :
b0 O#
b0 H#
0u"
04"
0Q
1p"
1."
1L
b1 6
b1 9
b1 |
b1 d"
b1 B#
b1 F#
b1 T#
b1 Y#
b0 )
b0 8
b0 ]
b0 @"
b0 ##
b0 E#
b0 U#
b0 Z#
0/
0#
0S#
00
#15
1/#
1x"
0e
0Y
b10 9#
b0 o
b0 6#
b10 )#
b10zz 0#
b11 b
1v"
b0z0z f
b0 7#
b10 5#
b10 *#
1w"
0S
b0 m
0R
b0 n
b10 l
b11 c
0T
1q"
0M
0P
0O
0N
b0 4#
0l"
1H
1G
1F
b10 k
1C
0s"
0r"
0t"
bz0zz ^
1B
1k"
bz11zz '#
0"#
0!#
1j"
1h"
b10000000000000 +#
bz0 :#
b1z s
bz11zz a
0\
b11 u
0D
b11000000000000 d
bz1 r
bz1zz $#
bz1 ;#
bz11z &#
b0z 2#
b1 <#
b11 3#
bz11z %#
bz0010 >#
bz000z =#
b0z j
bz00z `
b111z i
bz0 t
0[
bz00z _
bz0011 w
bz000z v
b0x H#
b1000 O#
0K#
b1 <
0>
x@
bx :
b0z 2
b0z D#
b0z G#
b1000 N#
0I#
0+
0J#
0%
0L#
z*
z=
z$
z?
bz 1
bz 7
bz ;
b1 A
1&
0,
b1111 3
b1111 C#
b1111 R#
z'
z-
bz 4
bz e"
bz Q#
b0z [#
0(
0.
b0 5
b0 }
b0 P#
1S#
10
#20
1e
1Y
b10 7#
b10 6#
0/#
0x"
b1110 *#
x7"
bx G"
b10 o
1X
b10 n
b10 m
b1111 c
1""
xP"
bx F"
1x
b1111 b
b0 9#
b10 5#
b1110 )#
1~"
1~
bx0 Z"
0;"
bx0 U"
bx0 V"
bx0 X"
bx0 W"
1<"
b10 q
b10 k
b10 l
1Z
1{"
1}"
1f"
19"
0K"
1V
0o"
b0zz 0#
b111000000000 +#
1g"
0,"
b0xzz Q"
b0zz L"
b0xxxx00000000 H"
b10 Y"
1="
0K
b111100000000 d
b10 p
0|"
0:"
0W
b10 1#
1i"
b10 R"
1$"
b10 h
1E
0>
x@
bx :
b11 6
b11 9
b11 |
b11 d"
b11 B#
b11 F#
b11 T#
b11 Y#
b1 )
b1 8
b1 ]
b1 @"
b1 ##
b1 E#
b1 U#
b1 Z#
0S#
00
#25
1S#
10
#30
1.#
b1111 (#
zM"
zI"
bz E"
0z
0y
b0 {
b0 A#
0p"
b0 c"
0b"
0a"
0."
0L
0u"
04"
0Q
1#
1/
0S#
00
#35
b1110 F"
1/#
b10 W"
1P"
1x"
b1111 )#
17"
b1110 G"
b10 V"
0N"
0v"
05"
b10 9#
0w"
b1111 *#
b10 X"
b10 Z"
b0 U"
06"
0O"
0J"
0q"
0/"
0-"
02"
01"
00"
b1zz 0#
b10 4#
1l"
b10 5#
1%"
b1zz Q"
b111000000000 H"
1)"
1("
1'"
1&"
0s"
0r"
1t"
13"
1k"
1j"
0h"
bz1 :#
b111100000000 +#
b1z \"
0?"
bz001z _"
b11 ^"
0#"
bz1110 D"
bz1 ["
bz1 ]"
bz0zz $#
bz000z =#
bz1 ;#
bz00z &#
b111z 2#
b11 <#
b0 3#
bz00z %#
bz0011 >#
bz00z B"
bz001 A"
b111z S"
b0 T"
0>"
bz00z C"
bz0001 `"
b1111 H#
1M#
b0 O#
b100 <
0@
b1111 :
b0 2
b0 D#
b0 G#
b0 N#
0*
0=
0$
0?
b0 1
b0 7
b0 ;
b0 A
b0 3
b0 C#
b0 R#
0'
0-
b0 4
b0 e"
b0 Q#
b0 [#
1S#
10
#40
1M"
0I"
b1110 E"
1z
1y
b1111 {
1u"
14"
1Q
b1111 A#
1p"
b1110 c"
0b"
1a"
1."
1L
b1100100 _#
b1100100 ^#
0#
0S#
00
#45
b1100 c"
b1110 A#
0a"
0?#
b1100 E"
0M"
b1110 (#
0.#
0y
b1110 {
0P"
0/#
0e
b1100 F"
07"
1N"
b1110 )#
0x"
0Y
0z
1S
b1110 b
15"
1v"
0x
1R
b1100 G"
b0 Z"
16"
b1110 *#
b0 9#
1w"
b0 o
0X
1T
b1110 c
1/"
1q"
1N
b0 V"
b0zz Q"
0%"
b0 4#
b10 5#
b0zz 0#
0l"
b0 q
b0 k
0C
b10 l
03"
0t"
0B
b110000000000 H"
1#"
b0 ^"
b111000000000 +#
bz0 :#
1h"
b1 <#
b1 u
1D
bz0 r
b111000000000 d
bz11z B"
bz1100 D"
bz111 A"
b11 T"
b0z S"
bz000z _"
bz1111 `"
0!#
bz11z &#
bz11z %#
bz1zz $#
b11 3#
bz0010 >#
b0z 2#
bz000z =#
b1z j
bz1zz ^
bz000z v
bz11z `
b0z i
bz1 t
0[
bz11z _
bz0010 w
b1110 :
b1110 H#
0M#
b1111 [#
1]#
b1110 4
b1110 e"
b1110 Q#
1'
b1111 3
b1111 C#
b1111 R#
b1111 1
b1111 7
b1111 ;
b100 A
b1111 2
b1111 D#
b1111 G#
1%
1L#
1(
1.
b1111 5
b1111 }
b1111 P#
1S#
10
#50
b1110 :
b1101 6
b1101 9
b1101 |
b1101 d"
b1101 B#
b1101 F#
b1101 T#
b1101 Y#
0S#
00
#55
b1101 A#
b1010 c"
b1101 (#
b1010 E"
b1101 {
b1101 )#
0N"
b1010 F"
b1101 b
05"
b1101 *#
b0 X"
06"
b1010 G"
b1101 c
0q"
0/"
0N
b10 4#
1l"
b0 5#
1%"
b10 V"
b10 k
1C
b0 l
1r"
1O
0j"
bz1 :#
b110100000000 +#
bz111z _"
b1 ^"
b101000000000 H"
0F
bz1 r
b110100000000 d
b0 <#
bz00z %#
bz0001 >#
bz111z =#
b10 T"
bz00z B"
bz101 A"
b1z S"
bz1010 D"
bz1101 `"
b0 u
bz00z _
bz0001 w
bz111z v
b1101 H#
b1101 :
b1110 2
b1110 D#
b1110 G#
0%
0L#
b1110 1
b1110 7
b1110 ;
0&
b1110 3
b1110 C#
b1110 R#
0'
b1100 4
b1100 e"
b1100 Q#
b1110 [#
0]#
b1110 5
b1110 }
b1110 P#
0.
0(
1S#
10
#60
b1101 :
b10 6
b10 9
b10 |
b10 d"
b10 B#
b10 F#
b10 T#
b10 Y#
0S#
00
#65
b1000 c"
b1100 A#
b1000 E"
b1100 (#
b1100 {
b1000 F"
b1100 )#
b1100 b
b1000 G"
b10 W"
b1100 *#
b10 7#
b10 n
0S
b1100 c
1s"
0R
b0 V"
0w"
b0 4#
0k"
b0 5#
0T
b0 k
b0 l
0r"
0O
b100000000000 H"
1?"
b10 ^"
1j"
bz0 ;#
b110000000000 +#
bz11zz '#
1!#
bz11zz a
1[
1F
b110000000000 d
b11 T"
bz01z B"
bz1000 D"
bz111 A"
bz110z _"
b10z S"
bz1011 `"
b1 <#
bz0000 >#
bz11z &#
b1z 2#
bz11z `
b1z i
b1 u
bz0000 w
b1100 :
b1100 H#
b1101 [#
b1010 4
b1010 e"
b1010 Q#
b1101 3
b1101 C#
b1101 R#
b1101 1
b1101 7
b1101 ;
b1101 2
b1101 D#
b1101 G#
b1101 5
b1101 }
b1101 P#
1S#
10
#70
b1100 :
b1101 6
b1101 9
b1101 |
b1101 d"
b1101 B#
b1101 F#
b1101 T#
b1101 Y#
0S#
00
#75
b1011 A#
b110 c"
b1011 (#
b110 E"
b1011 {
b0 W"
b1011 )#
b110 F"
b1011 b
b0 7#
b0 n
0v"
b1011 *#
b10 X"
b110 G"
b1011 c
0s"
1S
b10 4#
1k"
b10 5#
b10 V"
1R
b10 k
b10 l
bz10zz '#
1P
bz10zz a
bz1 ;#
b101100000000 +#
0?"
bz101z _"
b11 ^"
b11000000000 H"
0G
b101100000000 d
bz00z &#
bz00z `
b10 3#
0!#
bz1111 >#
bz110z =#
b10 T"
bz00z B"
bz001 A"
b11z S"
bz0110 D"
bz1001 `"
bz0 t
0[
bz1111 w
bz110z v
b1011 H#
b1011 :
b1100 2
b1100 D#
b1100 G#
b1100 1
b1100 7
b1100 ;
b1100 3
b1100 C#
b1100 R#
b1000 4
b1000 e"
b1000 Q#
b1100 [#
b1100 5
b1100 }
b1100 P#
1S#
10
#80
b1001 c"
b1101 A#
1X
b1001 E"
b1101 {
b1 7#
b1101 *#
b1101 (#
b1 U"
b1 W"
b1001 G"
b1 q
b1 n
b1101 c
1z
b1001 F"
1x
b1101 b
bz1 8#
b1 4#
b0 5#
b1 6#
b1101 )#
1~"
b0 V"
b0 X"
1<"
1="
bz10 g
b1 k
b0 l
b1 m
1Z
1z"
1}"
1f"
18"
1""
1U
0n"
b11010000 +#
0g"
0+"
b10010000 H"
b1 Y"
1~
0J
b11010000 d
b1 p
0{"
09"
0V
b1 1#
1o"
b1 R"
1,"
b1 h
1K
b1000 <
b1101 :
b1101 H#
b10 )
b10 8
b10 ]
b10 @"
b10 ##
b10 E#
b10 U#
b10 Z#
0S#
00
#85
b1010 c"
b1110 A#
b1010 E"
b1110 (#
b1110 {
b1010 F"
b1110 )#
b1110 b
b1010 G"
1v"
b1110 *#
b1110 c
1s"
0S
b0 U"
b1 V"
b0 4#
0k"
b1 5#
0R
b0 k
b1 l
bz11zz '#
0P
bz11zz a
bz0111 D"
bz0 ]"
b10100000 H"
bz0 ;#
b11100000 +#
1G
b11100000 d
bz01z B"
bz11z &#
bz11z `
b11 T"
1>"
bz110z _"
bz1010 `"
b11 3#
1!#
bz0000 >#
bz111z =#
bz1 t
1[
bz0000 w
bz111z v
b1110 :
b1110 H#
b1101 [#
b1001 4
b1001 e"
b1001 Q#
b1101 3
b1101 C#
b1101 R#
b1101 1
b1101 7
b1101 ;
b1000 A
b1101 2
b1101 D#
b1101 G#
1.
b1101 5
b1101 }
b1101 P#
1S#
10
#90
b1100 A#
b111 c"
b1100 (#
b111 E"
b1100 {
b1100 *#
b10 U"
b10 X"
b111 G"
0X
b1100 c
0z
b1100 )#
b111 F"
0x
b1100 b
1g"
b0 5#
b10 7#
b10 6#
1}"
b10 V"
b0 W"
1<"
1="
b0 q
b0 l
b10 n
b10 m
1Z
1{"
1~"
19"
1""
1V
0o"
b110000000000 +#
bz0 8#
1f"
0,"
b11100000000 H"
b10 Y"
1~
0K
bz00 g
b110000000000 d
b10 p
0z"
08"
0U
b10 1#
1n"
b10 R"
1+"
b10 h
1J
b100 <
b1100 :
b1100 H#
b1100 6
b1100 9
b1100 |
b1100 d"
b1100 B#
b1100 F#
b1100 T#
b1100 Y#
b1 )
b1 8
b1 ]
b1 @"
b1 ##
b1 E#
b1 U#
b1 Z#
0S#
00
#95
b1011 A#
b101 c"
b1011 (#
b101 E"
b1011 {
b1011 )#
b101 F"
b1011 b
b0 7#
1N"
b0 n
0v"
b1011 *#
1O"
b101 G"
b1011 c
0s"
12"
1S
b10 4#
1k"
b10 5#
0("
b0 V"
1R
b10 k
b10 l
bz10zz '#
1P
bz10zz a
bz1 ;#
b101100000000 +#
b0z \"
0>"
bz0 ["
b10100000000 H"
0G
b101100000000 d
bz00z &#
bz00z `
b10 3#
0!#
bz1111 >#
bz110z =#
bz11z B"
bz101z _"
bz1 ]"
bz111 A"
bz11z C"
b100z S"
bz0101 D"
bz1000 `"
bz0 t
0[
bz1111 w
bz110z v
b1011 H#
b1011 :
b1100 2
b1100 D#
b1100 G#
b1100 1
b1100 7
b1100 ;
b100 A
b1100 3
b1100 C#
b1100 R#
b111 4
b111 e"
b111 Q#
b1100 [#
b1100 5
b1100 }
b1100 P#
0.
1S#
10
#100
b1011 :
b110 6
b110 9
b110 |
b110 d"
b110 B#
b110 F#
b110 T#
b110 Y#
0S#
00
#105
b11 c"
b1010 A#
b11 E"
b1010 (#
b1010 {
b11 F"
b1010 )#
b1010 b
b0 X"
b11 G"
b1010 *#
b10 6#
b10 m
b1010 c
02"
0S
1J"
0N"
1("
b10 V"
b0 4#
b10 5#
0R
b0 k
b10 l
11"
0O"
0P
0'"
bz100z _"
1>"
bz1 ["
b1100000000 H"
b101000000000 +#
bz0 :#
bz10zz '#
1"#
b11 <#
bz10zz a
b11 u
1\
1G
bz0 r
b101000000000 d
bz0 ]"
bz11z B"
bz101 A"
bz00z C"
b101z S"
bz0011 D"
bz0110 `"
0!#
b11 3#
bz01z &#
bz01z %#
bz1zz $#
bz1110 >#
b10z 2#
bz110z =#
b0z s
bz1zz ^
bz110z v
bz01z `
b10z i
bz1 t
0[
bz01z _
bz1110 w
b1010 :
b1010 H#
b1011 [#
b101 4
b101 e"
b101 Q#
b1011 3
b1011 C#
b1011 R#
b1011 1
b1011 7
b1011 ;
b1011 2
b1011 D#
b1011 G#
b1011 5
b1011 }
b1011 P#
1S#
10
#110
b1010 :
b1010 6
b1010 9
b1010 |
b1010 d"
b1010 B#
b1010 F#
b1010 T#
b1010 Y#
0S#
00
#115
b1001 A#
b1 c"
b1001 (#
b1 E"
b1001 {
b1001 )#
b1 F"
b1001 b
b1001 *#
b0 W"
b1 G"
b1001 c
b10 4#
b0 5#
0J"
b0 V"
b10 k
b0 l
01"
bz1 :#
b100100000000 +#
b1z \"
1'"
1?"
0>"
bz0 ["
b100000000 H"
bz1 r
b100100000000 d
b10 <#
bz00z %#
bz1101 >#
bz101z =#
b1 T"
bz01z B"
bz011z _"
bz1 ]"
bz111 A"
bz01z C"
b110z S"
bz0001 D"
bz0100 `"
b10 u
bz00z _
bz1101 w
bz101z v
b1001 H#
b1001 :
b1010 2
b1010 D#
b1010 G#
b1010 1
b1010 7
b1010 ;
b1010 3
b1010 C#
b1010 R#
b11 4
b11 e"
b11 Q#
b1010 [#
b1010 5
b1010 }
b1010 P#
1S#
10
#120
b1001 :
b111 6
b111 9
b111 |
b111 d"
b111 B#
b111 F#
b111 T#
b111 Y#
0S#
00
#125
b1111 c"
b1000 A#
b1111 E"
b1000 (#
b1000 {
b10 W"
b10 6#
b10 m
b1111 F"
b1000 )#
b1000 b
b10 X"
b1111 G"
b1000 *#
b0 7#
b0 n
b1000 c
b10 V"
b0 4#
b0 5#
b0 k
b0 l
bz1zz $#
bz1zz ^
0?"
bz010z _"
1>"
bz1 ["
b111100000000 H"
bz0 ;#
b100000000000 +#
bz10zz '#
1"#
1!#
bz10zz a
1\
1[
b100000000000 d
bz0 ]"
bz01z B"
bz001 A"
bz00z C"
b111z S"
bz1111 D"
bz0010 `"
b11 <#
bz1100 >#
bz01z &#
b11z 2#
bz01z `
b11z i
b11 u
bz1100 w
b1000 :
b1000 H#
b1001 [#
b1 4
b1 e"
b1 Q#
b1001 3
b1001 C#
b1001 R#
b1001 1
b1001 7
b1001 ;
b1001 2
b1001 D#
b1001 G#
b1001 5
b1001 }
b1001 P#
1S#
10
#130
b10 c"
b1010 A#
1X
b10 E"
b1010 {
b1 5#
b1010 *#
b1010 (#
b10 G"
b1 q
b1 l
b1010 c
1z
b10 F"
1x
b1010 b
bz1 8#
b1 6#
b1010 )#
1~"
b0 U"
b1 V"
b0 X"
b0 W"
1<"
1="
bz10 g
b1 m
1Z
1z"
1}"
1f"
18"
1""
1U
0n"
b10100000 +#
0g"
0+"
b100000 H"
b1 Y"
1~
0J
b10100000 d
b1 p
0{"
09"
0V
b1 1#
1o"
b1 R"
1,"
b1 h
1K
b1000 <
b1010 :
b1010 H#
b1111 6
b1111 9
b1111 |
b1111 d"
b1111 B#
b1111 F#
b1111 T#
b1111 Y#
b10 )
b10 8
b10 ]
b10 @"
b10 ##
b10 E#
b10 U#
b10 Z#
0S#
00
