tarea1/src/tb.vcd
$date
	Tue Sep 15 23:38:58 2020
$end
$version
	Icarus Verilog
$end
$timescale
	1s
$end
$scope module tb_top $end
$var wire 1 ! load_ $end
$var wire 1 " rco_ $end
$var wire 1 # reset $end
$var wire 1 $ rco_C $end
$var wire 1 % rco_B $end
$var wire 1 & rco_A $end
$var wire 2 ' mode_ [1:0] $end
$var wire 1 ( load_C $end
$var wire 1 ) load_B $end
$var wire 1 * load_A $end
$var wire 1 + enable_ $end
$var wire 1 , clock $end
$var wire 4 - Q_C [3:0] $end
$var wire 4 . Q_B [3:0] $end
$var wire 4 / Q_A [3:0] $end
$var wire 4 0 D_ [3:0] $end
$scope module clock_m $end
$var reg 1 , clock $end
$upscope $end
$scope module dut_A $end
$var wire 1 1 _004_ $end
$var wire 1 2 _005_ $end
$var wire 1 3 _020_ $end
$var wire 1 4 _021_ $end
$var wire 1 5 _024_ $end
$var wire 1 6 _025_ $end
$var wire 1 7 _026_ $end
$var wire 1 8 _027_ $end
$var wire 1 9 _028_ $end
$var wire 1 : _029_ $end
$var wire 1 ; _030_ $end
$var wire 1 < _031_ $end
$var wire 1 = _032_ $end
$var wire 1 > _033_ $end
$var wire 1 ? _034_ $end
$var wire 1 @ _035_ $end
$var wire 1 A _036_ $end
$var wire 1 B _037_ $end
$var wire 1 C _038_ $end
$var wire 1 D _039_ $end
$var wire 1 E _040_ $end
$var wire 1 F _041_ $end
$var wire 1 G _043_ $end
$var wire 1 H _045_ $end
$var wire 1 I _053_ $end
$var wire 1 J _055_ $end
$var wire 1 K _056_ $end
$var wire 1 , clk $end
$var wire 1 # reset $end
$var wire 2 L mode [1:0] $end
$var wire 1 + enable $end
$var wire 32 M _054_ [31:0] $end
$var wire 32 N _052_ [31:0] $end
$var wire 32 O _051_ [31:0] $end
$var wire 32 P _050_ [31:0] $end
$var wire 4 Q _049_ [3:0] $end
$var wire 4 R _048_ [3:0] $end
$var wire 16 S _047_ [15:0] $end
$var wire 1 T _046_ $end
$var wire 4 U _044_ [3:0] $end
$var wire 4 V _042_ [3:0] $end
$var wire 2 W _023_ [1:0] $end
$var wire 4 X _022_ [3:0] $end
$var wire 2 Y _019_ [1:0] $end
$var wire 2 Z _018_ [1:0] $end
$var wire 2 [ _017_ [1:0] $end
$var wire 2 \ _016_ [1:0] $end
$var wire 2 ] _015_ [1:0] $end
$var wire 2 ^ _014_ [1:0] $end
$var wire 2 _ _013_ [1:0] $end
$var wire 2 ` _012_ [1:0] $end
$var wire 2 a _011_ [1:0] $end
$var wire 2 b _010_ [1:0] $end
$var wire 2 c _009_ [1:0] $end
$var wire 2 d _008_ [1:0] $end
$var wire 32 e _007_ [31:0] $end
$var wire 32 f _006_ [31:0] $end
$var wire 1 g _003_ $end
$var wire 1 h _002_ $end
$var wire 1 i _001_ $end
$var wire 4 j _000_ [3:0] $end
$var wire 4 k D [3:0] $end
$var reg 4 l Q_A [3:0] $end
$var reg 1 * load_A $end
$var reg 1 & rco_A $end
$upscope $end
$scope module dut_B $end
$var wire 1 m _005_ $end
$var wire 1 n _012_ $end
$var wire 1 o _013_ $end
$var wire 1 p _019_ $end
$var wire 1 q _020_ $end
$var wire 1 r _023_ $end
$var wire 1 s _024_ $end
$var wire 1 t _025_ $end
$var wire 1 u _026_ $end
$var wire 1 v _027_ $end
$var wire 1 w _028_ $end
$var wire 1 x _029_ $end
$var wire 1 y _030_ $end
$var wire 1 z _031_ $end
$var wire 1 { _032_ $end
$var wire 1 | _033_ $end
$var wire 1 } _034_ $end
$var wire 1 ~ _035_ $end
$var wire 1 !" _036_ $end
$var wire 1 "" _037_ $end
$var wire 1 #" _038_ $end
$var wire 1 $" _039_ $end
$var wire 1 %" _040_ $end
$var wire 1 &" _042_ $end
$var wire 1 '" _044_ $end
$var wire 1 (" _045_ $end
$var wire 1 )" _048_ $end
$var wire 1 *" _051_ $end
$var wire 1 +" _062_ $end
$var wire 1 ," _063_ $end
$var wire 1 -" _065_ $end
$var wire 1 ." _066_ $end
$var wire 1 , clk $end
$var wire 1 # reset $end
$var wire 2 /" mode [1:0] $end
$var wire 1 + enable $end
$var wire 32 0" _064_ [31:0] $end
$var wire 32 1" _061_ [31:0] $end
$var wire 32 2" _060_ [31:0] $end
$var wire 32 3" _059_ [31:0] $end
$var wire 4 4" _058_ [3:0] $end
$var wire 4 5" _057_ [3:0] $end
$var wire 4 6" _056_ [3:0] $end
$var wire 16 7" _055_ [15:0] $end
$var wire 1 8" _054_ $end
$var wire 1 9" _053_ $end
$var wire 1 :" _052_ $end
$var wire 3 ;" _050_ [2:0] $end
$var wire 1 <" _049_ $end
$var wire 1 =" _047_ $end
$var wire 1 >" _046_ $end
$var wire 1 ?" _043_ $end
$var wire 4 @" _041_ [3:0] $end
$var wire 2 A" _022_ [1:0] $end
$var wire 4 B" _021_ [3:0] $end
$var wire 2 C" _018_ [1:0] $end
$var wire 2 D" _017_ [1:0] $end
$var wire 2 E" _016_ [1:0] $end
$var wire 2 F" _015_ [1:0] $end
$var wire 2 G" _014_ [1:0] $end
$var wire 2 H" _011_ [1:0] $end
$var wire 2 I" _010_ [1:0] $end
$var wire 2 J" _009_ [1:0] $end
$var wire 2 K" _008_ [1:0] $end
$var wire 2 L" _007_ [1:0] $end
$var wire 2 M" _006_ [1:0] $end
$var wire 32 N" _004_ [31:0] $end
$var wire 32 O" _003_ [31:0] $end
$var wire 1 P" _002_ $end
$var wire 1 Q" _001_ $end
$var wire 4 R" _000_ [3:0] $end
$var wire 4 S" D [3:0] $end
$var reg 4 T" Q_B [3:0] $end
$var reg 1 ) load_B $end
$var reg 1 % rco_B $end
$upscope $end
$scope module dut_C $end
$var wire 1 U" _005_ $end
$var wire 1 V" _006_ $end
$var wire 1 W" _017_ $end
$var wire 1 X" _018_ $end
$var wire 1 Y" _021_ $end
$var wire 1 Z" _022_ $end
$var wire 1 [" _023_ $end
$var wire 1 \" _024_ $end
$var wire 1 ]" _025_ $end
$var wire 1 ^" _026_ $end
$var wire 1 _" _027_ $end
$var wire 1 `" _028_ $end
$var wire 1 a" _029_ $end
$var wire 1 b" _030_ $end
$var wire 1 c" _031_ $end
$var wire 1 d" _032_ $end
$var wire 1 e" _033_ $end
$var wire 1 f" _034_ $end
$var wire 1 g" _036_ $end
$var wire 1 h" _038_ $end
$var wire 1 i" _039_ $end
$var wire 1 j" _040_ $end
$var wire 1 k" _041_ $end
$var wire 1 l" _052_ $end
$var wire 1 m" _053_ $end
$var wire 1 n" _055_ $end
$var wire 1 o" _056_ $end
$var wire 1 , clk $end
$var wire 1 # reset $end
$var wire 2 p" mode [1:0] $end
$var wire 1 + enable $end
$var wire 32 q" _054_ [31:0] $end
$var wire 32 r" _051_ [31:0] $end
$var wire 32 s" _050_ [31:0] $end
$var wire 32 t" _049_ [31:0] $end
$var wire 4 u" _048_ [3:0] $end
$var wire 4 v" _047_ [3:0] $end
$var wire 4 w" _046_ [3:0] $end
$var wire 16 x" _045_ [15:0] $end
$var wire 1 y" _044_ $end
$var wire 1 z" _043_ $end
$var wire 1 {" _042_ $end
$var wire 1 |" _037_ $end
$var wire 4 }" _035_ [3:0] $end
$var wire 2 ~" _020_ [1:0] $end
$var wire 4 !# _019_ [3:0] $end
$var wire 2 "# _016_ [1:0] $end
$var wire 2 ## _015_ [1:0] $end
$var wire 2 $# _014_ [1:0] $end
$var wire 2 %# _013_ [1:0] $end
$var wire 2 &# _012_ [1:0] $end
$var wire 2 '# _011_ [1:0] $end
$var wire 2 (# _010_ [1:0] $end
$var wire 2 )# _009_ [1:0] $end
$var wire 2 *# _008_ [1:0] $end
$var wire 2 +# _007_ [1:0] $end
$var wire 32 ,# _004_ [31:0] $end
$var wire 32 -# _003_ [31:0] $end
$var wire 1 .# _002_ $end
$var wire 1 /# _001_ $end
$var wire 4 0# _000_ [3:0] $end
$var wire 4 1# D [3:0] $end
$var reg 4 2# Q_C [3:0] $end
$var reg 1 ( load_C $end
$var reg 1 $ rco_C $end
$upscope $end
$scope module tb $end
$var wire 4 3# Q_A [3:0] $end
$var wire 4 4# Q_B [3:0] $end
$var wire 4 5# Q_C [3:0] $end
$var wire 1 , clk $end
$var wire 1 ! load_ $end
$var wire 1 * load_A $end
$var wire 1 ) load_B $end
$var wire 1 ( load_C $end
$var wire 1 " rco_ $end
$var wire 1 & rco_A $end
$var wire 1 % rco_B $end
$var wire 1 $ rco_C $end
$var wire 1 6# clock $end
$var reg 4 7# D_ [3:0] $end
$var reg 1 + enable_ $end
$var reg 2 8# mode_ [1:0] $end
$var reg 1 # reset $end
$var integer 32 9# log [31:0] $end
$scope module clock_tb $end
$var reg 1 6# clock $end
$upscope $end
$scope module sb $end
$var wire 4 :# D_ [3:0] $end
$var wire 1 , clk $end
$var wire 1 + enable_ $end
$var wire 2 ;# mode_ [1:0] $end
$var wire 1 # reset $end
$var reg 4 <# Q_sb [3:0] $end
$var reg 1 =# load_sb $end
$var reg 1 ># rco_sb $end
$upscope $end
$scope task checker $end
$var integer 32 ?# iteration [31:0] $end
$upscope $end
$scope task drv_init $end
$upscope $end
$scope task drv_request $end
$var integer 32 @# iteration [31:0] $end
$upscope $end
$upscope $end
$upscope $end
$enddefinitions $end
#0
$dumpvars
bx @#
bx ?#
0>#
0=#
bx <#
bx ;#
bx :#
b10 9#
bx 8#
bx 7#
06#
bx 5#
bx 4#
bx 3#
bx 2#
bx 1#
bx 0#
x/#
x.#
bzxxxx -#
bzxxxz ,#
bx +#
bzx *#
bzx )#
bx (#
bzx '#
bx &#
bx %#
bx $#
bx ##
bx "#
bxz !#
bx ~"
bxzz }"
x|"
x{"
xz"
xy"
bx x"
bx w"
bx v"
bx u"
bzxxzz t"
bzxxz s"
bzxxz r"
bzxzz q"
bx p"
xo"
xn"
xm"
xl"
xk"
xj"
xi"
xh"
xg"
xf"
xe"
xd"
xc"
xb"
xa"
x`"
x_"
x^"
x]"
x\"
x["
xZ"
xY"
xX"
xW"
xV"
xU"
bx T"
bx S"
bx R"
xQ"
xP"
bzxxxx O"
bzxxxz N"
bx M"
bzx L"
bxz K"
bzx J"
bx I"
bx H"
bx G"
bx F"
bx E"
bx D"
bx C"
bxz B"
bx A"
bxzz @"
x?"
x>"
x="
x<"
bxzz ;"
x:"
x9"
x8"
bx 7"
bx 6"
bx 5"
bx 4"
bzxxxx 3"
bzxxz 2"
bzxxz 1"
bzxxx 0"
bx /"
x."
x-"
x,"
x+"
x*"
x)"
x("
x'"
x&"
x%"
x$"
x#"
x""
x!"
x~
x}
x|
x{
xz
xy
xx
xw
xv
xu
xt
xs
xr
xq
xp
xo
xn
xm
bx l
bx k
bx j
xi
xh
xg
bzxxxx f
bzxxxz e
bx d
bzx c
bxz b
bzx a
bx `
bx _
bx ^
bx ]
bx \
bx [
bx Z
bxz Y
bxz X
bx W
bzxx V
bxzxz U
xT
bx S
bx R
bx Q
bzxxzz P
bzxxz O
bzxxz N
bzxzz M
bx L
xK
xJ
xI
xH
xG
xF
xE
xD
xC
xB
xA
x@
x?
x>
x=
x<
x;
x:
x9
x8
x7
x6
x5
x4
x3
x2
x1
bx 0
bx /
bx .
bx -
0,
x+
x*
x)
x(
bx '
x&
x%
x$
x#
z"
z!
$end
#5
16#
1,
#10
0i
0g
0G
bx0 $#
bx0 &#
bx0 %#
bx0 ##
0/#
bx0 E"
bx0 G"
bx0 F"
bx0 D"
bx0 ^
bx0 Z
bx0 [
bx0 ]
bx0 \
0y"
0o
bx0zz }"
bx0 (#
0z"
bz0 '#
1m"
bx0zz @"
bx0 I"
0m
1+"
b0 `
bxz0z U
1I
0j"
0i"
0h"
1l"
1U"
0("
0'"
0n
0E
0D
bz00 V
1^"
1]"
1\"
1V"
1y
1x
1w
b10 H"
1,"
1:
19
18
b10 _
1k"
1)"
1F
bx000000000000 x"
bx000000000000 7"
bx000000000000 S
b11 ~"
0X"
b11 A"
0q
b11 W
04
1_"
1{
1;
b1 0
b1 k
b1 S"
b1 1#
b1 7#
b1 :#
b0 '
b0 L
b0 /"
b0 p"
b0 8#
b0 ;#
0#
06#
0,
#15
0*
0(
16#
1,
#20
06#
0,
#25
16#
1,
#30
b10 0
b10 k
b10 S"
b10 1#
b10 7#
b10 :#
06#
0,
#35
16#
1,
#40
b1100100 @#
b1100100 ?#
b11 0
b11 k
b11 S"
b11 1#
b11 7#
b11 :#
06#
0,
#45
16#
1,
#50
b100 0
b100 k
b100 S"
b100 1#
b100 7#
b100 :#
06#
0,
#55
16#
1,
#60
b101 0
b101 k
b101 S"
b101 1#
b101 7#
b101 :#
06#
0,
#65
16#
1,
#70
b110 0
b110 k
b110 S"
b110 1#
b110 7#
b110 :#
06#
0,
#75
16#
1,
#80
b111 0
b111 k
b111 S"
b111 1#
b111 7#
b111 :#
06#
0,
#85
16#
1,
#90
1d"
1#"
1@
b1000 0
b1000 k
b1000 S"
b1000 1#
b1000 7#
b1000 :#
1+
06#
0,
#95
16#
1,
#100
b1001 0#
b1001 R"
b1001 j
0.#
b1001 u"
0P"
b1001 4"
1h
0{"
0<"
1Q"
1T
b1001 Q
0|"
b1001 v"
0?"
b1001 5"
18"
1G
1/#
0g"
b1001 w"
1:"
0&"
b1001 6"
1H
b1001 R
1i
1y"
b1 `
1g
1z"
bz1 '#
b0 (#
b1 ##
b0 $#
b0 &#
b1 %#
1o
b0 I"
1*"
b1 D"
b0 E"
b0 G"
b1 F"
1+"
b1 ^
b1 Z
b0 [
b0 ]
b1 \
1I
1h"
1l"
0U"
1n
bz01 V
0\"
b0zz }"
b1001 x"
0V"
0w
b0zz @"
b0zz ;"
b1001 7"
b1 H"
1,"
08
b0z0z U
b1001 S
b1 _
0k"
0)"
0F
b0 ~"
1X"
b0 A"
1q
b0 W
14
b1001 0
b1001 k
b1001 S"
b1001 1#
b1001 7#
b1001 :#
b11 '
b11 L
b11 /"
b11 p"
b11 8#
b11 ;#
06#
0,
#105
0B
0="
0A
0$"
0e"
bz1zz M
0C
0%"
bz1zz q"
0f"
bz10zz P
1K
0=
0z
0}
bz10zz t"
1o"
0`"
0b"
12
0>"
09"
1v
1s
1["
1Z"
0>
0<
0?
01
0|
0!"
0~
0""
0a"
0c"
15
17
16
1J
bz1 a
13
b0z b
1r
bz0 L"
1-"
bz1 J"
bz110z N"
bz0111 3"
0."
1u
1t
1p
1Y"
bz0 *#
1n"
bz1 )#
1W"
b11 d
bz1100 f
bz1 c
bz101z e
bz01z O
bz00z N
b1z Y
b11z X
b11 M"
bz001 0"
bz1010 O"
bz01z 1"
bz00z 2"
b1z K"
b11 C"
b11z B"
b11 +#
bz1100 -#
bz101z ,#
bz01z s"
bz00z r"
b11 "#
b11z !#
b1001 /
b1001 l
b1001 3#
1*
1&
b1001 <#
1=#
b1001 .
b1001 T"
b1001 4#
1)
0%
b1001 -
b1001 2#
b1001 5#
1(
0$
16#
1,
#110
b1010 0#
b1010 R"
b1010 u"
b1010 4"
b1010 j
b1010 v"
b1010 5"
b1010 Q
b1010 w"
b1010 6"
b1010 R
b1 $#
b0 ##
b1 E"
b0 D"
b1 [
b0 Z
b1010 x"
b1010 7"
b1010 S
b1010 0
b1010 k
b1010 S"
b1010 1#
b1010 7#
b1010 :#
06#
0,
#115
b10 d
b10 +#
1."
b10 M"
b10z X
0J
bz1101 f
bz1 *#
b10z !#
0n"
bz1101 -#
bz1 L"
b10z B"
bz1000 3"
0-"
bz111 0"
bz110z N"
bz1011 O"
b1010 /
b1010 l
b1010 3#
b1010 -
b1010 2#
b1010 5#
b1010 .
b1010 T"
b1010 4#
b1010 <#
16#
1,
#120
b1011 0#
b1011 R"
b1011 u"
b1011 4"
b1011 j
b1011 v"
b1011 5"
b1011 Q
b1011 w"
b1011 6"
b1011 R
b1 ##
b1 D"
b1 Z
b1011 x"
b1011 7"
b1011 S
b1011 0
b1011 k
b1011 S"
b1011 1#
b1011 7#
b1011 :#
06#
0,
#125
bz0 a
bz1001 3"
bz0 J"
bz0 )#
b11 d
bz01z N
bz1110 f
bz110z e
b11 M"
bz01z 2"
bz111z N"
bz1100 O"
b11 +#
bz01z r"
bz1110 -#
bz110z ,#
b1011 /
b1011 l
b1011 3#
b1011 <#
b1011 .
b1011 T"
b1011 4#
b1011 -
b1011 2#
b1011 5#
16#
1,
#130
b1100 0#
b1100 R"
b1100 u"
b1100 4"
b1100 j
b1100 v"
b1100 5"
b1100 Q
b1100 w"
b1100 6"
b1100 R
b1 &#
b0 $#
b0 ##
b1 G"
b0 E"
b0 D"
b1 ]
b0 [
b0 Z
b1100 x"
b1100 7"
b1100 S
b1100 0
b1100 k
b1100 S"
b1100 1#
b1100 7#
b1100 :#
06#
0,
#135
1B
1A
1?
06
0K
bz1 a
0o"
bz1 )#
0."
bz1 J"
b1z b
bz110z e
bz00z O
b1z X
b1 d
bz0 c
bz00z N
bz1111 f
bz110z ,#
bz1 *#
bz00z s"
b1z !#
b1 +#
b10 "#
bz00z r"
bz1111 -#
bz1 L"
bz00z 1"
b1z B"
bz1010 3"
b1 M"
b10 C"
bz101 0"
bz00z 2"
bz111z N"
bz1101 O"
b1100 /
b1100 l
b1100 3#
b1100 -
b1100 2#
b1100 5#
b1100 .
b1100 T"
b1100 4#
b1100 <#
16#
1,
#140
b1111 0#
b1111 R"
0i
0g
b1111 u"
b1111 4"
b1111 j
0G
0Q"
b1111 v"
b1111 5"
b1111 Q
0/#
08"
b0 `
0y"
0o
0:"
b1111 w"
b1111 6"
b1111 R
0z"
bz0 '#
b10 &#
b10 $#
b10 %#
0*"
b10 G"
b10 E"
b10 F"
b10 ^
b10 ]
b10 [
b10 \
0h"
0n
b10 ##
b10 D"
b10 Z
1\"
1V"
1U"
1w
b10 H"
0m
18
b1z0z U
b10 _
bz00 V
1k"
0j"
0i"
1)"
0("
0'"
1F
0E
0D
b1111000000000000 x"
b1111000000000000 7"
b1111000000000000 S
b11 ~"
0X"
1^"
1]"
b11 A"
0q
1y
1x
b11 W
04
1:
19
b1101 0
b1101 k
b1101 S"
b1101 1#
b1101 7#
b1101 :#
b0 '
b0 L
b0 /"
b0 p"
b0 8#
b0 ;#
06#
0,
#145
1P"
1<"
1.#
1?"
1{"
1&"
1|"
1h
b10 R"
b10 0#
1g"
1T
b10 I"
b10 j
1H
b10 4"
b10 u"
b10 (#
b10zz @"
b10 Q
b10 ^
b0 \
b10 5"
b0 F"
1="
b10 v"
b0 %#
b10zz }"
1$"
1e"
b10 R
b1z0z U
b0 ]
1C
b10 6"
b0 G"
1%"
b10 w"
b0 &#
1f"
1B
1=
1z
1`"
b0 Z
b10 [
1A
02
b10 E"
b0 D"
0v
b0 ##
b10 $#
0["
0?
b10000000000000 S
16
bz11zz P
bz000z e
bz0 a
b10000000000000 7"
bz0 J"
b10000000000000 x"
bz11zz t"
bz000z ,#
bz0 )#
0J
bz0010 f
bz1 c
bz11z O
bz11z N
b0z X
0-"
bz001z N"
bz0000 O"
b11 C"
bz11z 1"
bz111 0"
bz11z 2"
b0z B"
bz1101 3"
0n"
bz0010 -#
b11 "#
bz11z s"
bz11z r"
b0z !#
b1111 /
b1111 l
b1111 3#
0*
b1111 <#
0=#
b1111 .
b1111 T"
b1111 4#
0)
b1111 -
b1111 2#
b1111 5#
0(
16#
1,
#150
b1110 0
b1110 k
b1110 S"
b1110 1#
b1110 7#
b1110 :#
06#
0,
#155
0P"
0h
0.#
0<"
0T
0{"
0?"
0H
0|"
0&"
0g"
b101 0#
b101 R"
b0 ^
b0 I"
b101 j
b0 (#
b101 u"
b101 4"
b0z0z U
b0zz @"
0B
b101 Q
b0zz }"
b101 v"
b101 5"
0="
0A
0e"
0$"
0C
b101 R
0f"
b101 w"
b101 6"
0%"
0=
0`"
0z
b0 \
b10 ]
b10 Z
12
b0 [
b0 %#
b10 &#
b10 ##
1["
b0 $#
0>"
b0 F"
b10 G"
b0 E"
b10 D"
1v
0>
0a"
0!"
0|
bz00zz P
1K
15
bz1 a
b101000000000000 S
bz00zz t"
1o"
1Y"
bz1 )#
b101000000000000 x"
1u
1."
1r
bz0000 3"
b101000000000000 7"
bz1 J"
b1z b
b0z Y
bz01z O
bz1zz M
b110z X
b10 d
bz00z N
bz0101 f
bz001z e
b1 "#
bz01z s"
bz1zz q"
b110z !#
b10 +#
bz00z r"
bz0101 -#
bz001z ,#
b1z K"
b1 C"
bz01z 1"
b110z B"
b10 M"
bz111 0"
bz00z 2"
bz010z N"
bz0011 O"
b10 /
b10 l
b10 3#
1$
b10 -
b10 2#
b10 5#
1%
b10 .
b10 T"
b10 4#
1>#
b10 <#
16#
1,
#160
b1111 0
b1111 k
b1111 S"
b1111 1#
b1111 7#
b1111 :#
06#
0,
#165
b1000 R"
1Q"
b1000 0#
18"
b1000 j
b1000 4"
1:"
b1000 u"
1*"
b1000 Q
b1000 5"
b1000 v"
b1zz ;"
b10 \
b1000 R
b10 F"
b1000 6"
19"
b10 %#
b1000 w"
bz01zz P
1~
bz01zz t"
b0 Z
b0 [
b0 ]
b0 E"
b0 D"
b0 G"
0t
b0 ##
b0 $#
b0 &#
1J
0K
b1000000000000000 S
bz0 L"
1-"
b1000000000000000 7"
0."
b0z K"
bz0 *#
1n"
b1000000000000000 x"
0o"
b11 d
b1z Y
bz11z O
b101z X
bz1000 f
bz011z e
b11 M"
bz101 0"
bz0011 3"
b11 C"
bz11z 1"
bz100z N"
b101z B"
bz0110 O"
b11 +#
b11 "#
bz11z s"
bz1000 -#
b101z !#
bz011z ,#
b101 /
b101 l
b101 3#
0&
b101 <#
0>#
b101 .
b101 T"
b101 4#
0%
b101 -
b101 2#
b101 5#
0$
16#
1,
#170
06#
0,
#175
1h
1T
b1011 0#
b1011 R"
1H
b1011 j
b1011 u"
0Q"
b1011 4"
b10 ^
08"
b1011 Q
b1011 v"
0:"
b1011 5"
b1z0z U
0*"
1B
b1011 R
b1011 w"
b1011 6"
1<
b0zz ;"
b10 \
07
b0 ]
b10 Z
b10 [
b10 %#
b0 &#
b10 ##
b10 $#
09"
b10 F"
b0 G"
b10 E"
b10 D"
0~
b0z b
b1011000000000000 S
bz1 *#
b1011000000000000 x"
1t
bz0110 3"
b1011000000000000 7"
bz1 L"
bz00z O
bz0zz M
b11z X
bz0 c
0J
bz1011 f
bz100z e
bz00z s"
bz0zz q"
b11z !#
b10 "#
0n"
bz1011 -#
bz100z ,#
b1z K"
bz00z 1"
b11z B"
b10 C"
0-"
bz001 0"
bz101z N"
bz1001 O"
b1000 /
b1000 l
b1000 3#
b1000 -
b1000 2#
b1000 5#
1)
b1000 .
b1000 T"
b1000 4#
b1000 <#
16#
1,
#180
06#
0,
#185
b1110 R"
b1110 0#
0h
b1110 j
0T
b1110 4"
b1110 u"
0H
b1110 Q
b1110 5"
b1110 v"
b0 ^
b1110 R
b10 ]
b1110 6"
b10 G"
b1110 w"
b10 &#
b0z0z U
b0 Z
b10 [
0B
b10 E"
b0 D"
b0 ##
b10 $#
0<
bz1zz M
bz1zz q"
b1110000000000000 S
17
bz10zz P
1K
bz110z e
bz0 a
b1110000000000000 7"
1."
bz0 J"
b1110000000000000 x"
bz10zz t"
1o"
bz110z ,#
bz0 )#
0J
bz1110 f
bz1 c
bz01z O
bz01z N
b10z X
0-"
bz111z N"
bz1100 O"
b11 C"
bz01z 1"
bz111 0"
bz01z 2"
b10z B"
bz1001 3"
0n"
bz1110 -#
b11 "#
bz01z s"
bz01z r"
b10z !#
b1011 /
b1011 l
b1011 3#
1&
b1011 <#
b1011 .
b1011 T"
b1011 4#
0)
b1011 -
b1011 2#
b1011 5#
16#
1,
#190
06#
0,
#195
1P"
1h
1.#
1<"
1T
1{"
1?"
1H
1|"
1&"
1g"
b1 0#
b1 R"
b10 ^
b10 I"
b1 j
b10 (#
b1 u"
b1 4"
b1z0z U
b10zz @"
1B
b1 Q
b10zz }"
b1 v"
1="
b1 5"
1A
1e"
1$"
b0 \
1C
b1 R
b0 %#
1f"
b1 w"
b0 F"
1%"
b1 6"
1>
1a"
1|
05
b0 ]
b10 Z
b0 [
b0 &#
0Y"
b10 ##
b0 $#
b0 G"
0r
b0 E"
b10 D"
bz11zz P
0K
bz1 a
b1000000000000 S
bz11zz t"
0o"
bz1 )#
b1000000000000 x"
0."
bz1100 3"
b1000000000000 7"
bz1 J"
b1z b
bz11z O
b0z X
b0 d
bz00z N
bz0001 f
bz111z e
bz11z s"
b0z !#
b0 +#
bz00z r"
bz0001 -#
bz111z ,#
bz11z 1"
b0z B"
b0 M"
bz111 0"
bz00z 2"
bz000z N"
bz1111 O"
0&
b1110 /
b1110 l
b1110 3#
b1110 -
b1110 2#
b1110 5#
b1110 .
b1110 T"
b1110 4#
b1110 <#
16#
1,
#200
b1101 R"
b1101 0#
1Q"
18"
0P"
b1101 4"
b1 \
b1 ]
1G
b1101 j
b1 &#
b1 %#
1/#
0g"
b1101 w"
0.#
b1101 u"
b1 G"
b1 F"
1:"
0&"
b1101 6"
0<"
1H
b1101 R
1i
1h
1y"
0{"
0?"
b1101 5"
b1 `
1g
1T
b1101 Q
1z"
bz1 '#
b0 (#
b1 ##
0|"
b1101 v"
1o
1*"
b0 I"
b1 D"
1+"
b1 ^
b1 Z
1I
1h"
1l"
0U"
1n
bz01 V
0\"
b0zz }"
b1101 x"
0V"
0w
b0zz @"
b1101 7"
b1 H"
1,"
08
b0z0z U
b1101 S
b1 _
0k"
0)"
0F
b0 ~"
1X"
b0 A"
1q
b0 W
14
b1101 0
b1101 k
b1101 S"
b1101 1#
b1101 7#
b1101 :#
b11 '
b11 L
b11 /"
b11 p"
b11 8#
b11 ;#
06#
0,
#205
0B
0A
1}
1b"
0C
0%"
0s
0f"
0Z"
0>
0|
0a"
15
bz11zz P
1J
1r
bz0 L"
1-"
1Y"
bz0 *#
bz11zz t"
1n"
b1 d
bz0000 f
bz11z O
b1z X
b1 M"
bz000z N"
bz1110 O"
bz11z 1"
bz101 0"
b1z B"
bz1011 3"
b1 +#
bz0000 -#
bz11z s"
b1z !#
b1101 /
b1101 l
b1101 3#
1*
1&
b1101 <#
1=#
b1101 .
b1101 T"
b1101 4#
1)
b1101 -
b1101 2#
b1101 5#
1(
16#
1,
#210
b0 0#
b0 R"
b0 u"
b0 4"
0i
b0 j
1.#
1P"
0g
0h
1{"
b0 v"
1<"
b0 5"
0G
0T
b0 Q
1|"
0Q"
1?"
b0 Z
0H
b0 ##
0/#
1g"
b0 w"
b0 G"
08"
1&"
b0 6"
b0 `
b0 R
0y"
0o
0:"
b0 ^
0z"
bz0 '#
b10 (#
b0 &#
b0 %#
b0 $#
0*"
b10 I"
b0 D"
b0 F"
b0 E"
b0 ]
b0 \
b0 [
0h"
0n
1\"
b10zz }"
1V"
b0 x"
1U"
1w
b10zz @"
b10 H"
b0 7"
0m
18
b10 _
bz00 V
b0 S
1k"
0j"
0i"
1)"
0("
0'"
1F
0E
0D
b11 ~"
0X"
1^"
1]"
b11 A"
0q
1y
1x
b11 W
04
1:
19
b0 '
b0 L
b0 /"
b0 p"
b0 8#
b0 ;#
06#
0,
#215
0P"
0.#
0<"
0{"
0?"
0|"
b11 0#
b11 R"
0&"
0h
0g"
0T
b11 j
b11 u"
b11 4"
b0 I"
0H
b0 (#
b11 Q
b11 v"
b11 5"
b0zz @"
b0 ^
b0zz }"
0="
b11 R
0e"
b11 w"
b11 6"
0$"
b0z0z U
0b"
0}
b0 \
b0 ]
0B
0A
b10 Z
b10 [
b0 %#
b0 &#
b10 ##
1Z"
b10 $#
b0 F"
b0 G"
b10 E"
b10 D"
1s
11
0<
0?
1c"
0~
1""
b11 d
03
17
16
b11000000000000 S
b11 +#
0W"
bz1 *#
b11000000000000 x"
1t
b11 M"
0p
bz1110 3"
b11000000000000 7"
bz1 L"
b1z b
b0z Y
bz00z O
bz0zz M
b111z X
bz0 c
0J
bz0011 f
bz000z e
bz00z s"
bz0zz q"
b111z !#
b0 "#
0n"
bz0011 -#
bz000z ,#
b1z K"
bz00z 1"
b111z B"
b0 C"
0-"
bz001 0"
bz001z N"
bz0001 O"
0&
0*
b0 /
b0 l
b0 3#
1$
0(
b0 -
b0 2#
b0 5#
1%
0)
b0 .
b0 T"
b0 4#
1>#
b0 <#
0=#
16#
1,
#220
06#
0,
#225
b110 R"
b110 0#
b110 j
b110 4"
b110 u"
b110 Q
b110 5"
b110 v"
b110 R
b10 ]
b110 6"
b10 G"
b110 w"
b10 &#
b0 Z
b10 [
b10 E"
b0 D"
b0 ##
b10 $#
01
bz1zz M
0""
0c"
bz1zz q"
b110000000000000 S
13
bz00zz P
1K
bz010z e
bz0 a
b110000000000000 7"
1p
1."
bz0 J"
b110000000000000 x"
1W"
bz00zz t"
1o"
bz010z ,#
bz0 )#
0J
bz0110 f
bz1 c
bz01z O
bz01z N
b110z X
0-"
bz011z N"
bz0100 O"
b1 C"
bz01z 1"
bz111 0"
bz01z 2"
b110z B"
bz0001 3"
0n"
bz0110 -#
b1 "#
bz01z s"
bz01z r"
b110z !#
b11 /
b11 l
b11 3#
b11 <#
0>#
b11 .
b11 T"
b11 4#
0%
b11 -
b11 2#
b11 5#
0$
16#
1,
#230
06#
0,
