proyecto/src/part_B/tba.vcd
$date
	Mon Dec  7 20:37:00 2020
$end
$version
	Icarus Verilog
$end
$timescale
	1s
$end
$scope module top $end
$var wire 32 ! Q_A [31:0] $end
$var wire 1 " load_ $end
$var wire 1 # load_A $end
$var wire 1 $ rco_ $end
$var wire 1 % rco_A $end
$var wire 1 & reset $end
$var wire 1 ' rco_x $end
$var wire 2 ( mode_ [1:0] $end
$var wire 1 ) load_x $end
$var wire 1 * enable_ $end
$var wire 1 + clock $end
$var wire 32 , Q_x [31:0] $end
$var wire 32 - D_ [31:0] $end
$scope module clock_m $end
$var reg 1 + clock $end
$upscope $end
$scope module dut $end
$var wire 1 + clk $end
$var wire 1 . enable_five $end
$var wire 1 / enable_four $end
$var wire 1 0 enable_one $end
$var wire 1 1 enable_seven $end
$var wire 1 2 enable_six $end
$var wire 1 3 enable_three $end
$var wire 1 4 enable_two $end
$var wire 1 ) load_32b $end
$var wire 1 & reset $end
$var wire 1 5 rco_zero $end
$var wire 1 6 rco_two $end
$var wire 1 7 rco_three $end
$var wire 1 8 rco_six $end
$var wire 1 9 rco_one $end
$var wire 1 : rco_four $end
$var wire 1 ; rco_five $end
$var wire 1 ' rco_32b $end
$var wire 2 < mode_newer [1:0] $end
$var wire 2 = mode [1:0] $end
$var wire 1 > load_zero $end
$var wire 1 ? load_two $end
$var wire 1 @ load_three $end
$var wire 1 A load_six $end
$var wire 1 B load_seven $end
$var wire 1 C load_one $end
$var wire 1 D load_four $end
$var wire 1 E load_five $end
$var wire 1 * enable $end
$var wire 1 F clk_two $end
$var wire 1 G clk_three $end
$var wire 1 H clk_six $end
$var wire 1 I clk_seven $end
$var wire 1 J clk_one $end
$var wire 1 K clk_four $end
$var wire 1 L clk_five $end
$var wire 32 M Q_32b [31:0] $end
$var wire 32 N D_32b [31:0] $end
$scope module counter_five $end
$var wire 4 O D [3:0] $end
$var wire 1 L clk $end
$var wire 1 . enable $end
$var wire 2 P mode [1:0] $end
$var wire 1 & reset $end
$var reg 4 Q Q [3:0] $end
$var reg 1 E load $end
$var reg 1 ; rco $end
$upscope $end
$scope module counter_four $end
$var wire 4 R D [3:0] $end
$var wire 1 K clk $end
$var wire 1 / enable $end
$var wire 2 S mode [1:0] $end
$var wire 1 & reset $end
$var reg 4 T Q [3:0] $end
$var reg 1 D load $end
$var reg 1 : rco $end
$upscope $end
$scope module counter_one $end
$var wire 4 U D [3:0] $end
$var wire 1 J clk $end
$var wire 1 0 enable $end
$var wire 2 V mode [1:0] $end
$var wire 1 & reset $end
$var reg 4 W Q [3:0] $end
$var reg 1 C load $end
$var reg 1 9 rco $end
$upscope $end
$scope module counter_seven $end
$var wire 4 X D [3:0] $end
$var wire 1 I clk $end
$var wire 1 1 enable $end
$var wire 2 Y mode [1:0] $end
$var wire 1 & reset $end
$var reg 4 Z Q [3:0] $end
$var reg 1 B load $end
$var reg 1 ' rco $end
$upscope $end
$scope module counter_six $end
$var wire 4 [ D [3:0] $end
$var wire 1 H clk $end
$var wire 1 2 enable $end
$var wire 2 \ mode [1:0] $end
$var wire 1 & reset $end
$var reg 4 ] Q [3:0] $end
$var reg 1 A load $end
$var reg 1 8 rco $end
$upscope $end
$scope module counter_three $end
$var wire 4 ^ D [3:0] $end
$var wire 1 G clk $end
$var wire 1 3 enable $end
$var wire 2 _ mode [1:0] $end
$var wire 1 & reset $end
$var reg 4 ` Q [3:0] $end
$var reg 1 @ load $end
$var reg 1 7 rco $end
$upscope $end
$scope module counter_two $end
$var wire 4 a D [3:0] $end
$var wire 1 F clk $end
$var wire 1 4 enable $end
$var wire 2 b mode [1:0] $end
$var wire 1 & reset $end
$var reg 4 c Q [3:0] $end
$var reg 1 ? load $end
$var reg 1 6 rco $end
$upscope $end
$scope module counter_zero $end
$var wire 4 d D [3:0] $end
$var wire 1 + clk $end
$var wire 1 & reset $end
$var wire 2 e mode [1:0] $end
$var wire 1 * enable $end
$var reg 4 f Q [3:0] $end
$var reg 1 > load $end
$var reg 1 5 rco $end
$upscope $end
$upscope $end
$scope module tb $end
$var wire 32 g Q_A [31:0] $end
$var wire 1 + clk $end
$var wire 1 " load_ $end
$var wire 1 # load_A $end
$var wire 1 $ rco_ $end
$var wire 1 % rco_A $end
$var wire 1 h clock $end
$var reg 32 i D_ [31:0] $end
$var reg 1 * enable_ $end
$var reg 2 j mode_ [1:0] $end
$var reg 1 & reset $end
$var integer 32 k log_A [31:0] $end
$scope module clock_tb $end
$var reg 1 h clock $end
$upscope $end
$scope module sb $end
$var wire 32 l D_sb32 [31:0] $end
$var wire 1 + clk $end
$var wire 1 * enable_ $end
$var wire 2 m mode_sb32 [1:0] $end
$var wire 1 & reset $end
$var reg 32 n Q_sb32 [31:0] $end
$var reg 1 o load_sb32 $end
$var reg 1 p rco_sb32 $end
$upscope $end
$scope task checker $end
$var integer 32 q iteration [31:0] $end
$upscope $end
$scope task drv_init $end
$upscope $end
$scope task drv_request $end
$var integer 32 r iteration [31:0] $end
$upscope $end
$upscope $end
$upscope $end
$enddefinitions $end
#0
$dumpvars
bx r
bx q
0p
0o
bx n
bx m
bx l
b10 k
bx j
bx i
0h
bz g
bx f
bx e
bx d
bx c
bx b
bx a
bx `
bx _
bx ^
bx ]
bx \
bx [
bx Z
bx Y
bx X
bx W
bx V
bx U
bx T
bx S
bx R
bx Q
bx P
bx O
bx N
bx M
xL
xK
xJ
xI
xH
xG
xF
xE
xD
xC
xB
xA
x@
x?
x>
bx =
bx <
x;
x:
x9
x8
x7
x6
x5
x4
x3
x2
x1
x0
x/
x.
bx -
bx ,
0+
x*
x)
bx (
x'
x&
z%
z$
z#
z"
bz !
$end
#5
0)
05
0>
bx0000 ,
bx0000 M
b0 f
1h
1+
#10
0'
08
0;
0:
07
06
09
0I
0H
0L
0K
0G
0F
b0 X
b0 [
b0 O
b0 R
b0 ^
b0 a
b0 U
b1 d
b0 <
b0 P
b0 S
b0 V
b0 Y
b0 \
b0 _
b0 b
0J
b1 -
b1 N
b1 i
b1 l
b0 (
b0 =
b0 e
b0 j
b0 m
01
02
0.
0/
03
04
00
0*
0&
0h
0+
#15
0C
b0 W
0?
b0 c
0@
b0 `
0D
b0 T
0E
b0 Q
0A
b0 ]
0B
b0 ,
b0 M
b0 Z
b0 n
1J
1F
1G
1K
1L
1H
1I
1h
1+
#20
b11 d
b1 <
b1 P
b1 S
b1 V
b1 Y
b1 \
b1 _
b1 b
0J
0F
0G
0K
0L
0H
0I
b11 -
b11 N
b11 i
b11 l
b1 (
b1 =
b1 e
b1 j
b1 m
0h
0+
#25
1J
1F
1G
1K
1L
1H
1I
1h
1+
#30
0J
0F
0G
0K
0L
0H
0I
1&
11
12
1.
1/
13
14
10
1*
0h
0+
#35
1J
1F
1G
1K
1L
1H
1I
1h
1+
#40
0J
0F
0G
0K
0L
0H
0I
b1100100 r
b1100100 q
0&
0h
0+
#45
b1111 Z
1'
1I
b1111 ]
18
1H
b1111 Q
1;
1L
b1111 T
1:
1K
b1111 `
17
1G
b1111 c
16
1F
b1111 W
19
1J
b11111111111111111111111111111111 n
1p
b11111111111111111111111111111111 ,
b11111111111111111111111111111111 M
b1111 f
15
1h
1+
#50
0'
0I
08
0H
0;
0L
0:
0K
07
0G
06
0F
09
0J
0p
05
b1100 X
b110 [
b1101 O
b1111 R
b1001 ^
b1001 a
b1000 U
b1101 d
b11000110110111111001100110001101 -
b11000110110111111001100110001101 N
b11000110110111111001100110001101 i
b11000110110111111001100110001101 l
0h
0+
#55
b11111111111111111111111111111110 ,
b11111111111111111111111111111110 M
b1110 f
b11111111111111111111111111111110 n
1h
1+
#60
b0 X
b1001 [
b11 O
b111 R
b101 ^
b10 a
b1 U
b10 d
b1001001101110101001000010010 -
b1001001101110101001000010010 N
b1001001101110101001000010010 i
b1001001101110101001000010010 l
0h
0+
#65
b11111111111111111111111111111101 n
b11111111111111111111111111111101 ,
b11111111111111111111111111111101 M
b1101 f
1h
1+
#70
b1000 X
b110 [
b1101 O
b1100 ^
b1101 a
b0 U
b1101 d
b10000110110101111100110100001101 -
b10000110110101111100110100001101 N
b10000110110101111100110100001101 i
b10000110110101111100110100001101 l
0h
0+
#75
b11111111111111111111111111111100 ,
b11111111111111111111111111111100 M
b1100 f
b11111111111111111111111111111100 n
1h
1+
#80
b1001 X
b1110 [
b1000 O
b1101 R
b11 U
b10011110100011011100110100111101 -
b10011110100011011100110100111101 N
b10011110100011011100110100111101 i
b10011110100011011100110100111101 l
b10 (
b10 =
b10 e
b10 j
b10 m
0h
0+
#85
b11111111111111111111111111111001 n
b11111111111111111111111111111001 ,
b11111111111111111111111111111001 M
b1001 f
1h
1+
#90
b1100 X
b110 [
b10 O
b1111 ^
b111 a
b1000 U
b1100 d
b11000110001011011111011110001100 -
b11000110001011011111011110001100 N
b11000110001011011111011110001100 i
b11000110001011011111011110001100 l
b1 (
b1 =
b1 e
b1 j
b1 m
0h
0+
#95
b11111111111111111111111111111000 ,
b11111111111111111111111111111000 M
b1000 f
b11111111111111111111111111111000 n
1h
1+
#100
b110 X
b11 [
b11 O
b111 R
b10 ^
b100 a
b1100 U
b110 d
b1100011001101110010010011000110 -
b1100011001101110010010011000110 N
b1100011001101110010010011000110 i
b1100011001101110010010011000110 l
0h
0+
#105
b11111111111111111111111111110111 n
b11111111111111111111111111110111 ,
b11111111111111111111111111110111 M
b111 f
1h
1+
#110
b101 X
b101 [
b1 O
b11 R
b1101 ^
b10 a
b1010 U
b1010 d
b1010101000100111101001010101010 -
b1010101000100111101001010101010 N
b1010101000100111101001010101010 i
b1010101000100111101001010101010 l
0h
0+
#115
b11111111111111111111111111110110 ,
b11111111111111111111111111110110 M
b110 f
b11111111111111111111111111110110 n
1h
1+
#120
b11 X
b1011 [
b1101 O
b10 R
b111 ^
b111 U
b111 d
b111011110100100111001001110111 -
b111011110100100111001001110111 N
b111011110100100111001001110111 i
b111011110100100111001001110111 l
0h
0+
#125
b11111111111111111111111111110101 n
b11111111111111111111111111110101 ,
b11111111111111111111111111110101 M
b101 f
1h
1+
#130
b1100 X
b111 [
b1110 O
b1100 R
b1101 ^
b1011 a
b1000 U
b1111 d
b11000111111011001101101110001111 -
b11000111111011001101101110001111 N
b11000111111011001101101110001111 i
b11000111111011001101101110001111 l
b10 (
b10 =
b10 e
b10 j
b10 m
0h
0+
#135
b11111111111111111111111111110010 ,
b11111111111111111111111111110010 M
b10 f
b11111111111111111111111111110010 n
1h
1+
#140
b110 X
b111 O
b110 R
b1001 ^
b110 a
b1100 U
b1110 d
b1100111011101101001011011001110 -
b1100111011101101001011011001110 N
b1100111011101101001011011001110 i
b1100111011101101001011011001110 l
0h
0+
#145
b1110 W
1J
b11111111111111111111111111101111 n
b11111111111111111111111111101111 ,
b11111111111111111111111111101111 M
b1111 f
15
1h
1+
#150
0J
05
b10 [
b1100 O
b1010 R
b100 ^
b1110 a
b101 d
b0 <
b0 P
b0 S
b0 V
b0 Y
b0 \
b0 _
b0 b
b1100010110010100100111011000101 -
b1100010110010100100111011000101 N
b1100010110010100100111011000101 i
b1100010110010100100111011000101 l
b0 (
b0 =
b0 e
b0 j
b0 m
0h
0+
#155
b1111 W
1J
b11111111111111111111111111110000 ,
b11111111111111111111111111110000 M
b0 f
15
b11111111111111111111111111110000 n
1h
1+
#160
0J
05
b101 X
b1110 [
b1000 O
b1110 R
b10 ^
b1000 a
b1011 U
b1101 d
b1011110100011100010100010111101 -
b1011110100011100010100010111101 N
b1011110100011100010100010111101 i
b1011110100011100010100010111101 l
0h
0+
#165
b11111111111111111111111111110001 n
b11111111111111111111111111110001 ,
b11111111111111111111111111110001 M
b1 f
1h
1+
#170
b11 X
b10 [
b1010 O
b111 R
b110 a
b110 U
b101 d
b1 <
b1 P
b1 S
b1 V
b1 Y
b1 \
b1 _
b1 b
b110010101001110010011001100101 -
b110010101001110010011001100101 N
b110010101001110010011001100101 i
b110010101001110010011001100101 l
b1 (
b1 =
b1 e
b1 j
b1 m
0h
0+
#175
b11111111111111111111111111110000 ,
b11111111111111111111111111110000 M
b0 f
b11111111111111111111111111110000 n
1h
1+
#180
b1000 X
b101 [
b111 O
b11 R
b1000 ^
b111 a
b0 U
b1010 d
b11 <
b11 P
b11 S
b11 V
b11 Y
b11 \
b11 _
b11 b
b10000101011100111000011100001010 -
b10000101011100111000011100001010 N
b10000101011100111000011100001010 i
b10000101011100111000011100001010 l
b11 (
b11 =
b11 e
b11 j
b11 m
0h
0+
#185
1)
b0 W
1C
b111 c
1?
b1000 `
1@
b11 T
1D
b111 Q
1E
b101 ]
1A
b1000 Z
1B
b10000101011100111000011100001010 n
1o
b10000101011100111000011100001010 ,
b10000101011100111000011100001010 M
b1010 f
1>
1J
1F
1G
1K
1L
1H
1I
1h
1+
#190
b1001 X
b0 [
b110 O
b100 R
b10 ^
b1 a
b10 U
b0 d
b0 <
b0 P
b0 S
b0 V
b0 Y
b0 \
b0 _
b0 b
0J
0F
0G
0K
0L
0H
0I
b10010000011001000010000100100000 -
b10010000011001000010000100100000 N
b10010000011001000010000100100000 i
b10010000011001000010000100100000 l
b0 (
b0 =
b0 e
b0 j
b0 m
0h
0+
#195
0)
b10000101011100111000011100001011 ,
b10000101011100111000011100001011 M
b1011 f
0>
b10000101011100111000011100001011 n
0o
1h
1+
#200
b100 X
b1110 [
b1100 O
b1100 R
b1100 ^
b1100 a
b1001 U
b1101 d
b1 <
b1 P
b1 S
b1 V
b1 Y
b1 \
b1 _
b1 b
b1001110110011001100110010011101 -
b1001110110011001100110010011101 N
b1001110110011001100110010011101 i
b1001110110011001100110010011101 l
b10 (
b10 =
b10 e
b10 j
b10 m
0h
0+
#205
b10000101011100111000011100001000 n
b10000101011100111000011100001000 ,
b10000101011100111000011100001000 M
b1000 f
1h
1+
#210
b0 X
b1001 [
b1000 O
b11 R
b1011 ^
b1000 a
b1 U
b11 d
b1001100000111011100000010011 -
b1001100000111011100000010011 N
b1001100000111011100000010011 i
b1001100000111011100000010011 l
0h
0+
#215
b10000101011100111000011100000101 ,
b10000101011100111000011100000101 M
b101 f
b10000101011100111000011100000101 n
1h
1+
#220
b10 X
b1010 O
b111 R
b1101 ^
b110 a
b101 U
b101001101001111101011001010011 -
b101001101001111101011001010011 N
b101001101001111101011001010011 i
b101001101001111101011001010011 l
b1 (
b1 =
b1 e
b1 j
b1 m
0h
0+
#225
b10000101011100111000011100000100 n
b10000101011100111000011100000100 ,
b10000101011100111000011100000100 M
b100 f
1h
1+
#230
b110 X
b1010 [
b110 R
b10 ^
b1010 a
b1101 U
b101 d
b11 <
b11 P
b11 S
b11 V
b11 Y
b11 \
b11 _
b11 b
b1101010101001100010101011010101 -
b1101010101001100010101011010101 N
b1101010101001100010101011010101 i
b1101010101001100010101011010101 l
b11 (
b11 =
b11 e
b11 j
b11 m
0h
0+
#235
1)
b1101 W
b1010 c
b10 `
b110 T
b1010 Q
b1010 ]
b110 Z
b1101010101001100010101011010101 ,
b1101010101001100010101011010101 M
b101 f
1>
b1101010101001100010101011010101 n
1o
1J
1F
1G
1K
1L
1H
1I
1h
1+
#240
b101 X
b111 [
b101 O
b11 ^
b1110 a
b1010 U
b1110 d
b1 <
b1 P
b1 S
b1 V
b1 Y
b1 \
b1 _
b1 b
0J
0F
0G
0K
0L
0H
0I
b1010111010101100011111010101110 -
b1010111010101100011111010101110 N
b1010111010101100011111010101110 i
b1010111010101100011111010101110 l
b10 (
b10 =
b10 e
b10 j
b10 m
0h
0+
#245
0)
b1101010101001100010101011010010 n
0o
b1101010101001100010101011010010 ,
b1101010101001100010101011010010 M
b10 f
0>
1h
1+
#250
b110 X
b1100 O
b101 R
b111 ^
b10 a
b1100 U
b1111 d
b1100111110001010111001011001111 -
b1100111110001010111001011001111 N
b1100111110001010111001011001111 i
b1100111110001010111001011001111 l
b1 (
b1 =
b1 e
b1 j
b1 m
0h
0+
#255
b1101010101001100010101011010001 ,
b1101010101001100010101011010001 M
b1 f
b1101010101001100010101011010001 n
1h
1+
#260
b1000 X
b101 [
b0 O
b1001 R
b110 ^
b101 a
b0 U
b1010 d
b11 <
b11 P
b11 S
b11 V
b11 Y
b11 \
b11 _
b11 b
b10000101000010010110010100001010 -
b10000101000010010110010100001010 N
b10000101000010010110010100001010 i
b10000101000010010110010100001010 l
b11 (
b11 =
b11 e
b11 j
b11 m
0h
0+
#265
1)
b0 W
b101 c
b110 `
b1001 T
b0 Q
b101 ]
b1000 Z
b10000101000010010110010100001010 n
1o
b10000101000010010110010100001010 ,
b10000101000010010110010100001010 M
b1010 f
1>
1J
1F
1G
1K
1L
1H
1I
1h
1+
#270
b1 X
b1110 [
b11 O
b1 R
b100 ^
b1100 a
b11 U
b1100 d
b1 <
b1 P
b1 S
b1 V
b1 Y
b1 \
b1 _
b1 b
0J
0F
0G
0K
0L
0H
0I
b11110001100010100110000111100 -
b11110001100010100110000111100 N
b11110001100010100110000111100 i
b11110001100010100110000111100 l
b10 (
b10 =
b10 e
b10 j
b10 m
0h
0+
#275
0)
b10000101000010010110010100000111 ,
b10000101000010010110010100000111 M
b111 f
0>
b10000101000010010110010100000111 n
0o
1h
1+
#280
b1100 X
b101 [
b10 O
b1110 R
b110 ^
b1 a
b1000 U
b1010 d
b11000101001011100110000110001010 -
b11000101001011100110000110001010 N
b11000101001011100110000110001010 i
b11000101001011100110000110001010 l
0h
0+
#285
b10000101000010010110010100000100 n
b10000101000010010110010100000100 ,
b10000101000010010110010100000100 M
b100 f
1h
1+
#290
b110 X
b1100 [
b100 O
b1011 R
b11 ^
b100 a
b1101 U
b1000 d
b1101100010010110011010011011000 -
b1101100010010110011010011011000 N
b1101100010010110011010011011000 i
b1101100010010110011010011011000 l
b1 (
b1 =
b1 e
b1 j
b1 m
0h
0+
#295
b10000101000010010110010100000011 ,
b10000101000010010110010100000011 M
b11 f
b10000101000010010110010100000011 n
1h
1+
#300
b100 X
b100 [
b1000 O
b1010 R
b1 ^
b10 a
b1000 U
b1001 d
b0 <
b0 P
b0 S
b0 V
b0 Y
b0 \
b0 _
b0 b
b1000100100010100001001010001001 -
b1000100100010100001001010001001 N
b1000100100010100001001010001001 i
b1000100100010100001001010001001 l
b0 (
b0 =
b0 e
b0 j
b0 m
0h
0+
#305
b10000101000010010110010100000100 n
b10000101000010010110010100000100 ,
b10000101000010010110010100000100 M
b100 f
1h
1+
#310
b1101 X
b1011 [
b0 O
b10 R
b110 ^
b101 a
b1011 U
b110 d
b11 <
b11 P
b11 S
b11 V
b11 Y
b11 \
b11 _
b11 b
b11011011000000100110010110110110 -
b11011011000000100110010110110110 N
b11011011000000100110010110110110 i
b11011011000000100110010110110110 l
b11 (
b11 =
b11 e
b11 j
b11 m
0h
0+
#315
1)
b1011 W
b10 T
b1011 ]
b1101 Z
b11011011000000100110010110110110 ,
b11011011000000100110010110110110 M
b110 f
1>
b11011011000000100110010110110110 n
1o
1J
1F
1G
1K
1L
1H
1I
1h
1+
#320
b111 [
b1 O
b101 R
b1 ^
b11 a
b1010 U
b1110 d
b1 <
b1 P
b1 S
b1 V
b1 Y
b1 \
b1 _
b1 b
0J
0F
0G
0K
0L
0H
0I
b11010111000101010001001110101110 -
b11010111000101010001001110101110 N
b11010111000101010001001110101110 i
b11010111000101010001001110101110 l
b10 (
b10 =
b10 e
b10 j
b10 m
0h
0+
#325
0)
b11011011000000100110010110110011 n
0o
b11011011000000100110010110110011 ,
b11011011000000100110010110110011 M
b11 f
0>
1h
1+
#330
b1001 X
b101 [
b0 O
b1111 R
b1101 ^
b1101 a
b10 U
b1010 d
b0 <
b0 P
b0 S
b0 V
b0 Y
b0 \
b0 _
b0 b
b10010101000011111101110100101010 -
b10010101000011111101110100101010 N
b10010101000011111101110100101010 i
b10010101000011111101110100101010 l
b0 (
b0 =
b0 e
b0 j
b0 m
0h
0+
#335
b11011011000000100110010110110100 ,
b11011011000000100110010110110100 M
b100 f
b11011011000000100110010110110100 n
1h
1+
#340
b11 X
b1000 [
b1001 O
b111 R
b1011 ^
b1110 a
b111 U
b1 d
b11 <
b11 P
b11 S
b11 V
b11 Y
b11 \
b11 _
b11 b
b111000100101111011111001110001 -
b111000100101111011111001110001 N
b111000100101111011111001110001 i
b111000100101111011111001110001 l
b11 (
b11 =
b11 e
b11 j
b11 m
0h
0+
#345
1)
b111 W
b1110 c
b1011 `
b111 T
b1001 Q
b1000 ]
b11 Z
b111000100101111011111001110001 n
1o
b111000100101111011111001110001 ,
b111000100101111011111001110001 M
b1 f
1>
1J
1F
1G
1K
1L
1H
1I
1h
1+
#350
b1010 X
b111 [
b1111 O
b10 R
b101 ^
b101 a
b100 U
b1111 d
b1 <
b1 P
b1 S
b1 V
b1 Y
b1 \
b1 _
b1 b
0J
0F
0G
0K
0L
0H
0I
b10100111111100100101010101001111 -
b10100111111100100101010101001111 N
b10100111111100100101010101001111 i
b10100111111100100101010101001111 l
b1 (
b1 =
b1 e
b1 j
b1 m
0h
0+
#355
0)
b111000100101111011111001110000 ,
b111000100101111011111001110000 M
b0 f
0>
b111000100101111011111001110000 n
0o
1h
1+
#360
b1001 X
b1101 [
b0 O
b110 R
b11 ^
b11 a
b11 U
b1010 d
b11 <
b11 P
b11 S
b11 V
b11 Y
b11 \
b11 _
b11 b
b10011101000001100011001100111010 -
b10011101000001100011001100111010 N
b10011101000001100011001100111010 i
b10011101000001100011001100111010 l
b11 (
b11 =
b11 e
b11 j
b11 m
0h
0+
#365
1)
b11 W
b11 c
b11 `
b110 T
b0 Q
b1101 ]
b1001 Z
b10011101000001100011001100111010 n
1o
b10011101000001100011001100111010 ,
b10011101000001100011001100111010 M
b1010 f
1>
1J
1F
1G
1K
1L
1H
1I
1h
1+
#370
b1000 X
b1010 [
b1010 O
b1010 R
b100 ^
b1011 a
b1 U
b101 d
b1 <
b1 P
b1 S
b1 V
b1 Y
b1 \
b1 _
b1 b
0J
0F
0G
0K
0L
0H
0I
b10001010101010100100101100010101 -
b10001010101010100100101100010101 N
b10001010101010100100101100010101 i
b10001010101010100100101100010101 l
b10 (
b10 =
b10 e
b10 j
b10 m
0h
0+
#375
0)
b10011101000001100011001100110111 ,
b10011101000001100011001100110111 M
b111 f
0>
b10011101000001100011001100110111 n
0o
1h
1+
#380
b1110 X
b1100 [
b1001 O
b1100 R
b1101 U
b1001 d
b11101100100111000100101111011001 -
b11101100100111000100101111011001 N
b11101100100111000100101111011001 i
b11101100100111000100101111011001 l
b1 (
b1 =
b1 e
b1 j
b1 m
0h
0+
#385
b10011101000001100011001100110110 n
b10011101000001100011001100110110 ,
b10011101000001100011001100110110 M
b110 f
1h
1+
#390
b1010 X
b110 [
b11 O
b101 R
b1111 ^
b100 U
b1100 d
b10100110001101011111101101001100 -
b10100110001101011111101101001100 N
b10100110001101011111101101001100 i
b10100110001101011111101101001100 l
b10 (
b10 =
b10 e
b10 j
b10 m
0h
0+
#395
b10011101000001100011001100110011 ,
b10011101000001100011001100110011 M
b11 f
b10011101000001100011001100110011 n
1h
1+
#400
b1100 X
b111 [
b1011 O
b1001 R
b1010 ^
b1 a
b1000 U
b1111 d
b11 <
b11 P
b11 S
b11 V
b11 Y
b11 \
b11 _
b11 b
b11000111101110011010000110001111 -
b11000111101110011010000110001111 N
b11000111101110011010000110001111 i
b11000111101110011010000110001111 l
b11 (
b11 =
b11 e
b11 j
b11 m
0h
0+
#405
1)
b1000 W
b1 c
b1010 `
b1001 T
b1011 Q
b111 ]
b1100 Z
b11000111101110011010000110001111 n
1o
b11000111101110011010000110001111 ,
b11000111101110011010000110001111 M
b1111 f
1>
1J
1F
1G
1K
1L
1H
1I
1h
1+
#410
b101 X
b1011 [
b1100 O
b1101 R
b110 ^
b0 a
b1011 U
b111 d
b0 <
b0 P
b0 S
b0 V
b0 Y
b0 \
b0 _
b0 b
0J
0F
0G
0K
0L
0H
0I
b1011011110011010110000010110111 -
b1011011110011010110000010110111 N
b1011011110011010110000010110111 i
b1011011110011010110000010110111 l
b0 (
b0 =
b0 e
b0 j
b0 m
0h
0+
#415
b1001 W
0C
0)
1J
b11000111101110011010000110010000 ,
b11000111101110011010000110010000 M
b0 f
0>
15
b11000111101110011010000110010000 n
0o
1h
1+
#420
05
0J
b10 X
b1110 [
b111 O
b1001 ^
b100 a
b101 U
b1100 d
b11 <
b11 P
b11 S
b11 V
b11 Y
b11 \
b11 _
b11 b
b101110011111011001010001011100 -
b101110011111011001010001011100 N
b101110011111011001010001011100 i
b101110011111011001010001011100 l
b11 (
b11 =
b11 e
b11 j
b11 m
0h
0+
#425
1)
b101 W
1C
b100 c
b1001 `
b1101 T
b111 Q
b1110 ]
b10 Z
b101110011111011001010001011100 n
1o
b101110011111011001010001011100 ,
b101110011111011001010001011100 M
b1100 f
1>
1J
1F
1G
1K
1L
1H
1I
1h
1+
#430
b1100 X
b100 [
b1101 O
b1110 R
b11 ^
b111 a
b1000 U
b1001 d
0J
0F
0G
0K
0L
0H
0I
b11000100110111100011011110001001 -
b11000100110111100011011110001001 N
b11000100110111100011011110001001 i
b11000100110111100011011110001001 l
0h
0+
#435
b1000 W
b111 c
b11 `
b1110 T
b1101 Q
b100 ]
b1100 Z
b11000100110111100011011110001001 ,
b11000100110111100011011110001001 M
b1001 f
b11000100110111100011011110001001 n
1J
1F
1G
1K
1L
1H
1I
1h
1+
#440
b110 X
b1000 [
b10 O
b11 R
b1110 a
b1101 U
b0 d
b1 <
b1 P
b1 S
b1 V
b1 Y
b1 \
b1 _
b1 b
0J
0F
0G
0K
0L
0H
0I
b1101000001000110011111011010000 -
b1101000001000110011111011010000 N
b1101000001000110011111011010000 i
b1101000001000110011111011010000 l
b1 (
b1 =
b1 e
b1 j
b1 m
0h
0+
#445
0)
b11000100110111100011011110001000 n
0o
b11000100110111100011011110001000 ,
b11000100110111100011011110001000 M
b1000 f
0>
1h
1+
#450
b10 X
b1100 O
b111 R
b1111 ^
b1100 a
b101 U
b1 d
b11 <
b11 P
b11 S
b11 V
b11 Y
b11 \
b11 _
b11 b
b101000110001111111110001010001 -
b101000110001111111110001010001 N
b101000110001111111110001010001 i
b101000110001111111110001010001 l
b11 (
b11 =
b11 e
b11 j
b11 m
0h
0+
#455
1)
b101 W
b1100 c
b1111 `
b111 T
b1100 Q
b1000 ]
b10 Z
b101000110001111111110001010001 ,
b101000110001111111110001010001 M
b1 f
1>
b101000110001111111110001010001 n
1o
1J
1F
1G
1K
1L
1H
1I
1h
1+
#460
b1000 X
b110 [
b1 O
b1101 R
b111 ^
b1111 a
b0 U
b1100 d
b1 <
b1 P
b1 S
b1 V
b1 Y
b1 \
b1 _
b1 b
0J
0F
0G
0K
0L
0H
0I
b10000110000111010111111100001100 -
b10000110000111010111111100001100 N
b10000110000111010111111100001100 i
b10000110000111010111111100001100 l
b10 (
b10 =
b10 e
b10 j
b10 m
0h
0+
#465
b100 W
0C
0)
1J
b101000110001111111110001001110 n
0o
b101000110001111111110001001110 ,
b101000110001111111110001001110 M
b1110 f
0>
15
1h
1+
#470
0J
05
b1110 X
b100 [
b101 O
b111 R
b1110 ^
b1101 a
b1100 U
b1000 d
b11100100010101111110110111001000 -
b11100100010101111110110111001000 N
b11100100010101111110110111001000 i
b11100100010101111110110111001000 l
0h
0+
#475
b101000110001111111110001001011 ,
b101000110001111111110001001011 M
b1011 f
b101000110001111111110001001011 n
1h
1+
#480
b1001 X
b1110 [
b1111 O
b10 R
b11 U
b1101 d
b11 <
b11 P
b11 S
b11 V
b11 Y
b11 \
b11 _
b11 b
b10011110111100101110110100111101 -
b10011110111100101110110100111101 N
b10011110111100101110110100111101 i
b10011110111100101110110100111101 l
b11 (
b11 =
b11 e
b11 j
b11 m
0h
0+
#485
1)
b11 W
1C
b1101 c
b1110 `
b10 T
b1111 Q
b1110 ]
b1001 Z
b10011110111100101110110100111101 n
1o
b10011110111100101110110100111101 ,
b10011110111100101110110100111101 M
b1101 f
1>
1J
1F
1G
1K
1L
1H
1I
1h
1+
#490
b11 X
b1111 [
b0 O
b101 R
b0 ^
b0 a
b111 U
b1110 d
b1 <
b1 P
b1 S
b1 V
b1 Y
b1 \
b1 _
b1 b
0J
0F
0G
0K
0L
0H
0I
b111111000001010000000001111110 -
b111111000001010000000001111110 N
b111111000001010000000001111110 i
b111111000001010000000001111110 l
b10 (
b10 =
b10 e
b10 j
b10 m
0h
0+
#495
0)
b10011110111100101110110100111010 ,
b10011110111100101110110100111010 M
b1010 f
0>
b10011110111100101110110100111010 n
0o
1h
1+
#500
b1001 X
b1100 [
b1101 O
b1001 R
b1110 ^
b111 a
b11 U
b1001 d
b10011100110110011110011100111001 -
b10011100110110011110011100111001 N
b10011100110110011110011100111001 i
b10011100110110011110011100111001 l
b1 (
b1 =
b1 e
b1 j
b1 m
0h
0+
#505
b10011110111100101110110100111001 n
b10011110111100101110110100111001 ,
b10011110111100101110110100111001 M
b1001 f
1h
1+
#510
b110 X
b1001 [
b1110 O
b1011 R
b1111 ^
b110 a
b1101 U
b11 d
b11 <
b11 P
b11 S
b11 V
b11 Y
b11 \
b11 _
b11 b
b1101001111010111111011011010011 -
b1101001111010111111011011010011 N
b1101001111010111111011011010011 i
b1101001111010111111011011010011 l
b11 (
b11 =
b11 e
b11 j
b11 m
0h
0+
#515
1)
b1101 W
b110 c
b1111 `
b1011 T
b1110 Q
b1001 ]
b110 Z
b1101001111010111111011011010011 ,
b1101001111010111111011011010011 M
b11 f
1>
b1101001111010111111011011010011 n
1o
1J
1F
1G
1K
1L
1H
1I
1h
1+
