tarea_1/src/tb.vcd
$date
	Fri Dec  4 11:23:38 2020
$end
$version
	Icarus Verilog
$end
$timescale
	1s
$end
$scope module tb_top $end
$var wire 1 ! load_ $end
$var wire 1 " rco_ $end
$var wire 1 # reset $end
$var wire 1 $ rco_x $end
$var wire 1 % rco_R $end
$var wire 1 & rco_C $end
$var wire 1 ' rco_B $end
$var wire 1 ( rco_A $end
$var wire 2 ) mode_ [1:0] $end
$var wire 1 * load_x $end
$var wire 1 + load_R $end
$var wire 1 , load_C $end
$var wire 1 - load_B $end
$var wire 1 . load_A $end
$var wire 1 / enable_ $end
$var wire 1 0 clock $end
$var wire 4 1 Q_x [3:0] $end
$var wire 4 2 Q_R [3:0] $end
$var wire 4 3 Q_C [3:0] $end
$var wire 4 4 Q_B [3:0] $end
$var wire 4 5 Q_A [3:0] $end
$var wire 4 6 D_ [3:0] $end
$scope module clock_m $end
$var reg 1 0 clock $end
$upscope $end
$scope module dut_ $end
$var wire 4 7 Q [3:0] $end
$var wire 1 0 clk $end
$var wire 1 * load $end
$var wire 1 $ rco $end
$var wire 1 # reset $end
$var wire 2 8 mode [1:0] $end
$var wire 1 / enable $end
$var wire 4 9 D [3:0] $end
$var reg 4 : count_next_reg [3:0] $end
$var reg 4 ; count_reg [3:0] $end
$var reg 6 < next_state_reg [5:0] $end
$var reg 1 = state_load $end
$var reg 1 > state_load_next $end
$var reg 1 ? state_rco $end
$var reg 1 @ state_rco_next $end
$var reg 6 A state_reg [5:0] $end
$upscope $end
$scope module dut_A $end
$var wire 1 B _004_ $end
$var wire 1 C _005_ $end
$var wire 1 D _020_ $end
$var wire 1 E _021_ $end
$var wire 1 F _024_ $end
$var wire 1 G _025_ $end
$var wire 1 H _026_ $end
$var wire 1 I _027_ $end
$var wire 1 J _028_ $end
$var wire 1 K _029_ $end
$var wire 1 L _030_ $end
$var wire 1 M _031_ $end
$var wire 1 N _032_ $end
$var wire 1 O _033_ $end
$var wire 1 P _034_ $end
$var wire 1 Q _035_ $end
$var wire 1 R _036_ $end
$var wire 1 S _037_ $end
$var wire 1 T _038_ $end
$var wire 1 U _039_ $end
$var wire 1 V _040_ $end
$var wire 1 W _041_ $end
$var wire 1 X _043_ $end
$var wire 1 Y _045_ $end
$var wire 1 Z _053_ $end
$var wire 1 [ _055_ $end
$var wire 1 \ _056_ $end
$var wire 1 0 clk $end
$var wire 1 # reset $end
$var wire 2 ] mode [1:0] $end
$var wire 1 / enable $end
$var wire 32 ^ _054_ [31:0] $end
$var wire 32 _ _052_ [31:0] $end
$var wire 32 ` _051_ [31:0] $end
$var wire 32 a _050_ [31:0] $end
$var wire 4 b _049_ [3:0] $end
$var wire 4 c _048_ [3:0] $end
$var wire 16 d _047_ [15:0] $end
$var wire 1 e _046_ $end
$var wire 4 f _044_ [3:0] $end
$var wire 4 g _042_ [3:0] $end
$var wire 2 h _023_ [1:0] $end
$var wire 4 i _022_ [3:0] $end
$var wire 2 j _019_ [1:0] $end
$var wire 2 k _018_ [1:0] $end
$var wire 2 l _017_ [1:0] $end
$var wire 2 m _016_ [1:0] $end
$var wire 2 n _015_ [1:0] $end
$var wire 2 o _014_ [1:0] $end
$var wire 2 p _013_ [1:0] $end
$var wire 2 q _012_ [1:0] $end
$var wire 2 r _011_ [1:0] $end
$var wire 2 s _010_ [1:0] $end
$var wire 2 t _009_ [1:0] $end
$var wire 2 u _008_ [1:0] $end
$var wire 32 v _007_ [31:0] $end
$var wire 32 w _006_ [31:0] $end
$var wire 1 x _003_ $end
$var wire 1 y _002_ $end
$var wire 1 z _001_ $end
$var wire 4 { _000_ [3:0] $end
$var wire 4 | D [3:0] $end
$var reg 4 } Q_A [3:0] $end
$var reg 1 . load_A $end
$var reg 1 ( rco_A $end
$upscope $end
$scope module dut_B $end
$var wire 1 ~ _005_ $end
$var wire 1 !" _012_ $end
$var wire 1 "" _013_ $end
$var wire 1 #" _019_ $end
$var wire 1 $" _020_ $end
$var wire 1 %" _023_ $end
$var wire 1 &" _024_ $end
$var wire 1 '" _025_ $end
$var wire 1 (" _026_ $end
$var wire 1 )" _027_ $end
$var wire 1 *" _028_ $end
$var wire 1 +" _029_ $end
$var wire 1 ," _030_ $end
$var wire 1 -" _031_ $end
$var wire 1 ." _032_ $end
$var wire 1 /" _033_ $end
$var wire 1 0" _034_ $end
$var wire 1 1" _035_ $end
$var wire 1 2" _036_ $end
$var wire 1 3" _037_ $end
$var wire 1 4" _038_ $end
$var wire 1 5" _039_ $end
$var wire 1 6" _040_ $end
$var wire 1 7" _042_ $end
$var wire 1 8" _044_ $end
$var wire 1 9" _045_ $end
$var wire 1 :" _048_ $end
$var wire 1 ;" _051_ $end
$var wire 1 <" _062_ $end
$var wire 1 =" _063_ $end
$var wire 1 >" _065_ $end
$var wire 1 ?" _066_ $end
$var wire 1 0 clk $end
$var wire 1 # reset $end
$var wire 2 @" mode [1:0] $end
$var wire 1 / enable $end
$var wire 32 A" _064_ [31:0] $end
$var wire 32 B" _061_ [31:0] $end
$var wire 32 C" _060_ [31:0] $end
$var wire 32 D" _059_ [31:0] $end
$var wire 4 E" _058_ [3:0] $end
$var wire 4 F" _057_ [3:0] $end
$var wire 4 G" _056_ [3:0] $end
$var wire 16 H" _055_ [15:0] $end
$var wire 1 I" _054_ $end
$var wire 1 J" _053_ $end
$var wire 1 K" _052_ $end
$var wire 3 L" _050_ [2:0] $end
$var wire 1 M" _049_ $end
$var wire 1 N" _047_ $end
$var wire 1 O" _046_ $end
$var wire 1 P" _043_ $end
$var wire 4 Q" _041_ [3:0] $end
$var wire 2 R" _022_ [1:0] $end
$var wire 4 S" _021_ [3:0] $end
$var wire 2 T" _018_ [1:0] $end
$var wire 2 U" _017_ [1:0] $end
$var wire 2 V" _016_ [1:0] $end
$var wire 2 W" _015_ [1:0] $end
$var wire 2 X" _014_ [1:0] $end
$var wire 2 Y" _011_ [1:0] $end
$var wire 2 Z" _010_ [1:0] $end
$var wire 2 [" _009_ [1:0] $end
$var wire 2 \" _008_ [1:0] $end
$var wire 2 ]" _007_ [1:0] $end
$var wire 2 ^" _006_ [1:0] $end
$var wire 32 _" _004_ [31:0] $end
$var wire 32 `" _003_ [31:0] $end
$var wire 1 a" _002_ $end
$var wire 1 b" _001_ $end
$var wire 4 c" _000_ [3:0] $end
$var wire 4 d" D [3:0] $end
$var reg 4 e" Q_B [3:0] $end
$var reg 1 - load_B $end
$var reg 1 ' rco_B $end
$upscope $end
$scope module dut_C $end
$var wire 1 f" _005_ $end
$var wire 1 g" _006_ $end
$var wire 1 h" _017_ $end
$var wire 1 i" _018_ $end
$var wire 1 j" _021_ $end
$var wire 1 k" _022_ $end
$var wire 1 l" _023_ $end
$var wire 1 m" _024_ $end
$var wire 1 n" _025_ $end
$var wire 1 o" _026_ $end
$var wire 1 p" _027_ $end
$var wire 1 q" _028_ $end
$var wire 1 r" _029_ $end
$var wire 1 s" _030_ $end
$var wire 1 t" _031_ $end
$var wire 1 u" _032_ $end
$var wire 1 v" _033_ $end
$var wire 1 w" _034_ $end
$var wire 1 x" _036_ $end
$var wire 1 y" _038_ $end
$var wire 1 z" _039_ $end
$var wire 1 {" _040_ $end
$var wire 1 |" _041_ $end
$var wire 1 }" _052_ $end
$var wire 1 ~" _053_ $end
$var wire 1 !# _055_ $end
$var wire 1 "# _056_ $end
$var wire 1 0 clk $end
$var wire 1 # reset $end
$var wire 2 ## mode [1:0] $end
$var wire 1 / enable $end
$var wire 32 $# _054_ [31:0] $end
$var wire 32 %# _051_ [31:0] $end
$var wire 32 &# _050_ [31:0] $end
$var wire 32 '# _049_ [31:0] $end
$var wire 4 (# _048_ [3:0] $end
$var wire 4 )# _047_ [3:0] $end
$var wire 4 *# _046_ [3:0] $end
$var wire 16 +# _045_ [15:0] $end
$var wire 1 ,# _044_ $end
$var wire 1 -# _043_ $end
$var wire 1 .# _042_ $end
$var wire 1 /# _037_ $end
$var wire 4 0# _035_ [3:0] $end
$var wire 2 1# _020_ [1:0] $end
$var wire 4 2# _019_ [3:0] $end
$var wire 2 3# _016_ [1:0] $end
$var wire 2 4# _015_ [1:0] $end
$var wire 2 5# _014_ [1:0] $end
$var wire 2 6# _013_ [1:0] $end
$var wire 2 7# _012_ [1:0] $end
$var wire 2 8# _011_ [1:0] $end
$var wire 2 9# _010_ [1:0] $end
$var wire 2 :# _009_ [1:0] $end
$var wire 2 ;# _008_ [1:0] $end
$var wire 2 <# _007_ [1:0] $end
$var wire 32 =# _004_ [31:0] $end
$var wire 32 ># _003_ [31:0] $end
$var wire 1 ?# _002_ $end
$var wire 1 @# _001_ $end
$var wire 4 A# _000_ [3:0] $end
$var wire 4 B# D [3:0] $end
$var reg 4 C# Q_C [3:0] $end
$var reg 1 , load_C $end
$var reg 1 & rco_C $end
$upscope $end
$scope module dut_r $end
$var wire 4 D# Q [3:0] $end
$var wire 1 0 clk $end
$var wire 1 + load $end
$var wire 1 % rco $end
$var wire 1 # reset $end
$var wire 2 E# mode [1:0] $end
$var wire 1 / enable $end
$var wire 4 F# D [3:0] $end
$var reg 4 G# Q_atm [3:0] $end
$var reg 4 H# Q_next [3:0] $end
$var reg 1 I# aver $end
$var reg 1 J# load_atm $end
$var reg 1 K# load_next $end
$var reg 1 L# rco_atm $end
$var reg 1 M# rco_next $end
$var reg 6 N# state_atm [5:0] $end
$var reg 6 O# state_next [5:0] $end
$upscope $end
$scope module tb $end
$var wire 4 P# Q_A [3:0] $end
$var wire 4 Q# Q_B [3:0] $end
$var wire 4 R# Q_C [3:0] $end
$var wire 1 0 clk $end
$var wire 1 ! load_ $end
$var wire 1 . load_A $end
$var wire 1 - load_B $end
$var wire 1 , load_C $end
$var wire 1 " rco_ $end
$var wire 1 ( rco_A $end
$var wire 1 ' rco_B $end
$var wire 1 & rco_C $end
$var wire 1 S# clock $end
$var reg 4 T# D_ [3:0] $end
$var reg 1 / enable_ $end
$var reg 2 U# mode_ [1:0] $end
$var reg 1 # reset $end
$var integer 32 V# log_A [31:0] $end
$var integer 32 W# log_B [31:0] $end
$var integer 32 X# log_C [31:0] $end
$scope module clock_tb $end
$var reg 1 S# clock $end
$upscope $end
$scope module sb $end
$var wire 4 Y# D_ [3:0] $end
$var wire 1 0 clk $end
$var wire 1 / enable_ $end
$var wire 2 Z# mode_ [1:0] $end
$var wire 1 # reset $end
$var reg 4 [# Q_sb [3:0] $end
$var reg 1 \# load_sb $end
$var reg 1 ]# rco_sb $end
$upscope $end
$scope task checker $end
$var integer 32 ^# iteration [31:0] $end
$upscope $end
$scope task drv_init $end
$upscope $end
$scope task drv_request $end
$var integer 32 _# iteration [31:0] $end
$upscope $end
$upscope $end
$upscope $end
$enddefinitions $end
#0
$dumpvars
bx _#
bx ^#
0]#
0\#
bx [#
bx Z#
bx Y#
b1000 X#
b100 W#
b10 V#
bx U#
bx T#
0S#
bx R#
bx Q#
bx P#
bx O#
bx N#
xM#
xL#
xK#
xJ#
xI#
bx H#
bx G#
bx F#
bx E#
bx D#
bx C#
bx B#
bx A#
x@#
x?#
bzxxxx >#
bzxxxz =#
bx <#
bzx ;#
bzx :#
bx 9#
bzx 8#
bx 7#
bx 6#
bx 5#
bx 4#
bx 3#
bxz 2#
bx 1#
bxzz 0#
x/#
x.#
x-#
x,#
bx +#
bx *#
bx )#
bx (#
bzxxzz '#
bzxxz &#
bzxxz %#
bzxzz $#
bx ##
x"#
x!#
x~"
x}"
x|"
x{"
xz"
xy"
xx"
xw"
xv"
xu"
xt"
xs"
xr"
xq"
xp"
xo"
xn"
xm"
xl"
xk"
xj"
xi"
xh"
xg"
xf"
bx e"
bx d"
bx c"
xb"
xa"
bzxxxx `"
bzxxxz _"
bx ^"
bzx ]"
bxz \"
bzx ["
bx Z"
bx Y"
bx X"
bx W"
bx V"
bx U"
bx T"
bxz S"
bx R"
bxzz Q"
xP"
xO"
xN"
xM"
bxzz L"
xK"
xJ"
xI"
bx H"
bx G"
bx F"
bx E"
bzxxxx D"
bzxxz C"
bzxxz B"
bzxxx A"
bx @"
x?"
x>"
x="
x<"
x;"
x:"
x9"
x8"
x7"
x6"
x5"
x4"
x3"
x2"
x1"
x0"
x/"
x."
x-"
x,"
x+"
x*"
x)"
x("
x'"
x&"
x%"
x$"
x#"
x""
x!"
x~
bx }
bx |
bx {
xz
xy
xx
bzxxxx w
bzxxxz v
bx u
bzx t
bxz s
bzx r
bx q
bx p
bx o
bx n
bx m
bx l
bx k
bxz j
bxz i
bx h
bzxx g
bxzxz f
xe
bx d
bx c
bx b
bzxxzz a
bzxxz `
bzxxz _
bzxzz ^
bx ]
x\
x[
xZ
xY
xX
xW
xV
xU
xT
xS
xR
xQ
xP
xO
xN
xM
xL
xK
xJ
xI
xH
xG
xF
xE
xD
xC
xB
bx A
x@
x?
x>
x=
bx <
bx ;
bx :
bx 9
bx 8
bx 7
bx 6
bx 5
bx 4
bx 3
bx 2
bx 1
00
x/
x.
x-
x,
x+
x*
bx )
x(
x'
x&
x%
x$
x#
z"
z!
$end
#5
1S#
10
#10
0x
0X
bx0 5#
bx0 7#
bx0 6#
bx0 4#
bx0 V"
bx0 X"
bx0 W"
bx0 U"
bx0 o
bx0 k
bx0 l
bx0 n
bx0 m
0""
bx0zz 0#
bx0 9#
0-#
bz0 8#
1~"
bx0zz Q"
bx0 Z"
0~
1<"
b0 q
bxz0z f
1Z
0{"
0z"
0y"
1}"
1f"
09"
08"
0!"
0V
0U
bz00 g
1o"
1n"
1m"
1g"
1,"
1+"
1*"
b10 Y"
1="
1K
1J
1I
b10 p
b1111 A#
bz c"
1|"
1:"
1W
1?#
0@#
za"
zb"
bx000000000000 +#
bx000000000000 H"
bx000000000000 d
b11 1#
0i"
b11 R"
0$"
b11 h
0E
1.#
0,#
b1111 (#
zM"
zI"
bz E"
0z
0y
b0 {
b0 <
b0 :
b0 O#
b0 H#
0u"
04"
0Q
1p"
1."
1L
b1 6
b1 9
b1 |
b1 d"
b1 B#
b1 F#
b1 T#
b1 Y#
b0 )
b0 8
b0 ]
b0 @"
b0 ##
b0 E#
b0 U#
b0 Z#
0/
0#
0S#
00
#15
1/#
1x"
0e
0Y
b10 9#
b0 o
b0 6#
b10 )#
b10zz 0#
b11 b
1v"
b0z0z f
b0 7#
b10 5#
b10 *#
1w"
0S
b0 m
0R
b0 n
b10 l
b11 c
0T
1q"
0M
0P
0O
0N
b0 4#
0l"
1H
1G
1F
b10 k
1C
0s"
0r"
0t"
bz0zz ^
1B
1k"
bz11zz '#
0"#
0!#
1j"
1h"
b10000000000000 +#
bz0 :#
b1z s
bz11zz a
0\
b11 u
0D
b11000000000000 d
bz1 r
bz1zz $#
bz1 ;#
bz11z &#
b0z 2#
b1 <#
b11 3#
bz11z %#
bz0010 >#
bz000z =#
b0z j
bz00z `
b111z i
bz0 t
0[
bz00z _
bz0011 w
bz000z v
b0x H#
b1000 O#
0K#
b1 <
0>
x@
bx :
b0z 2
b0z D#
b0z G#
b1000 N#
0I#
0+
0J#
0%
0L#
z*
z=
z$
z?
bz 1
bz 7
bz ;
b1 A
1&
0,
b1111 3
b1111 C#
b1111 R#
z'
z-
bz 4
bz e"
bz Q#
b0 [#
0(
0.
b0 5
b0 }
b0 P#
1S#
10
#20
0S#
00
#25
1S#
10
#30
0>
x@
bx :
b10 6
b10 9
b10 |
b10 d"
b10 B#
b10 F#
b10 T#
b10 Y#
0S#
00
#35
1S#
10
#40
b10 A#
bx c"
xa"
xb"
b10 (#
xM"
xI"
bx E"
b11 {
0>
x@
bx :
1u"
14"
1Q
b1100100 _#
b1100100 ^#
b11 6
b11 9
b11 |
b11 d"
b11 B#
b11 F#
b11 T#
b11 Y#
1/
0S#
00
#45
0?#
0.#
0/#
b101 A#
0x"
b101 (#
b0 9#
b110 {
b101 )#
b0zz 0#
b110 b
0v"
b101 *#
0w"
b110 c
b10 n
0q"
b10 4#
b0 5#
b10 7#
b0 6#
1l"
b0 k
b10 l
0r"
0B
bz1zz ^
1j"
bz1 :#
bz00zz '#
1"#
b101000000000000 +#
b110000000000000 d
1D
bz00zz a
1\
bz010z v
bz0 r
b10 <#
bz01z &#
bz1zz $#
bz00z %#
b1 3#
bz0101 >#
b110z 2#
bz001z =#
0[
bz0110 w
bz1 t
bz01z `
bz01z _
b110z i
b1 [#
bx 4
bx e"
bx Q#
x-
x'
b10 3
b10 C#
b10 R#
0*
0=
x$
x?
bx 1
bx 7
bx ;
b0x 2
b0x D#
b0x G#
x%
xL#
b11 5
b11 }
b11 P#
1S#
10
#50
b100 6
b100 9
b100 |
b100 d"
b100 B#
b100 F#
b100 T#
b100 Y#
0S#
00
#55
b1000 A#
b1000 (#
b1001 {
b1000 )#
b1001 b
b10 6#
b1000 *#
b10 m
b1001 c
bz01zz '#
b0 7#
b0 4#
b0 5#
b0 n
b10 k
b0 l
0"#
1!#
bz0 ;#
b1000000000000000 +#
bz01zz a
0\
bz1 r
b1001000000000000 d
b11 3#
bz011z =#
bz11z &#
b101z 2#
b11 <#
bz1000 >#
b1z j
bz11z `
b100z i
b10 u
bz00z _
bz1001 w
bz011z v
0&
b101 3
b101 C#
b101 R#
b10 [#
b110 5
b110 }
b110 P#
1S#
10
#60
b101 6
b101 9
b101 |
b101 d"
b101 B#
b101 F#
b101 T#
b101 Y#
0S#
00
#65
b1011 A#
b1011 (#
b1100 {
b1011 )#
b1100 b
b1011 *#
b1100 c
bz10zz a
1\
b10 4#
b10 5#
b0 7#
b10 6#
b0 k
b0 l
b10 n
b10 m
bz1 ;#
bz01zz '#
0"#
b1011000000000000 +#
1[
b1100000000000000 d
b0z s
b10 3#
0!#
bz00z &#
bz0zz $#
bz1011 >#
b11z 2#
bz100z =#
b11 u
bz01z `
bz1zz ^
bz1100 w
b11z i
bz101z v
b11 [#
b1000 3
b1000 C#
b1000 R#
b1001 5
b1001 }
b1001 P#
1S#
10
#70
0e
0Y
b11 b
b0 o
b0 n
b11 c
b0z0z f
b0 m
0S
bz0zz ^
b10 k
b10 l
1B
0M
0\
bz11zz a
b1z s
0D
1H
b11000000000000 d
bz00z `
b0z j
b111z i
bz0 t
0[
bz0011 w
bz000z v
b0 5
b0 }
b0 P#
1.#
b1111 (#
zM"
zI"
bz E"
b0 {
0u"
04"
0Q
b0 A#
1?#
0p"
b0 c"
0b"
0a"
0."
0L
b110 6
b110 9
b110 |
b110 d"
b110 B#
b110 F#
b110 T#
b110 Y#
1#
0S#
00
#75
0P"
07"
b0 Z"
0K"
b0zz Q"
0;"
b11 )#
b11 F"
0N"
05"
b0zz L"
b11 *#
b0 W"
b0 X"
b10 V"
b11 G"
06"
0O"
0J"
0/"
0-"
02"
01"
00"
b0 6#
1%"
b10 U"
1)"
1("
1'"
1&"
1t"
13"
0h"
b11000000000000 +#
bz11zz '#
b1z \"
0?"
bz001z _"
b11 ^"
0#"
bz1110 D"
b11000000000000 H"
bz1 ["
bz1 ]"
b0 3#
bz0011 >#
b111z 2#
bz000z =#
bz00z B"
bz001 A"
b111z S"
b0 T"
0>"
bz00z C"
bz0001 `"
b11 H#
0M#
b0 O#
b10 <
0@
b11 :
b0 2
b0 D#
b0 G#
b0 N#
0%
0L#
0$
0?
b0 1
b0 7
b0 ;
b0 A
1&
b0 3
b0 C#
b0 R#
0'
0-
b0 4
b0 e"
b0 Q#
b0 [#
1S#
10
#80
0?#
0.#
b11 (#
0M"
0I"
b11 E"
b11 {
1u"
14"
1Q
b11 :
b11 A#
1p"
b11 c"
0b"
0a"
1."
1L
b111 6
b111 9
b111 |
b111 d"
b111 B#
b111 F#
b111 T#
b111 Y#
0#
0S#
00
#85
b110 c"
b110 A#
b110 E"
b110 (#
b110 {
b110 F"
b110 )#
b110 b
b110 G"
b10 X"
b110 *#
b10 7#
b10 n
b110 c
b10 V"
b0 U"
b0 4#
b10 5#
b0 k
b10 l
03"
0t"
bz1zz $#
bz1zz ^
0B
b110000000000000 H"
1#"
1?"
bz0 ["
b110000000000000 +#
1h"
bz00zz '#
1"#
bz010z =#
bz0 :#
bz00zz a
1\
1D
bz010z v
bz0 r
b110000000000000 d
0>"
bz011z _"
bz0100 `"
b1 T"
bz01z B"
bz111 A"
bz01z C"
b110z S"
bz0001 D"
0!#
bz0110 >#
b1 3#
bz01z &#
bz01z %#
b110z 2#
bz01z `
b110z i
bz1 t
0[
bz01z _
bz0110 w
b110 :
b110 H#
b1 [#
b11 4
b11 e"
b11 Q#
b11 3
b11 C#
b11 R#
0&
b11 1
b11 7
b11 ;
b10 A
b11 2
b11 D#
b11 G#
b11 5
b11 }
b11 P#
1S#
10
#90
b110 :
b1000 6
b1000 9
b1000 |
b1000 d"
b1000 B#
b1000 F#
b1000 T#
b1000 Y#
0S#
00
#95
b1001 A#
b1001 c"
b1001 (#
b1001 E"
b1001 {
b1001 )#
b1001 F"
b1001 b
b10 6#
b1001 *#
b10 W"
b1001 G"
b10 m
b1001 c
b0 7#
b10 4#
b0 5#
b0 X"
b0 V"
b10 U"
b10 k
b0 l
b0 n
bz01zz '#
0"#
bz1 :#
b1001000000000000 +#
0?"
b0z \"
bz0100 D"
b1001000000000000 H"
bz1 ["
bz1 r
bz01zz a
0\
b1001000000000000 d
b11 3#
bz11z &#
b100z 2#
b10 <#
bz00z %#
bz1001 >#
bz011z =#
b11 T"
bz11z B"
b100z S"
b10 ^"
bz111 A"
bz00z C"
bz100z _"
bz0111 `"
b10 u
b1z j
bz11z `
bz00z _
b100z i
bz1001 w
bz011z v
b1001 H#
b1001 :
b110 2
b110 D#
b110 G#
b110 1
b110 7
b110 ;
b110 3
b110 C#
b110 R#
b110 4
b110 e"
b110 Q#
b10 [#
b110 5
b110 }
b110 P#
1S#
10
#100
b1001 :
b1001 6
b1001 9
b1001 |
b1001 d"
b1001 B#
b1001 F#
b1001 T#
b1001 Y#
0S#
00
#105
b1100 c"
b1100 A#
b1100 E"
b1100 (#
b1100 {
b1100 F"
b1100 )#
b1100 b
b1100 G"
b1100 *#
b1100 c
bz10zz '#
1"#
bz10zz a
1\
b0 V"
b0 U"
b10 X"
b10 W"
b0 4#
b0 5#
b10 7#
b10 6#
b10 m
b10 n
b0 k
b0 l
bz0 ]"
1>"
b1100000000000000 H"
bz0 ;#
1!#
b1100000000000000 +#
b0z s
1[
b1100000000000000 d
b11 ^"
bz0111 D"
bz01z B"
bz001 A"
b1z \"
b11z S"
bz110z _"
bz1010 `"
b11 <#
bz01z &#
bz1zz $#
bz1100 >#
b11z 2#
bz101z =#
bz1zz ^
bz101z v
bz01z `
b11z i
b11 u
bz1100 w
b1100 :
b1100 H#
b11 [#
b1001 4
b1001 e"
b1001 Q#
b1001 3
b1001 C#
b1001 R#
b1001 1
b1001 7
b1001 ;
b1001 2
b1001 D#
b1001 G#
b1001 5
b1001 }
b1001 P#
1S#
10
#110
b1100 :
b1010 6
b1010 9
b1010 |
b1010 d"
b1010 B#
b1010 F#
b1010 T#
b1010 Y#
0S#
00
#115
1y
1e
b1111 A#
b1111 c"
1Y
b1111 (#
b1111 E"
b10 o
b1111 {
b1111 )#
b1111 F"
b1z0z f
b1111 b
1S
b10 6#
b1111 *#
b10 W"
b1111 G"
b10 m
1R
b1111 c
1P
b10 7#
b10 4#
b10 5#
b10 X"
b10 V"
b10 U"
b10 k
b10 l
0G
b10 n
0"#
b1 <#
bz1 ;#
b1111000000000000 +#
b1 ^"
bz1010 D"
b1111000000000000 H"
bz1 ]"
bz10zz a
0\
b1 u
b1111000000000000 d
bz00z &#
b1z 2#
b10 3#
0!#
bz1111 >#
bz110z =#
bz00z B"
b1z S"
b10 T"
0>"
bz101 A"
bz111z _"
bz1101 `"
bz0 t
0[
b1z s
bz00z `
b1z i
bz1111 w
bz110z v
b1111 H#
b1111 :
b1100 2
b1100 D#
b1100 G#
b1100 1
b1100 7
b1100 ;
b1100 3
b1100 C#
b1100 R#
b1100 4
b1100 e"
b1100 Q#
b100 [#
b1100 5
b1100 }
b1100 P#
1S#
10
#120
b1111 :
b1011 6
b1011 9
b1011 |
b1011 d"
b1011 B#
b1011 F#
b1011 T#
b1011 Y#
0S#
00
#125
1a"
1M"
1?#
1P"
1.#
17"
1/#
b10 c"
b10 A#
1x"
1y
b10 Z"
1e
b10 E"
b10 (#
b10 9#
1Y
b10 {
b10zz Q"
b10 F"
b0 W"
1N"
b10 )#
b0 6#
b10zz 0#
b0 m
b10 o
b10 b
15"
1v"
b10 G"
b0 X"
16"
b10 *#
b0 7#
1w"
b0 n
b1z0z f
1T
b10 c
1-"
1q"
1S
1N
b10 V"
b0 U"
0)"
b0 4#
b10 5#
0l"
1R
b0 k
0C
b10 l
0P
b10000000000000 H"
bz0 ["
b10000000000000 +#
bz11zz '#
bz000z =#
bz0 :#
bz11zz a
1G
bz000z v
bz0 r
b10000000000000 d
0>"
bz001z _"
bz0000 `"
b11 T"
bz11z B"
bz111 A"
bz11z C"
b0z S"
bz1101 D"
0!#
bz0010 >#
b11 3#
bz11z &#
bz11z %#
b0z 2#
bz11z `
b0z i
bz1 t
0[
bz11z _
bz0010 w
1@
b10 :
b10 H#
1M#
b101 [#
b1111 4
b1111 e"
b1111 Q#
b1111 3
b1111 C#
b1111 R#
b1111 1
b1111 7
b1111 ;
b1111 2
b1111 D#
b1111 G#
1(
b1111 5
b1111 }
b1111 P#
1S#
10
#130
1@
b10 :
b1100 6
b1100 9
b1100 |
b1100 d"
b1100 B#
b1100 F#
b1100 T#
b1100 Y#
0S#
00
#135
0a"
0?#
0M"
0y
0.#
0P"
0e
0/#
07"
0Y
0x"
b101 A#
b101 c"
b0 Z"
b0 o
b0 9#
b101 (#
b101 E"
b101 {
b0zz Q"
b0z0z f
b0zz 0#
b101 )#
b101 F"
0N"
b101 b
0S
0v"
05"
0R
0w"
b101 *#
b101 G"
06"
b101 c
0T
0q"
0-"
0N
b0 6#
b10 7#
b10 4#
1l"
b0 5#
0O"
b0 W"
b10 X"
b0 V"
b10 U"
1)"
b10 k
b0 l
b10 n
b0 m
1C
0r"
02"
0/"
0O
bz00zz '#
1"#
1j"
bz1 :#
b101000000000000 +#
1("
1?"
1%"
bz0000 D"
b101000000000000 H"
bz1 ["
1F
bz1 r
bz00zz a
1\
b101000000000000 d
b1 3#
bz01z &#
bz1zz $#
b110z 2#
b10 <#
bz00z %#
bz0101 >#
bz001z =#
b1z \"
b1 T"
bz01z B"
b110z S"
b10 ^"
bz111 A"
bz00z C"
bz010z _"
bz0011 `"
b10 u
b1z s
bz01z `
bz1zz ^
bz00z _
b0z j
bz0101 w
b110z i
bz001z v
b101 H#
0M#
0@
b101 :
b10 2
b10 D#
b10 G#
1%
1L#
1$
1?
b10 1
b10 7
b10 ;
1&
b10 3
b10 C#
b10 R#
1'
b10 4
b10 e"
b10 Q#
b110 [#
b10 5
b10 }
b10 P#
1S#
10
#140
0@
b101 :
b1101 6
b1101 9
b1101 |
b1101 d"
b1101 B#
b1101 F#
b1101 T#
b1101 Y#
0S#
00
#145
b1000 c"
1b"
b1000 A#
1I"
b1000 E"
1K"
b1000 (#
b1000 {
1;"
b1000 F"
b1000 )#
b1000 b
b1zz L"
b10 W"
b1000 G"
1J"
b10 6#
b1000 *#
b10 m
b1000 c
11"
bz01zz '#
bz01zz a
b0 V"
b0 U"
b0 X"
0'"
b0 4#
b0 5#
b0 7#
b0 n
b0 k
b0 l
bz0 ]"
1>"
b1000000000000000 H"
0?"
b0z \"
bz0 ;#
1!#
b1000000000000000 +#
0"#
0\
1[
b1000000000000000 d
b11 ^"
bz101 A"
bz0011 D"
b11 T"
bz11z B"
bz100z _"
b101z S"
bz0110 `"
b11 <#
b11 3#
bz11z &#
bz1000 >#
b101z 2#
bz011z =#
b1z j
bz011z v
bz11z `
b101z i
b11 u
bz1000 w
b1000 :
b1000 H#
b111 [#
b101 4
b101 e"
b101 Q#
0'
b101 3
b101 C#
b101 R#
0&
0$
0?
b101 1
b101 7
b101 ;
b101 2
b101 D#
b101 G#
0%
0L#
0(
b101 5
b101 }
b101 P#
1S#
10
#150
b1000 :
b1110 6
b1110 9
b1110 |
b1110 d"
b1110 B#
b1110 F#
b1110 T#
b1110 Y#
0S#
00
#155
1y
b1011 A#
b1011 c"
1e
1Y
b1011 (#
0b"
b1011 E"
b1011 {
0I"
b10 o
b1011 )#
0K"
b1011 F"
b1011 b
0;"
b1z0z f
b1011 *#
b1011 G"
b1011 c
1S
b0zz L"
1M
b10 6#
b0 7#
b10 4#
b10 5#
0J"
b10 W"
b0 X"
b10 V"
b10 U"
b10 k
b10 l
b0 n
b10 m
0H
01"
bz1 ;#
b1011000000000000 +#
1'"
bz0110 D"
b1011000000000000 H"
bz1 ]"
bz01zz a
0\
b1011000000000000 d
b0z s
bz00z &#
bz0zz $#
b11z 2#
b10 3#
0!#
bz1011 >#
bz100z =#
b1z \"
bz00z B"
b11z S"
b10 T"
0>"
bz001 A"
bz101z _"
bz1001 `"
bz0 t
0[
bz00z `
bz0zz ^
bz1011 w
b11z i
bz100z v
b1011 H#
b1011 :
b1000 2
b1000 D#
b1000 G#
b1000 1
b1000 7
b1000 ;
b1000 3
b1000 C#
b1000 R#
1-
b1000 4
b1000 e"
b1000 Q#
b1000 [#
b1000 5
b1000 }
b1000 P#
1S#
10
#160
b1011 :
b1111 6
b1111 9
b1111 |
b1111 d"
b1111 B#
b1111 F#
b1111 T#
b1111 Y#
0S#
00
